"Local Code","Age Group","Population","# of population with at least 1 dose","Percent of population who received at least one dose","# of population fully immunized","Percent of population fully immunized","Local Name","Zone Name"
"Z1.1.A.01","12-19 years",305,76,24.9,0,0,"CROWSNEST PASS","SOUTH"
"Z1.1.A.01","20-39 years",1322,376,28.4,55,4.2,"CROWSNEST PASS","SOUTH"
"Z1.1.A.01","40-59 years",1617,843,52.1,78,4.8,"CROWSNEST PASS","SOUTH"
"Z1.1.A.01","60-74 years",1633,1230,75.3,99,6.1,"CROWSNEST PASS","SOUTH"
"Z1.1.A.01","75+ years",618,500,81,421,68.2,"CROWSNEST PASS","SOUTH"
"Z1.1.A.01","All age years",6358,3029,47.6,653,10.3,"CROWSNEST PASS","SOUTH"
"Z1.1.A.02","12-19 years",489,171,35,7,1.4,"PINCHER CREEK","SOUTH"
"Z1.1.A.02","20-39 years",1971,737,37.4,111,5.6,"PINCHER CREEK","SOUTH"
"Z1.1.A.02","40-59 years",1929,1048,54.3,215,11.1,"PINCHER CREEK","SOUTH"
"Z1.1.A.02","60-74 years",1749,1320,75.5,229,13.1,"PINCHER CREEK","SOUTH"
"Z1.1.A.02","75+ years",807,709,87.8,620,76.8,"PINCHER CREEK","SOUTH"
"Z1.1.A.02","All age years",8407,3993,47.5,1182,14.1,"PINCHER CREEK","SOUTH"
"Z1.1.A.03","12-19 years",402,121,30.1,6,1.5,"FORT MACLEOD","SOUTH"
"Z1.1.A.03","20-39 years",1717,414,24.1,44,2.6,"FORT MACLEOD","SOUTH"
"Z1.1.A.03","40-59 years",1458,655,44.9,86,5.9,"FORT MACLEOD","SOUTH"
"Z1.1.A.03","60-74 years",1219,825,67.7,90,7.4,"FORT MACLEOD","SOUTH"
"Z1.1.A.03","75+ years",535,401,74.9,346,64.7,"FORT MACLEOD","SOUTH"
"Z1.1.A.03","All age years",6840,2419,35.4,572,8.4,"FORT MACLEOD","SOUTH"
"Z1.1.B.04","12-19 years",1326,352,26.5,13,1,"CARDSTON-KAINAI","SOUTH"
"Z1.1.B.04","20-39 years",4122,843,20.5,141,3.4,"CARDSTON-KAINAI","SOUTH"
"Z1.1.B.04","40-59 years",3357,1262,37.6,192,5.7,"CARDSTON-KAINAI","SOUTH"
"Z1.1.B.04","60-74 years",2558,1364,53.3,251,9.8,"CARDSTON-KAINAI","SOUTH"
"Z1.1.B.04","75+ years",1277,878,68.8,703,55.1,"CARDSTON-KAINAI","SOUTH"
"Z1.1.B.04","All age years",16639,4706,28.3,1300,7.8,"CARDSTON-KAINAI","SOUTH"
"Z1.2.A.01","12-19 years",1924,553,28.7,4,0.2,"COUNTY OF LETHBRIDGE","SOUTH"
"Z1.2.A.01","20-39 years",7077,2042,28.9,207,2.9,"COUNTY OF LETHBRIDGE","SOUTH"
"Z1.2.A.01","40-59 years",5594,2903,51.9,184,3.3,"COUNTY OF LETHBRIDGE","SOUTH"
"Z1.2.A.01","60-74 years",3696,2723,73.7,253,6.8,"COUNTY OF LETHBRIDGE","SOUTH"
"Z1.2.A.01","75+ years",1356,1099,81.1,943,69.6,"COUNTY OF LETHBRIDGE","SOUTH"
"Z1.2.A.01","All age years",26202,9348,35.7,1591,6.1,"COUNTY OF LETHBRIDGE","SOUTH"
"Z1.2.B.02","12-19 years",1615,295,18.3,3,0.2,"TABER MD","SOUTH"
"Z1.2.B.02","20-39 years",5153,908,17.6,55,1.1,"TABER MD","SOUTH"
"Z1.2.B.02","40-59 years",4152,1718,41.4,110,2.6,"TABER MD","SOUTH"
"Z1.2.B.02","60-74 years",2357,1605,68.1,122,5.2,"TABER MD","SOUTH"
"Z1.2.B.02","75+ years",989,806,81.5,658,66.5,"TABER MD","SOUTH"
"Z1.2.B.02","All age years",19203,5339,27.8,948,4.9,"TABER MD","SOUTH"
"Z1.2.C.03","12-19 years",927,223,24,4,0.4,"COUNTY OF WARNER","SOUTH"
"Z1.2.C.03","20-39 years",2698,653,24.2,88,3.3,"COUNTY OF WARNER","SOUTH"
"Z1.2.C.03","40-59 years",2278,1069,46.9,115,5,"COUNTY OF WARNER","SOUTH"
"Z1.2.C.03","60-74 years",1858,1279,68.8,174,9.4,"COUNTY OF WARNER","SOUTH"
"Z1.2.C.03","75+ years",815,615,75.5,510,62.6,"COUNTY OF WARNER","SOUTH"
"Z1.2.C.03","All age years",11216,3858,34.4,891,7.9,"COUNTY OF WARNER","SOUTH"
"Z1.2.C.04","12-19 years",540,34,6.3,0,0,"COUNTY OF FORTY MILE","SOUTH"
"Z1.2.C.04","20-39 years",1699,164,9.7,19,1.1,"COUNTY OF FORTY MILE","SOUTH"
"Z1.2.C.04","40-59 years",1214,388,32,37,3,"COUNTY OF FORTY MILE","SOUTH"
"Z1.2.C.04","60-74 years",859,508,59.2,71,8.3,"COUNTY OF FORTY MILE","SOUTH"
"Z1.2.C.04","75+ years",341,260,76.3,223,65.4,"COUNTY OF FORTY MILE","SOUTH"
"Z1.2.C.04","All age years",6477,1355,20.9,350,5.4,"COUNTY OF FORTY MILE","SOUTH"
"Z1.3.A.01","12-19 years",1983,591,29.8,17,0.9,"NEWELL","SOUTH"
"Z1.3.A.01","20-39 years",7780,2428,31.2,115,1.5,"NEWELL","SOUTH"
"Z1.3.A.01","40-59 years",7416,3611,48.7,225,3,"NEWELL","SOUTH"
"Z1.3.A.01","60-74 years",3496,2454,70.2,205,5.9,"NEWELL","SOUTH"
"Z1.3.A.01","75+ years",1279,1015,79.4,857,67,"NEWELL","SOUTH"
"Z1.3.A.01","All age years",27920,10118,36.2,1419,5.1,"NEWELL","SOUTH"
"Z1.3.B.02","12-19 years",204,22,10.8,2,1,"OYEN","SOUTH"
"Z1.3.B.02","20-39 years",781,165,21.1,28,3.6,"OYEN","SOUTH"
"Z1.3.B.02","40-59 years",833,325,39,61,7.3,"OYEN","SOUTH"
"Z1.3.B.02","60-74 years",745,480,64.5,178,23.9,"OYEN","SOUTH"
"Z1.3.B.02","75+ years",313,249,79.5,209,66.7,"OYEN","SOUTH"
"Z1.3.B.02","All age years",3525,1242,35.2,478,13.6,"OYEN","SOUTH"
"Z1.3.B.03","12-19 years",792,278,35.1,7,0.9,"CYPRESS COUNTY","SOUTH"
"Z1.3.B.03","20-39 years",2798,804,28.7,56,2,"CYPRESS COUNTY","SOUTH"
"Z1.3.B.03","40-59 years",3168,1630,51.4,91,2.9,"CYPRESS COUNTY","SOUTH"
"Z1.3.B.03","60-74 years",1963,1340,68.3,85,4.3,"CYPRESS COUNTY","SOUTH"
"Z1.3.B.03","75+ years",507,366,72.3,279,55.1,"CYPRESS COUNTY","SOUTH"
"Z1.3.B.03","All age years",11405,4430,38.8,518,4.5,"CYPRESS COUNTY","SOUTH"
"Z1.4.A.01","12-19 years",3885,1784,45.9,19,0.5,"MEDICINE HAT","SOUTH"
"Z1.4.A.01","20-39 years",17653,6721,38.1,617,3.5,"MEDICINE HAT","SOUTH"
"Z1.4.A.01","40-59 years",17060,9960,58.4,789,4.6,"MEDICINE HAT","SOUTH"
"Z1.4.A.01","60-74 years",12574,9702,77.2,914,7.3,"MEDICINE HAT","SOUTH"
"Z1.4.A.01","75+ years",5866,5041,85.9,4371,74.5,"MEDICINE HAT","SOUTH"
"Z1.4.A.01","All age years",68404,33288,48.7,6710,9.8,"MEDICINE HAT","SOUTH"
"Z1.5.A.01","12-19 years",2558,1566,61.2,14,0.5,"LETHBRIDGE - WEST","SOUTH"
"Z1.5.A.01","20-39 years",13658,7253,53.1,588,4.3,"LETHBRIDGE - WEST","SOUTH"
"Z1.5.A.01","40-59 years",8704,6384,73.3,520,6,"LETHBRIDGE - WEST","SOUTH"
"Z1.5.A.01","60-74 years",4903,4218,86,420,8.6,"LETHBRIDGE - WEST","SOUTH"
"Z1.5.A.01","75+ years",1596,1447,90.6,1319,82.6,"LETHBRIDGE - WEST","SOUTH"
"Z1.5.A.01","All age years",39115,20950,53.6,2861,7.3,"LETHBRIDGE - WEST","SOUTH"
"Z1.5.B.02","12-19 years",1496,674,45.1,12,0.8,"LETHBRIDGE - NORTH","SOUTH"
"Z1.5.B.02","20-39 years",8270,3506,42.4,304,3.7,"LETHBRIDGE - NORTH","SOUTH"
"Z1.5.B.02","40-59 years",7090,4574,64.5,344,4.9,"LETHBRIDGE - NORTH","SOUTH"
"Z1.5.B.02","60-74 years",4590,3811,83,400,8.7,"LETHBRIDGE - NORTH","SOUTH"
"Z1.5.B.02","75+ years",2004,1775,88.6,1469,73.3,"LETHBRIDGE - NORTH","SOUTH"
"Z1.5.B.02","All age years",28222,14374,50.9,2529,9,"LETHBRIDGE - NORTH","SOUTH"
"Z1.5.C.03","12-19 years",1630,908,55.7,13,0.8,"LETHBRIDGE - SOUTH","SOUTH"
"Z1.5.C.03","20-39 years",9700,4126,42.5,370,3.8,"LETHBRIDGE - SOUTH","SOUTH"
"Z1.5.C.03","40-59 years",7527,5029,66.8,437,5.8,"LETHBRIDGE - SOUTH","SOUTH"
"Z1.5.C.03","60-74 years",6621,5464,82.5,655,9.9,"LETHBRIDGE - SOUTH","SOUTH"
"Z1.5.C.03","75+ years",4430,3984,89.9,3650,82.4,"LETHBRIDGE - SOUTH","SOUTH"
"Z1.5.C.03","All age years",34789,19542,56.2,5125,14.7,"LETHBRIDGE - SOUTH","SOUTH"
"Z2.1.A.01","12-19 years",7877,3287,41.7,34,0.4,"CALGARY - UPPER NW","CALGARY"
"Z2.1.A.01","20-39 years",34553,14688,42.5,1083,3.1,"CALGARY - UPPER NW","CALGARY"
"Z2.1.A.01","40-59 years",34909,22240,63.7,1338,3.8,"CALGARY - UPPER NW","CALGARY"
"Z2.1.A.01","60-74 years",19230,15713,81.7,1800,9.4,"CALGARY - UPPER NW","CALGARY"
"Z2.1.A.01","75+ years",6641,5700,85.8,5126,77.2,"CALGARY - UPPER NW","CALGARY"
"Z2.1.A.01","All age years",125587,61758,49.2,9381,7.5,"CALGARY - UPPER NW","CALGARY"
"Z2.1.B.02","12-19 years",7453,2592,34.8,31,0.4,"CALGARY - NORTH","CALGARY"
"Z2.1.B.02","20-39 years",33695,12830,38.1,1040,3.1,"CALGARY - NORTH","CALGARY"
"Z2.1.B.02","40-59 years",34221,20687,60.5,1376,4,"CALGARY - NORTH","CALGARY"
"Z2.1.B.02","60-74 years",14770,11831,80.1,1078,7.3,"CALGARY - NORTH","CALGARY"
"Z2.1.B.02","75+ years",4424,3797,85.8,3166,71.6,"CALGARY - NORTH","CALGARY"
"Z2.1.B.02","All age years",118910,51837,43.6,6691,5.6,"CALGARY - NORTH","CALGARY"
"Z2.1.C.03","12-19 years",3505,1273,36.3,9,0.3,"CALGARY - NOSE HILL","CALGARY"
"Z2.1.C.03","20-39 years",25107,9838,39.2,643,2.6,"CALGARY - NOSE HILL","CALGARY"
"Z2.1.C.03","40-59 years",20735,12510,60.3,663,3.2,"CALGARY - NOSE HILL","CALGARY"
"Z2.1.C.03","60-74 years",11778,9275,78.8,1021,8.7,"CALGARY - NOSE HILL","CALGARY"
"Z2.1.C.03","75+ years",4952,4281,86.4,3723,75.2,"CALGARY - NOSE HILL","CALGARY"
"Z2.1.C.03","All age years",78422,37227,47.5,6059,7.7,"CALGARY - NOSE HILL","CALGARY"
"Z2.1.D.04","12-19 years",4208,2002,47.6,17,0.4,"CALGARY - LOWER NW","CALGARY"
"Z2.1.D.04","20-39 years",16704,7652,45.8,522,3.1,"CALGARY - LOWER NW","CALGARY"
"Z2.1.D.04","40-59 years",17271,12141,70.3,804,4.7,"CALGARY - LOWER NW","CALGARY"
"Z2.1.D.04","60-74 years",9736,8288,85.1,1087,11.2,"CALGARY - LOWER NW","CALGARY"
"Z2.1.D.04","75+ years",4417,4060,91.9,3766,85.3,"CALGARY - LOWER NW","CALGARY"
"Z2.1.D.04","All age years",62936,34231,54.4,6196,9.8,"CALGARY - LOWER NW","CALGARY"
"Z2.1.E.05","12-19 years",825,252,30.5,2,0.2,"CALGARY - WEST BOW","CALGARY"
"Z2.1.E.05","20-39 years",6482,2696,41.6,325,5,"CALGARY - WEST BOW","CALGARY"
"Z2.1.E.05","40-59 years",5552,3149,56.7,260,4.7,"CALGARY - WEST BOW","CALGARY"
"Z2.1.E.05","60-74 years",3760,2870,76.3,425,11.3,"CALGARY - WEST BOW","CALGARY"
"Z2.1.E.05","75+ years",1714,1490,87,1348,78.7,"CALGARY - WEST BOW","CALGARY"
"Z2.1.E.05","All age years",21500,10468,48.7,2360,11,"CALGARY - WEST BOW","CALGARY"
"Z2.1.F.06","12-19 years",1586,881,55.5,4,0.3,"CALGARY - CENTRE NORTH","CALGARY"
"Z2.1.F.06","20-39 years",15638,7792,49.8,609,3.9,"CALGARY - CENTRE NORTH","CALGARY"
"Z2.1.F.06","40-59 years",12413,8079,65.1,550,4.4,"CALGARY - CENTRE NORTH","CALGARY"
"Z2.1.F.06","60-74 years",6537,5147,78.7,770,11.8,"CALGARY - CENTRE NORTH","CALGARY"
"Z2.1.F.06","75+ years",3007,2592,86.2,2322,77.2,"CALGARY - CENTRE NORTH","CALGARY"
"Z2.1.F.06","All age years",45414,24545,54,4255,9.4,"CALGARY - CENTRE NORTH","CALGARY"
"Z2.2.A.01","12-19 years",7779,2170,27.9,24,0.3,"CALGARY - UPPER NE","CALGARY"
"Z2.2.A.01","20-39 years",44857,12561,28,1078,2.4,"CALGARY - UPPER NE","CALGARY"
"Z2.2.A.01","40-59 years",29656,16038,54.1,1243,4.2,"CALGARY - UPPER NE","CALGARY"
"Z2.2.A.01","60-74 years",11824,9247,78.2,636,5.4,"CALGARY - UPPER NE","CALGARY"
"Z2.2.A.01","75+ years",3380,2575,76.2,1860,55,"CALGARY - UPPER NE","CALGARY"
"Z2.2.A.01","All age years",125654,42637,33.9,4841,3.9,"CALGARY - UPPER NE","CALGARY"
"Z2.2.B.02","12-19 years",5785,1267,21.9,19,0.3,"CALGARY - LOWER NE","CALGARY"
"Z2.2.B.02","20-39 years",28657,7152,25,521,1.8,"CALGARY - LOWER NE","CALGARY"
"Z2.2.B.02","40-59 years",25149,12445,49.5,802,3.2,"CALGARY - LOWER NE","CALGARY"
"Z2.2.B.02","60-74 years",14007,11137,79.5,1019,7.3,"CALGARY - LOWER NE","CALGARY"
"Z2.2.B.02","75+ years",4576,3941,86.1,3208,70.1,"CALGARY - LOWER NE","CALGARY"
"Z2.2.B.02","All age years",96631,35969,37.2,5569,5.8,"CALGARY - LOWER NE","CALGARY"
"Z2.3.A.01","12-19 years",4124,741,18,7,0.2,"CALGARY - EAST","CALGARY"
"Z2.3.A.01","20-39 years",21176,4985,23.5,341,1.6,"CALGARY - EAST","CALGARY"
"Z2.3.A.01","40-59 years",20685,9634,46.6,554,2.7,"CALGARY - EAST","CALGARY"
"Z2.3.A.01","60-74 years",11080,8252,74.5,714,6.4,"CALGARY - EAST","CALGARY"
"Z2.3.A.01","75+ years",3557,2923,82.2,2370,66.6,"CALGARY - EAST","CALGARY"
"Z2.3.A.01","All age years",72591,26544,36.6,3986,5.5,"CALGARY - EAST","CALGARY"
"Z2.3.B.02","12-19 years",7432,2788,37.5,23,0.3,"CALGARY - SE","CALGARY"
"Z2.3.B.02","20-39 years",41476,15837,38.2,1547,3.7,"CALGARY - SE","CALGARY"
"Z2.3.B.02","40-59 years",38943,23827,61.2,1591,4.1,"CALGARY - SE","CALGARY"
"Z2.3.B.02","60-74 years",15419,12493,81,1221,7.9,"CALGARY - SE","CALGARY"
"Z2.3.B.02","75+ years",4263,3729,87.5,3433,80.5,"CALGARY - SE","CALGARY"
"Z2.3.B.02","All age years",138537,58821,42.5,7815,5.6,"CALGARY - SE","CALGARY"
"Z2.4.A.01","12-19 years",6217,3350,53.9,23,0.4,"CALGARY - WEST","CALGARY"
"Z2.4.A.01","20-39 years",22214,10398,46.8,691,3.1,"CALGARY - WEST","CALGARY"
"Z2.4.A.01","40-59 years",28211,19288,68.4,1152,4.1,"CALGARY - WEST","CALGARY"
"Z2.4.A.01","60-74 years",13870,11239,81,1494,10.8,"CALGARY - WEST","CALGARY"
"Z2.4.A.01","75+ years",5221,4572,87.6,4193,80.3,"CALGARY - WEST","CALGARY"
"Z2.4.A.01","All age years",93211,49001,52.6,7553,8.1,"CALGARY - WEST","CALGARY"
"Z2.4.B.02","12-19 years",1390,481,34.6,1,0.1,"CALGARY - CENTRE","CALGARY"
"Z2.4.B.02","20-39 years",33047,13991,42.3,863,2.6,"CALGARY - CENTRE","CALGARY"
"Z2.4.B.02","40-59 years",17260,9301,53.9,363,2.1,"CALGARY - CENTRE","CALGARY"
"Z2.4.B.02","60-74 years",8169,5860,71.7,704,8.6,"CALGARY - CENTRE","CALGARY"
"Z2.4.B.02","75+ years",2988,2287,76.5,1921,64.3,"CALGARY - CENTRE","CALGARY"
"Z2.4.B.02","All age years",69057,31931,46.2,3852,5.6,"CALGARY - CENTRE","CALGARY"
"Z2.4.C.03","12-19 years",2940,1422,48.4,10,0.3,"CALGARY - CENTRE WEST","CALGARY"
"Z2.4.C.03","20-39 years",21123,9984,47.3,868,4.1,"CALGARY - CENTRE WEST","CALGARY"
"Z2.4.C.03","40-59 years",18494,12319,66.6,736,4,"CALGARY - CENTRE WEST","CALGARY"
"Z2.4.C.03","60-74 years",8966,7187,80.2,1056,11.8,"CALGARY - CENTRE WEST","CALGARY"
"Z2.4.C.03","75+ years",3869,3487,90.1,3127,80.8,"CALGARY - CENTRE WEST","CALGARY"
"Z2.4.C.03","All age years",66463,34462,51.9,5797,8.7,"CALGARY - CENTRE WEST","CALGARY"
"Z2.4.D.04","12-19 years",1877,1040,55.4,8,0.4,"CALGARY - ELBOW","CALGARY"
"Z2.4.D.04","20-39 years",11893,5247,44.1,340,2.9,"CALGARY - ELBOW","CALGARY"
"Z2.4.D.04","40-59 years",10652,6969,65.4,514,4.8,"CALGARY - ELBOW","CALGARY"
"Z2.4.D.04","60-74 years",7583,6205,81.8,1202,15.9,"CALGARY - ELBOW","CALGARY"
"Z2.4.D.04","75+ years",3832,3276,85.5,3046,79.5,"CALGARY - ELBOW","CALGARY"
"Z2.4.D.04","All age years",41000,22771,55.5,5110,12.5,"CALGARY - ELBOW","CALGARY"
"Z2.4.E.05","12-19 years",5464,1820,33.3,16,0.3,"CALGARY - FISH CREEK","CALGARY"
"Z2.4.E.05","20-39 years",30543,11540,37.8,786,2.6,"CALGARY - FISH CREEK","CALGARY"
"Z2.4.E.05","40-59 years",29766,18471,62.1,1024,3.4,"CALGARY - FISH CREEK","CALGARY"
"Z2.4.E.05","60-74 years",20793,17119,82.3,1912,9.2,"CALGARY - FISH CREEK","CALGARY"
"Z2.4.E.05","75+ years",8203,7252,88.4,6493,79.1,"CALGARY - FISH CREEK","CALGARY"
"Z2.4.E.05","All age years",111466,56270,50.5,10231,9.2,"CALGARY - FISH CREEK","CALGARY"
"Z2.4.F.06","12-19 years",7799,2833,36.3,41,0.5,"CALGARY - SW","CALGARY"
"Z2.4.F.06","20-39 years",32217,12175,37.8,1093,3.4,"CALGARY - SW","CALGARY"
"Z2.4.F.06","40-59 years",35029,21495,61.4,1711,4.9,"CALGARY - SW","CALGARY"
"Z2.4.F.06","60-74 years",15660,12756,81.5,1304,8.3,"CALGARY - SW","CALGARY"
"Z2.4.F.06","75+ years",5845,5175,88.5,4739,81.1,"CALGARY - SW","CALGARY"
"Z2.4.F.06","All age years",118678,54517,45.9,8888,7.5,"CALGARY - SW","CALGARY"
"Z2.5.A.01","12-19 years",3452,1008,29.2,15,0.4,"OKOTOKS-PRIDDIS","CALGARY"
"Z2.5.A.01","20-39 years",10373,3142,30.3,256,2.5,"OKOTOKS-PRIDDIS","CALGARY"
"Z2.5.A.01","40-59 years",13508,7730,57.2,415,3.1,"OKOTOKS-PRIDDIS","CALGARY"
"Z2.5.A.01","60-74 years",8412,6548,77.8,596,7.1,"OKOTOKS-PRIDDIS","CALGARY"
"Z2.5.A.01","75+ years",2636,2288,86.8,2080,78.9,"OKOTOKS-PRIDDIS","CALGARY"
"Z2.5.A.01","All age years",46994,20755,44.2,3362,7.2,"OKOTOKS-PRIDDIS","CALGARY"
"Z2.5.B.02","12-19 years",465,78,16.8,3,0.6,"BLACK DIAMOND","CALGARY"
"Z2.5.B.02","20-39 years",1783,419,23.5,70,3.9,"BLACK DIAMOND","CALGARY"
"Z2.5.B.02","40-59 years",2341,1051,44.9,100,4.3,"BLACK DIAMOND","CALGARY"
"Z2.5.B.02","60-74 years",2139,1540,72,144,6.7,"BLACK DIAMOND","CALGARY"
"Z2.5.B.02","75+ years",724,606,83.7,462,63.8,"BLACK DIAMOND","CALGARY"
"Z2.5.B.02","All age years",8875,3696,41.6,779,8.8,"BLACK DIAMOND","CALGARY"
"Z2.5.B.03","12-19 years",1525,328,21.5,9,0.6,"HIGH RIVER","CALGARY"
"Z2.5.B.03","20-39 years",5174,1317,25.5,110,2.1,"HIGH RIVER","CALGARY"
"Z2.5.B.03","40-59 years",6115,3036,49.7,206,3.4,"HIGH RIVER","CALGARY"
"Z2.5.B.03","60-74 years",4868,3529,72.5,336,6.9,"HIGH RIVER","CALGARY"
"Z2.5.B.03","75+ years",2379,2035,85.5,1720,72.3,"HIGH RIVER","CALGARY"
"Z2.5.B.03","All age years",23993,10252,42.7,2381,9.9,"HIGH RIVER","CALGARY"
"Z2.5.C.04","12-19 years",266,62,23.3,0,0,"CLARESHOLM","CALGARY"
"Z2.5.C.04","20-39 years",1257,311,24.7,32,2.5,"CLARESHOLM","CALGARY"
"Z2.5.C.04","40-59 years",1502,704,46.9,70,4.7,"CLARESHOLM","CALGARY"
"Z2.5.C.04","60-74 years",1530,1161,75.9,125,8.2,"CLARESHOLM","CALGARY"
"Z2.5.C.04","75+ years",831,703,84.6,555,66.8,"CLARESHOLM","CALGARY"
"Z2.5.C.04","All age years",6267,2947,47,782,12.5,"CLARESHOLM","CALGARY"
"Z2.5.C.05","12-19 years",457,93,20.3,2,0.4,"VULCAN","CALGARY"
"Z2.5.C.05","20-39 years",1488,308,20.7,26,1.7,"VULCAN","CALGARY"
"Z2.5.C.05","40-59 years",1515,659,43.5,59,3.9,"VULCAN","CALGARY"
"Z2.5.C.05","60-74 years",1496,1045,69.8,89,5.9,"VULCAN","CALGARY"
"Z2.5.C.05","75+ years",679,548,80.7,410,60.4,"VULCAN","CALGARY"
"Z2.5.C.05","All age years",6837,2656,38.8,586,8.6,"VULCAN","CALGARY"
"Z2.6.A.01","12-19 years",4571,1237,27.1,9,0.2,"AIRDRIE","CALGARY"
"Z2.6.A.01","20-39 years",22157,6496,29.3,488,2.2,"AIRDRIE","CALGARY"
"Z2.6.A.01","40-59 years",20294,10843,53.4,557,2.7,"AIRDRIE","CALGARY"
"Z2.6.A.01","60-74 years",8824,6915,78.4,405,4.6,"AIRDRIE","CALGARY"
"Z2.6.A.01","75+ years",2222,1815,81.7,1524,68.6,"AIRDRIE","CALGARY"
"Z2.6.A.01","All age years",76018,27367,36,2983,3.9,"AIRDRIE","CALGARY"
"Z2.6.B.02","12-19 years",1807,636,35.2,4,0.2,"CHESTERMERE","CALGARY"
"Z2.6.B.02","20-39 years",6562,2266,34.5,163,2.5,"CHESTERMERE","CALGARY"
"Z2.6.B.02","40-59 years",7295,4248,58.2,216,3,"CHESTERMERE","CALGARY"
"Z2.6.B.02","60-74 years",3610,2829,78.4,236,6.5,"CHESTERMERE","CALGARY"
"Z2.6.B.02","75+ years",1145,1011,88.3,878,76.7,"CHESTERMERE","CALGARY"
"Z2.6.B.02","All age years",25681,11007,42.9,1497,5.8,"CHESTERMERE","CALGARY"
"Z2.6.C.03","12-19 years",2500,742,29.7,34,1.4,"STRATHMORE","CALGARY"
"Z2.6.C.03","20-39 years",8802,2771,31.5,536,6.1,"STRATHMORE","CALGARY"
"Z2.6.C.03","40-59 years",9970,5348,53.6,742,7.4,"STRATHMORE","CALGARY"
"Z2.6.C.03","60-74 years",5565,4145,74.5,611,11,"STRATHMORE","CALGARY"
"Z2.6.C.03","75+ years",1971,1671,84.8,1384,70.2,"STRATHMORE","CALGARY"
"Z2.6.C.03","All age years",35924,14728,41,3307,9.2,"STRATHMORE","CALGARY"
"Z2.6.C.04","12-19 years",526,173,32.9,5,1,"CROSSFIELD","CALGARY"
"Z2.6.C.04","20-39 years",2287,515,22.5,20,0.9,"CROSSFIELD","CALGARY"
"Z2.6.C.04","40-59 years",2618,1196,45.7,41,1.6,"CROSSFIELD","CALGARY"
"Z2.6.C.04","60-74 years",1866,1242,66.6,88,4.7,"CROSSFIELD","CALGARY"
"Z2.6.C.04","75+ years",508,396,77.9,291,57.2,"CROSSFIELD","CALGARY"
"Z2.6.C.04","All age years",9432,3529,37.4,445,4.7,"CROSSFIELD","CALGARY"
"Z2.6.C.05","12-19 years",1044,336,32.2,5,0.5,"DIDSBURY","CALGARY"
"Z2.6.C.05","20-39 years",3607,891,24.7,76,2.1,"DIDSBURY","CALGARY"
"Z2.6.C.05","40-59 years",4485,2065,46,153,3.4,"DIDSBURY","CALGARY"
"Z2.6.C.05","60-74 years",3319,2385,71.9,194,5.8,"DIDSBURY","CALGARY"
"Z2.6.C.05","75+ years",1209,1075,88.9,851,70.4,"DIDSBURY","CALGARY"
"Z2.6.C.05","All age years",16700,6764,40.5,1279,7.7,"DIDSBURY","CALGARY"
"Z2.7.A.01","12-19 years",3247,1241,38.2,8,0.2,"COCHRANE-SPRINGBANK","CALGARY"
"Z2.7.A.01","20-39 years",12658,4714,37.2,360,2.8,"COCHRANE-SPRINGBANK","CALGARY"
"Z2.7.A.01","40-59 years",14175,8745,61.7,594,4.2,"COCHRANE-SPRINGBANK","CALGARY"
"Z2.7.A.01","60-74 years",9720,7516,77.3,859,8.8,"COCHRANE-SPRINGBANK","CALGARY"
"Z2.7.A.01","75+ years",2978,2539,85.2,2316,77.8,"COCHRANE-SPRINGBANK","CALGARY"
"Z2.7.A.01","All age years",52406,24804,47.3,4137,7.9,"COCHRANE-SPRINGBANK","CALGARY"
"Z2.7.B.02","12-19 years",1515,749,49.4,22,1.5,"CANMORE","CALGARY"
"Z2.7.B.02","20-39 years",8460,3446,40.7,334,3.9,"CANMORE","CALGARY"
"Z2.7.B.02","40-59 years",7679,4944,64.4,456,5.9,"CANMORE","CALGARY"
"Z2.7.B.02","60-74 years",4711,3738,79.3,420,8.9,"CANMORE","CALGARY"
"Z2.7.B.02","75+ years",1267,1075,84.9,996,78.6,"CANMORE","CALGARY"
"Z2.7.B.02","All age years",28270,13987,49.5,2228,7.9,"CANMORE","CALGARY"
"Z2.7.B.03","12-19 years",486,257,52.9,0,0,"BANFF","CALGARY"
"Z2.7.B.03","20-39 years",7824,3375,43.1,44,0.6,"BANFF","CALGARY"
"Z2.7.B.03","40-59 years",2983,1918,64.3,71,2.4,"BANFF","CALGARY"
"Z2.7.B.03","60-74 years",1082,839,77.5,75,6.9,"BANFF","CALGARY"
"Z2.7.B.03","75+ years",301,263,87.4,235,78.1,"BANFF","CALGARY"
"Z2.7.B.03","All age years",13665,6661,48.7,425,3.1,"BANFF","CALGARY"
"Z3.1.A.01","12-19 years",1279,316,24.7,7,0.5,"ROCKY MOUNTAIN HOUSE","CENTRAL"
"Z3.1.A.01","20-39 years",5102,1162,22.8,145,2.8,"ROCKY MOUNTAIN HOUSE","CENTRAL"
"Z3.1.A.01","40-59 years",5199,2322,44.7,214,4.1,"ROCKY MOUNTAIN HOUSE","CENTRAL"
"Z3.1.A.01","60-74 years",3606,2467,68.4,263,7.3,"ROCKY MOUNTAIN HOUSE","CENTRAL"
"Z3.1.A.01","75+ years",1381,1113,80.6,871,63.1,"ROCKY MOUNTAIN HOUSE","CENTRAL"
"Z3.1.A.01","All age years",20358,7392,36.3,1500,7.4,"ROCKY MOUNTAIN HOUSE","CENTRAL"
"Z3.1.B.02","12-19 years",1106,200,18.1,4,0.4,"DRAYTON VALLEY","CENTRAL"
"Z3.1.B.02","20-39 years",4686,845,18,87,1.9,"DRAYTON VALLEY","CENTRAL"
"Z3.1.B.02","40-59 years",4799,1897,39.5,127,2.6,"DRAYTON VALLEY","CENTRAL"
"Z3.1.B.02","60-74 years",3017,2019,66.9,125,4.1,"DRAYTON VALLEY","CENTRAL"
"Z3.1.B.02","75+ years",1098,866,78.9,506,46.1,"DRAYTON VALLEY","CENTRAL"
"Z3.1.B.02","All age years",18113,5836,32.2,849,4.7,"DRAYTON VALLEY","CENTRAL"
"Z3.2.A.01","12-19 years",414,92,22.2,4,1,"SUNDRE","CENTRAL"
"Z3.2.A.01","20-39 years",1432,295,20.6,26,1.8,"SUNDRE","CENTRAL"
"Z3.2.A.01","40-59 years",1750,727,41.6,50,2.9,"SUNDRE","CENTRAL"
"Z3.2.A.01","60-74 years",1633,1110,68,100,6.1,"SUNDRE","CENTRAL"
"Z3.2.A.01","75+ years",647,519,80.2,302,46.7,"SUNDRE","CENTRAL"
"Z3.2.A.01","All age years",6847,2746,40.1,482,7,"SUNDRE","CENTRAL"
"Z3.2.A.02","12-19 years",707,294,41.6,1,0.1,"OLDS","CENTRAL"
"Z3.2.A.02","20-39 years",3167,963,30.4,94,3,"OLDS","CENTRAL"
"Z3.2.A.02","40-59 years",3103,1586,51.1,118,3.8,"OLDS","CENTRAL"
"Z3.2.A.02","60-74 years",2280,1702,74.7,139,6.1,"OLDS","CENTRAL"
"Z3.2.A.02","75+ years",1355,1105,81.5,887,65.4,"OLDS","CENTRAL"
"Z3.2.A.02","All age years",12662,5658,44.7,1239,9.8,"OLDS","CENTRAL"
"Z3.2.B.03","12-19 years",911,235,25.8,6,0.7,"INNISFAIL","CENTRAL"
"Z3.2.B.03","20-39 years",3773,941,24.9,82,2.2,"INNISFAIL","CENTRAL"
"Z3.2.B.03","40-59 years",4106,2016,49.1,142,3.5,"INNISFAIL","CENTRAL"
"Z3.2.B.03","60-74 years",3248,2399,73.9,194,6,"INNISFAIL","CENTRAL"
"Z3.2.B.03","75+ years",1468,1263,86.1,869,59.2,"INNISFAIL","CENTRAL"
"Z3.2.B.03","All age years",15923,6861,43.1,1293,8.1,"INNISFAIL","CENTRAL"
"Z3.2.C.04","12-19 years",1700,540,31.8,4,0.2,"RED DEER COUNTY","CENTRAL"
"Z3.2.C.04","20-39 years",8941,2229,24.9,204,2.3,"RED DEER COUNTY","CENTRAL"
"Z3.2.C.04","40-59 years",7587,3494,46.1,214,2.8,"RED DEER COUNTY","CENTRAL"
"Z3.2.C.04","60-74 years",4663,3112,66.7,272,5.8,"RED DEER COUNTY","CENTRAL"
"Z3.2.C.04","75+ years",1409,1095,77.7,847,60.1,"RED DEER COUNTY","CENTRAL"
"Z3.2.C.04","All age years",30540,10498,34.4,1541,5,"RED DEER COUNTY","CENTRAL"
"Z3.2.C.05","12-19 years",1123,359,32,3,0.3,"SYLVAN LAKE","CENTRAL"
"Z3.2.C.05","20-39 years",5697,1448,25.4,132,2.3,"SYLVAN LAKE","CENTRAL"
"Z3.2.C.05","40-59 years",4766,2214,46.5,139,2.9,"SYLVAN LAKE","CENTRAL"
"Z3.2.C.05","60-74 years",2413,1680,69.6,138,5.7,"SYLVAN LAKE","CENTRAL"
"Z3.2.C.05","75+ years",631,529,83.8,411,65.1,"SYLVAN LAKE","CENTRAL"
"Z3.2.C.05","All age years",18367,6245,34,823,4.5,"SYLVAN LAKE","CENTRAL"
"Z3.3.A.01","12-19 years",697,184,26.4,7,1,"THREE HILLS/HIGHWAY 21","CENTRAL"
"Z3.3.A.01","20-39 years",2481,622,25.1,73,2.9,"THREE HILLS/HIGHWAY 21","CENTRAL"
"Z3.3.A.01","40-59 years",2658,1169,44,119,4.5,"THREE HILLS/HIGHWAY 21","CENTRAL"
"Z3.3.A.01","60-74 years",2052,1370,66.8,112,5.5,"THREE HILLS/HIGHWAY 21","CENTRAL"
"Z3.3.A.01","75+ years",1005,766,76.2,489,48.6,"THREE HILLS/HIGHWAY 21","CENTRAL"
"Z3.3.A.01","All age years",10858,4119,37.9,800,7.4,"THREE HILLS/HIGHWAY 21","CENTRAL"
"Z3.3.A.02","12-19 years",716,248,34.6,3,0.4,"STARLAND COUNTY/DRUMHELLER","CENTRAL"
"Z3.3.A.02","20-39 years",2837,886,31.2,95,3.3,"STARLAND COUNTY/DRUMHELLER","CENTRAL"
"Z3.3.A.02","40-59 years",3069,1569,51.1,147,4.8,"STARLAND COUNTY/DRUMHELLER","CENTRAL"
"Z3.3.A.02","60-74 years",2396,1774,74,154,6.4,"STARLAND COUNTY/DRUMHELLER","CENTRAL"
"Z3.3.A.02","75+ years",961,831,86.4,611,63.6,"STARLAND COUNTY/DRUMHELLER","CENTRAL"
"Z3.3.A.02","All age years",11848,5314,44.8,1010,8.5,"STARLAND COUNTY/DRUMHELLER","CENTRAL"
"Z3.3.A.04","12-19 years",207,39,18.8,3,1.4,"PLANNING & SPECIAL AREA 2","CENTRAL"
"Z3.3.A.04","20-39 years",776,187,24.1,22,2.8,"PLANNING & SPECIAL AREA 2","CENTRAL"
"Z3.3.A.04","40-59 years",960,424,44.2,42,4.4,"PLANNING & SPECIAL AREA 2","CENTRAL"
"Z3.3.A.04","60-74 years",803,511,63.6,40,5,"PLANNING & SPECIAL AREA 2","CENTRAL"
"Z3.3.A.04","75+ years",372,324,87.1,228,61.3,"PLANNING & SPECIAL AREA 2","CENTRAL"
"Z3.3.A.04","All age years",3673,1488,40.5,335,9.1,"PLANNING & SPECIAL AREA 2","CENTRAL"
"Z3.3.B.03","12-19 years",745,200,26.8,4,0.5,"STETTLER & COUNTY","CENTRAL"
"Z3.3.B.03","20-39 years",3014,729,24.2,90,3,"STETTLER & COUNTY","CENTRAL"
"Z3.3.B.03","40-59 years",3001,1351,45,122,4.1,"STETTLER & COUNTY","CENTRAL"
"Z3.3.B.03","60-74 years",2371,1602,67.6,154,6.5,"STETTLER & COUNTY","CENTRAL"
"Z3.3.B.03","75+ years",1156,942,81.5,681,58.9,"STETTLER & COUNTY","CENTRAL"
"Z3.3.B.03","All age years",12597,4828,38.3,1051,8.3,"STETTLER & COUNTY","CENTRAL"
"Z3.3.B.05","12-19 years",428,57,13.3,0,0,"CASTOR/CORONATION/CONSORT","CENTRAL"
"Z3.3.B.05","20-39 years",1396,287,20.6,60,4.3,"CASTOR/CORONATION/CONSORT","CENTRAL"
"Z3.3.B.05","40-59 years",1515,576,38,82,5.4,"CASTOR/CORONATION/CONSORT","CENTRAL"
"Z3.3.B.05","60-74 years",1210,804,66.5,229,18.9,"CASTOR/CORONATION/CONSORT","CENTRAL"
"Z3.3.B.05","75+ years",518,403,77.7,316,61,"CASTOR/CORONATION/CONSORT","CENTRAL"
"Z3.3.B.05","All age years",6194,2130,34.4,687,11.1,"CASTOR/CORONATION/CONSORT","CENTRAL"
"Z3.4.A.01","12-19 years",2300,626,27.2,45,2,"WETASKIWIN COUNTY","CENTRAL"
"Z3.4.A.01","20-39 years",8308,2452,29.5,575,6.9,"WETASKIWIN COUNTY","CENTRAL"
"Z3.4.A.01","40-59 years",7809,4033,51.6,779,10,"WETASKIWIN COUNTY","CENTRAL"
"Z3.4.A.01","60-74 years",5668,4106,72.4,690,12.2,"WETASKIWIN COUNTY","CENTRAL"
"Z3.4.A.01","75+ years",2415,2067,85.6,1662,68.8,"WETASKIWIN COUNTY","CENTRAL"
"Z3.4.A.01","All age years",33659,13305,39.5,3751,11.1,"WETASKIWIN COUNTY","CENTRAL"
"Z3.4.B.02","12-19 years",740,212,28.6,7,0.9,"PONOKA","CENTRAL"
"Z3.4.B.02","20-39 years",3210,862,26.9,130,4,"PONOKA","CENTRAL"
"Z3.4.B.02","40-59 years",2960,1514,51.2,190,6.4,"PONOKA","CENTRAL"
"Z3.4.B.02","60-74 years",2200,1551,70.5,167,7.6,"PONOKA","CENTRAL"
"Z3.4.B.02","75+ years",1011,831,82.2,645,63.8,"PONOKA","CENTRAL"
"Z3.4.B.02","All age years",12487,4973,39.8,1139,9.1,"PONOKA","CENTRAL"
"Z3.4.B.03","12-19 years",567,121,21.3,0,0,"RIMBEY","CENTRAL"
"Z3.4.B.03","20-39 years",2214,433,19.6,43,1.9,"RIMBEY","CENTRAL"
"Z3.4.B.03","40-59 years",2471,940,38,81,3.3,"RIMBEY","CENTRAL"
"Z3.4.B.03","60-74 years",2265,1529,67.5,109,4.8,"RIMBEY","CENTRAL"
"Z3.4.B.03","75+ years",928,747,80.5,481,51.8,"RIMBEY","CENTRAL"
"Z3.4.B.03","All age years",10134,3778,37.3,714,7,"RIMBEY","CENTRAL"
"Z3.4.B.04","12-19 years",1497,463,30.9,5,0.3,"LACOMBE","CENTRAL"
"Z3.4.B.04","20-39 years",6146,1773,28.9,159,2.6,"LACOMBE","CENTRAL"
"Z3.4.B.04","40-59 years",5817,2926,50.3,209,3.6,"LACOMBE","CENTRAL"
"Z3.4.B.04","60-74 years",4089,2835,69.3,261,6.4,"LACOMBE","CENTRAL"
"Z3.4.B.04","75+ years",1684,1365,81.1,963,57.2,"LACOMBE","CENTRAL"
"Z3.4.B.04","All age years",23679,9385,39.6,1597,6.7,"LACOMBE","CENTRAL"
"Z3.5.A.01","12-19 years",1664,762,45.8,6,0.4,"CAMROSE & COUNTY","CENTRAL"
"Z3.5.A.01","20-39 years",7537,2791,37,342,4.5,"CAMROSE & COUNTY","CENTRAL"
"Z3.5.A.01","40-59 years",7156,4312,60.3,482,6.7,"CAMROSE & COUNTY","CENTRAL"
"Z3.5.A.01","60-74 years",5681,4474,78.8,498,8.8,"CAMROSE & COUNTY","CENTRAL"
"Z3.5.A.01","75+ years",2987,2658,89,2353,78.8,"CAMROSE & COUNTY","CENTRAL"
"Z3.5.A.01","All age years",30202,15033,49.8,3681,12.2,"CAMROSE & COUNTY","CENTRAL"
"Z3.5.B.02","12-19 years",430,97,22.5,1,0.2,"TOFIELD","CENTRAL"
"Z3.5.B.02","20-39 years",1803,576,31.9,52,2.9,"TOFIELD","CENTRAL"
"Z3.5.B.02","40-59 years",2038,1018,49.9,84,4.1,"TOFIELD","CENTRAL"
"Z3.5.B.02","60-74 years",1580,1159,73.3,116,7.3,"TOFIELD","CENTRAL"
"Z3.5.B.02","75+ years",619,498,80.5,371,59.9,"TOFIELD","CENTRAL"
"Z3.5.B.02","All age years",7876,3350,42.5,624,7.9,"TOFIELD","CENTRAL"
"Z3.5.B.03","12-19 years",134,40,29.9,2,1.5,"VIKING","CENTRAL"
"Z3.5.B.03","20-39 years",505,143,28.3,27,5.3,"VIKING","CENTRAL"
"Z3.5.B.03","40-59 years",585,318,54.4,38,6.5,"VIKING","CENTRAL"
"Z3.5.B.03","60-74 years",514,362,70.5,54,10.5,"VIKING","CENTRAL"
"Z3.5.B.03","75+ years",285,236,82.7,193,67.6,"VIKING","CENTRAL"
"Z3.5.B.03","All age years",2385,1099,46.1,314,13.2,"VIKING","CENTRAL"
"Z3.5.B.04","12-19 years",529,189,35.7,7,1.3,"FLAGSTAFF COUNTY","CENTRAL"
"Z3.5.B.04","20-39 years",1817,548,30.2,62,3.4,"FLAGSTAFF COUNTY","CENTRAL"
"Z3.5.B.04","40-59 years",2106,1134,53.9,110,5.2,"FLAGSTAFF COUNTY","CENTRAL"
"Z3.5.B.04","60-74 years",1795,1387,77.3,134,7.5,"FLAGSTAFF COUNTY","CENTRAL"
"Z3.5.B.04","75+ years",840,721,85.8,585,69.6,"FLAGSTAFF COUNTY","CENTRAL"
"Z3.5.B.04","All age years",8424,3984,47.3,898,10.7,"FLAGSTAFF COUNTY","CENTRAL"
"Z3.5.C.05","12-19 years",356,74,20.8,3,0.8,"MD OF PROVOST","CENTRAL"
"Z3.5.C.05","20-39 years",1236,270,21.8,33,2.7,"MD OF PROVOST","CENTRAL"
"Z3.5.C.05","40-59 years",1256,505,40.2,49,3.9,"MD OF PROVOST","CENTRAL"
"Z3.5.C.05","60-74 years",806,551,68.4,49,6.1,"MD OF PROVOST","CENTRAL"
"Z3.5.C.05","75+ years",377,316,83.7,230,60.9,"MD OF PROVOST","CENTRAL"
"Z3.5.C.05","All age years",4891,1717,35.1,364,7.4,"MD OF PROVOST","CENTRAL"
"Z3.5.C.06","12-19 years",783,250,31.9,0,0,"MD OF WAINWRIGHT","CENTRAL"
"Z3.5.C.06","20-39 years",3204,1036,32.3,82,2.6,"MD OF WAINWRIGHT","CENTRAL"
"Z3.5.C.06","40-59 years",2953,1559,52.8,112,3.8,"MD OF WAINWRIGHT","CENTRAL"
"Z3.5.C.06","60-74 years",1938,1415,73,103,5.3,"MD OF WAINWRIGHT","CENTRAL"
"Z3.5.C.06","75+ years",779,661,84.9,525,67.4,"MD OF WAINWRIGHT","CENTRAL"
"Z3.5.C.06","All age years",12030,4926,40.9,822,6.8,"MD OF WAINWRIGHT","CENTRAL"
"Z3.6.A.01","12-19 years",298,100,33.6,2,0.7,"LAMONT COUNTY","CENTRAL"
"Z3.6.A.01","20-39 years",1485,373,25.1,47,3.2,"LAMONT COUNTY","CENTRAL"
"Z3.6.A.01","40-59 years",1564,788,50.4,78,5,"LAMONT COUNTY","CENTRAL"
"Z3.6.A.01","60-74 years",1409,1014,72,102,7.2,"LAMONT COUNTY","CENTRAL"
"Z3.6.A.01","75+ years",597,516,86.5,402,67.4,"LAMONT COUNTY","CENTRAL"
"Z3.6.A.01","All age years",6427,2794,43.5,631,9.8,"LAMONT COUNTY","CENTRAL"
"Z3.6.A.02","12-19 years",437,33,7.5,0,0,"TWO HILLS COUNTY","CENTRAL"
"Z3.6.A.02","20-39 years",1380,175,12.7,27,2,"TWO HILLS COUNTY","CENTRAL"
"Z3.6.A.02","40-59 years",1106,363,32.8,46,4.2,"TWO HILLS COUNTY","CENTRAL"
"Z3.6.A.02","60-74 years",801,569,71,177,22.1,"TWO HILLS COUNTY","CENTRAL"
"Z3.6.A.02","75+ years",435,360,82.8,298,68.5,"TWO HILLS COUNTY","CENTRAL"
"Z3.6.A.02","All age years",5608,1502,26.8,548,9.8,"TWO HILLS COUNTY","CENTRAL"
"Z3.6.A.03","12-19 years",565,205,36.3,5,0.9,"VEGREVILLE/MINBURN COUNTY","CENTRAL"
"Z3.6.A.03","20-39 years",2342,737,31.5,79,3.4,"VEGREVILLE/MINBURN COUNTY","CENTRAL"
"Z3.6.A.03","40-59 years",2594,1481,57.1,147,5.7,"VEGREVILLE/MINBURN COUNTY","CENTRAL"
"Z3.6.A.03","60-74 years",2003,1526,76.2,196,9.8,"VEGREVILLE/MINBURN COUNTY","CENTRAL"
"Z3.6.A.03","75+ years",1150,989,86,732,63.6,"VEGREVILLE/MINBURN COUNTY","CENTRAL"
"Z3.6.A.03","All age years",10314,4945,47.9,1159,11.2,"VEGREVILLE/MINBURN COUNTY","CENTRAL"
"Z3.6.B.04","12-19 years",2443,445,18.2,2,0.1,"VERMILION RIVER COUNTY","CENTRAL"
"Z3.6.B.04","20-39 years",10018,1777,17.7,106,1.1,"VERMILION RIVER COUNTY","CENTRAL"
"Z3.6.B.04","40-59 years",9494,1982,20.9,137,1.4,"VERMILION RIVER COUNTY","CENTRAL"
"Z3.6.B.04","60-74 years",5524,2495,45.2,300,5.4,"VERMILION RIVER COUNTY","CENTRAL"
"Z3.6.B.04","75+ years",2355,1375,58.4,910,38.6,"VERMILION RIVER COUNTY","CENTRAL"
"Z3.6.B.04","All age years",36913,8088,21.9,1455,3.9,"VERMILION RIVER COUNTY","CENTRAL"
"Z3.7.A.01","12-19 years",2094,747,35.7,4,0.2,"RED DEER - NORTH","CENTRAL"
"Z3.7.A.01","20-39 years",10995,3289,29.9,284,2.6,"RED DEER - NORTH","CENTRAL"
"Z3.7.A.01","40-59 years",9039,4788,53,360,4,"RED DEER - NORTH","CENTRAL"
"Z3.7.A.01","60-74 years",4945,3720,75.2,416,8.4,"RED DEER - NORTH","CENTRAL"
"Z3.7.A.01","75+ years",1736,1504,86.6,1279,73.7,"RED DEER - NORTH","CENTRAL"
"Z3.7.A.01","All age years",35527,14078,39.6,2343,6.6,"RED DEER - NORTH","CENTRAL"
"Z3.7.B.02","12-19 years",671,181,27,2,0.3,"RED DEER - SW","CENTRAL"
"Z3.7.B.02","20-39 years",4840,1431,29.6,129,2.7,"RED DEER - SW","CENTRAL"
"Z3.7.B.02","40-59 years",4125,1923,46.6,124,3,"RED DEER - SW","CENTRAL"
"Z3.7.B.02","60-74 years",2684,1864,69.4,179,6.7,"RED DEER - SW","CENTRAL"
"Z3.7.B.02","75+ years",1253,990,79,753,60.1,"RED DEER - SW","CENTRAL"
"Z3.7.B.02","All age years",15728,6393,40.6,1187,7.5,"RED DEER - SW","CENTRAL"
"Z3.7.C.03","12-19 years",3540,1800,50.8,16,0.5,"RED DEER - EAST","CENTRAL"
"Z3.7.C.03","20-39 years",15630,6212,39.7,698,4.5,"RED DEER - EAST","CENTRAL"
"Z3.7.C.03","40-59 years",14810,8967,60.5,703,4.7,"RED DEER - EAST","CENTRAL"
"Z3.7.C.03","60-74 years",8147,6512,79.9,716,8.8,"RED DEER - EAST","CENTRAL"
"Z3.7.C.03","75+ years",3166,2723,86,2130,67.3,"RED DEER - EAST","CENTRAL"
"Z3.7.C.03","All age years",55457,26277,47.4,4263,7.7,"RED DEER - EAST","CENTRAL"
"Z4.1.A.01","12-19 years",1962,617,31.5,5,0.3,"EDMONTON - WOODCROFT EAST","EDMONTON"
"Z4.1.A.01","20-39 years",22826,8717,38.2,788,3.5,"EDMONTON - WOODCROFT EAST","EDMONTON"
"Z4.1.A.01","40-59 years",15891,8824,55.5,557,3.5,"EDMONTON - WOODCROFT EAST","EDMONTON"
"Z4.1.A.01","60-74 years",8756,6662,76.1,941,10.7,"EDMONTON - WOODCROFT EAST","EDMONTON"
"Z4.1.A.01","75+ years",3772,3223,85.4,2732,72.4,"EDMONTON - WOODCROFT EAST","EDMONTON"
"Z4.1.A.01","All age years",60961,28063,46,5023,8.2,"EDMONTON - WOODCROFT EAST","EDMONTON"
"Z4.1.B.02","12-19 years",1548,652,42.1,11,0.7,"EDMONTON - WOODCROFT WEST","EDMONTON"
"Z4.1.B.02","20-39 years",10005,4430,44.3,424,4.2,"EDMONTON - WOODCROFT WEST","EDMONTON"
"Z4.1.B.02","40-59 years",8882,5705,64.2,391,4.4,"EDMONTON - WOODCROFT WEST","EDMONTON"
"Z4.1.B.02","60-74 years",5169,4024,77.8,414,8,"EDMONTON - WOODCROFT WEST","EDMONTON"
"Z4.1.B.02","75+ years",1867,1651,88.5,1422,76.2,"EDMONTON - WOODCROFT WEST","EDMONTON"
"Z4.1.B.02","All age years",33412,16488,49.3,2662,8,"EDMONTON - WOODCROFT WEST","EDMONTON"
"Z4.1.C.03","12-19 years",2507,668,26.6,6,0.2,"EDMONTON - JASPER PLACE","EDMONTON"
"Z4.1.C.03","20-39 years",13813,4746,34.4,420,3,"EDMONTON - JASPER PLACE","EDMONTON"
"Z4.1.C.03","40-59 years",12382,6851,55.3,565,4.6,"EDMONTON - JASPER PLACE","EDMONTON"
"Z4.1.C.03","60-74 years",7061,5278,74.8,679,9.6,"EDMONTON - JASPER PLACE","EDMONTON"
"Z4.1.C.03","75+ years",3864,3207,83,2791,72.2,"EDMONTON - JASPER PLACE","EDMONTON"
"Z4.1.C.03","All age years",47017,20764,44.2,4461,9.5,"EDMONTON - JASPER PLACE","EDMONTON"
"Z4.1.D.04","12-19 years",6095,2849,46.7,27,0.4,"EDMONTON - WEST JASPER PLACE","EDMONTON"
"Z4.1.D.04","20-39 years",30189,15016,49.7,1539,5.1,"EDMONTON - WEST JASPER PLACE","EDMONTON"
"Z4.1.D.04","40-59 years",28265,19596,69.3,1735,6.1,"EDMONTON - WEST JASPER PLACE","EDMONTON"
"Z4.1.D.04","60-74 years",15334,13017,84.9,1704,11.1,"EDMONTON - WEST JASPER PLACE","EDMONTON"
"Z4.1.D.04","75+ years",5222,4700,90,4144,79.4,"EDMONTON - WEST JASPER PLACE","EDMONTON"
"Z4.1.D.04","All age years",105899,55294,52.2,9149,8.6,"EDMONTON - WEST JASPER PLACE","EDMONTON"
"Z4.2.A.01","12-19 years",4539,1487,32.8,14,0.3,"EDMONTON - CASTLE DOWNS","EDMONTON"
"Z4.2.A.01","20-39 years",21000,8202,39.1,722,3.4,"EDMONTON - CASTLE DOWNS","EDMONTON"
"Z4.2.A.01","40-59 years",18520,11394,61.5,891,4.8,"EDMONTON - CASTLE DOWNS","EDMONTON"
"Z4.2.A.01","60-74 years",9725,8068,83,831,8.5,"EDMONTON - CASTLE DOWNS","EDMONTON"
"Z4.2.A.01","75+ years",3652,3271,89.6,2799,76.6,"EDMONTON - CASTLE DOWNS","EDMONTON"
"Z4.2.A.01","All age years",72888,32466,44.5,5257,7.2,"EDMONTON - CASTLE DOWNS","EDMONTON"
"Z4.2.B.02","12-19 years",4987,1414,28.4,19,0.4,"EDMONTON - NORTHGATE","EDMONTON"
"Z4.2.B.02","20-39 years",24147,8260,34.2,672,2.8,"EDMONTON - NORTHGATE","EDMONTON"
"Z4.2.B.02","40-59 years",20985,12249,58.4,793,3.8,"EDMONTON - NORTHGATE","EDMONTON"
"Z4.2.B.02","60-74 years",11806,9467,80.2,995,8.4,"EDMONTON - NORTHGATE","EDMONTON"
"Z4.2.B.02","75+ years",6303,5348,84.9,4655,73.9,"EDMONTON - NORTHGATE","EDMONTON"
"Z4.2.B.02","All age years",83649,36780,44,7134,8.5,"EDMONTON - NORTHGATE","EDMONTON"
"Z4.2.C.03","12-19 years",2720,745,27.4,10,0.4,"EDMONTON - EASTWOOD","EDMONTON"
"Z4.2.C.03","20-39 years",26510,8950,33.8,655,2.5,"EDMONTON - EASTWOOD","EDMONTON"
"Z4.2.C.03","40-59 years",19970,10386,52,542,2.7,"EDMONTON - EASTWOOD","EDMONTON"
"Z4.2.C.03","60-74 years",10711,7834,73.1,903,8.4,"EDMONTON - EASTWOOD","EDMONTON"
"Z4.2.C.03","75+ years",3548,2871,80.9,2291,64.6,"EDMONTON - EASTWOOD","EDMONTON"
"Z4.2.C.03","All age years",72146,30801,42.7,4401,6.1,"EDMONTON - EASTWOOD","EDMONTON"
"Z4.2.D.04","12-19 years",873,200,22.9,3,0.3,"EDMONTON - ABBOTTSFIELD","EDMONTON"
"Z4.2.D.04","20-39 years",4154,1078,26,75,1.8,"EDMONTON - ABBOTTSFIELD","EDMONTON"
"Z4.2.D.04","40-59 years",3716,1907,51.3,91,2.4,"EDMONTON - ABBOTTSFIELD","EDMONTON"
"Z4.2.D.04","60-74 years",2072,1587,76.6,118,5.7,"EDMONTON - ABBOTTSFIELD","EDMONTON"
"Z4.2.D.04","75+ years",904,773,85.5,681,75.4,"EDMONTON - ABBOTTSFIELD","EDMONTON"
"Z4.2.D.04","All age years",14626,5548,37.9,968,6.6,"EDMONTON - ABBOTTSFIELD","EDMONTON"
"Z4.2.E.05","12-19 years",5173,1302,25.2,20,0.4,"EDMONTON - NE","EDMONTON"
"Z4.2.E.05","20-39 years",29610,9741,32.9,786,2.7,"EDMONTON - NE","EDMONTON"
"Z4.2.E.05","40-59 years",22717,13160,57.9,873,3.8,"EDMONTON - NE","EDMONTON"
"Z4.2.E.05","60-74 years",11802,9419,79.8,881,7.5,"EDMONTON - NE","EDMONTON"
"Z4.2.E.05","75+ years",3822,3198,83.7,2699,70.6,"EDMONTON - NE","EDMONTON"
"Z4.2.E.05","All age years",92441,36869,39.9,5259,5.7,"EDMONTON - NE","EDMONTON"
"Z4.3.A.01","12-19 years",4249,1786,42,17,0.4,"EDMONTON - BONNIE DOON","EDMONTON"
"Z4.3.A.01","20-39 years",36077,17121,47.5,1506,4.2,"EDMONTON - BONNIE DOON","EDMONTON"
"Z4.3.A.01","40-59 years",23324,15540,66.6,952,4.1,"EDMONTON - BONNIE DOON","EDMONTON"
"Z4.3.A.01","60-74 years",14526,12049,82.9,1242,8.6,"EDMONTON - BONNIE DOON","EDMONTON"
"Z4.3.A.01","75+ years",6878,5945,86.4,5143,74.8,"EDMONTON - BONNIE DOON","EDMONTON"
"Z4.3.A.01","All age years",96846,52529,54.2,8860,9.1,"EDMONTON - BONNIE DOON","EDMONTON"
"Z4.3.B.02","12-19 years",3263,917,28.1,7,0.2,"EDMONTON - MILL WOODS WEST","EDMONTON"
"Z4.3.B.02","20-39 years",15647,5121,32.7,350,2.2,"EDMONTON - MILL WOODS WEST","EDMONTON"
"Z4.3.B.02","40-59 years",12266,7224,58.9,443,3.6,"EDMONTON - MILL WOODS WEST","EDMONTON"
"Z4.3.B.02","60-74 years",7650,6309,82.5,622,8.1,"EDMONTON - MILL WOODS WEST","EDMONTON"
"Z4.3.B.02","75+ years",3071,2528,82.3,2196,71.5,"EDMONTON - MILL WOODS WEST","EDMONTON"
"Z4.3.B.02","All age years",51075,22123,43.3,3618,7.1,"EDMONTON - MILL WOODS WEST","EDMONTON"
"Z4.3.C.03","12-19 years",5328,1756,33,14,0.3,"EDMONTON - MILL WOODS SOUTH & EAST","EDMONTON"
"Z4.3.C.03","20-39 years",30309,10795,35.6,843,2.8,"EDMONTON - MILL WOODS SOUTH & EAST","EDMONTON"
"Z4.3.C.03","40-59 years",21108,13147,62.3,888,4.2,"EDMONTON - MILL WOODS SOUTH & EAST","EDMONTON"
"Z4.3.C.03","60-74 years",10657,8853,83.1,712,6.7,"EDMONTON - MILL WOODS SOUTH & EAST","EDMONTON"
"Z4.3.C.03","75+ years",2699,2248,83.3,1770,65.6,"EDMONTON - MILL WOODS SOUTH & EAST","EDMONTON"
"Z4.3.C.03","All age years",87320,36857,42.2,4227,4.8,"EDMONTON - MILL WOODS SOUTH & EAST","EDMONTON"
"Z4.4.A.01","12-19 years",2268,897,39.5,6,0.3,"EDMONTON - DUGGAN","EDMONTON"
"Z4.4.A.01","20-39 years",13169,5503,41.8,406,3.1,"EDMONTON - DUGGAN","EDMONTON"
"Z4.4.A.01","40-59 years",9691,6235,64.3,404,4.2,"EDMONTON - DUGGAN","EDMONTON"
"Z4.4.A.01","60-74 years",5017,4257,84.9,547,10.9,"EDMONTON - DUGGAN","EDMONTON"
"Z4.4.A.01","75+ years",3348,2813,84,2596,77.5,"EDMONTON - DUGGAN","EDMONTON"
"Z4.4.A.01","All age years",39991,19740,49.4,3959,9.9,"EDMONTON - DUGGAN","EDMONTON"
"Z4.4.B.02","12-19 years",4607,2981,64.7,22,0.5,"EDMONTON - TWIN BROOKS","EDMONTON"
"Z4.4.B.02","20-39 years",19619,10024,51.1,822,4.2,"EDMONTON - TWIN BROOKS","EDMONTON"
"Z4.4.B.02","40-59 years",20634,15075,73.1,1240,6,"EDMONTON - TWIN BROOKS","EDMONTON"
"Z4.4.B.02","60-74 years",12898,11037,85.6,1665,12.9,"EDMONTON - TWIN BROOKS","EDMONTON"
"Z4.4.B.02","75+ years",5687,5180,91.1,4789,84.2,"EDMONTON - TWIN BROOKS","EDMONTON"
"Z4.4.B.02","All age years",76379,44448,58.2,8538,11.2,"EDMONTON - TWIN BROOKS","EDMONTON"
"Z4.4.C.03","12-19 years",5906,2576,43.6,26,0.4,"EDMONTON - RUTHERFORD","EDMONTON"
"Z4.4.C.03","20-39 years",43114,19273,44.7,1952,4.5,"EDMONTON - RUTHERFORD","EDMONTON"
"Z4.4.C.03","40-59 years",29525,18918,64.1,1605,5.4,"EDMONTON - RUTHERFORD","EDMONTON"
"Z4.4.C.03","60-74 years",10000,7982,79.8,837,8.4,"EDMONTON - RUTHERFORD","EDMONTON"
"Z4.4.C.03","75+ years",2703,2334,86.4,1989,73.6,"EDMONTON - RUTHERFORD","EDMONTON"
"Z4.4.C.03","All age years",121276,51217,42.2,6409,5.3,"EDMONTON - RUTHERFORD","EDMONTON"
"Z4.5.A.01","12-19 years",1937,684,35.3,10,0.5,"STURGEON COUNTY WEST","EDMONTON"
"Z4.5.A.01","20-39 years",7904,2763,35,210,2.7,"STURGEON COUNTY WEST","EDMONTON"
"Z4.5.A.01","40-59 years",7824,4721,60.3,268,3.4,"STURGEON COUNTY WEST","EDMONTON"
"Z4.5.A.01","60-74 years",4898,3714,75.8,336,6.9,"STURGEON COUNTY WEST","EDMONTON"
"Z4.5.A.01","75+ years",1364,1205,88.3,1011,74.1,"STURGEON COUNTY WEST","EDMONTON"
"Z4.5.A.01","All age years",30338,13108,43.2,1835,6,"STURGEON COUNTY WEST","EDMONTON"
"Z4.5.B.02","12-19 years",446,123,27.5,0,0,"STURGEON COUNTY EAST","EDMONTON"
"Z4.5.B.02","20-39 years",1561,518,33.2,44,2.8,"STURGEON COUNTY EAST","EDMONTON"
"Z4.5.B.02","40-59 years",1775,990,55.8,55,3.1,"STURGEON COUNTY EAST","EDMONTON"
"Z4.5.B.02","60-74 years",971,781,80.4,37,3.8,"STURGEON COUNTY EAST","EDMONTON"
"Z4.5.B.02","75+ years",275,240,87.2,188,68.3,"STURGEON COUNTY EAST","EDMONTON"
"Z4.5.B.02","All age years",6165,2655,43.1,324,5.3,"STURGEON COUNTY EAST","EDMONTON"
"Z4.5.B.03","12-19 years",1499,468,31.2,1,0.1,"FORT SASKATCHEWAN","EDMONTON"
"Z4.5.B.03","20-39 years",8454,3031,35.9,230,2.7,"FORT SASKATCHEWAN","EDMONTON"
"Z4.5.B.03","40-59 years",6752,4015,59.5,223,3.3,"FORT SASKATCHEWAN","EDMONTON"
"Z4.5.B.03","60-74 years",3718,3016,81.1,238,6.4,"FORT SASKATCHEWAN","EDMONTON"
"Z4.5.B.03","75+ years",1380,1281,92.9,1101,79.8,"FORT SASKATCHEWAN","EDMONTON"
"Z4.5.B.03","All age years",27437,11828,43.1,1793,6.5,"FORT SASKATCHEWAN","EDMONTON"
"Z4.6.A.01","12-19 years",5465,2452,44.9,32,0.6,"SHERWOOD PARK","EDMONTON"
"Z4.6.A.01","20-39 years",20531,9599,46.8,796,3.9,"SHERWOOD PARK","EDMONTON"
"Z4.6.A.01","40-59 years",22884,16106,70.4,971,4.2,"SHERWOOD PARK","EDMONTON"
"Z4.6.A.01","60-74 years",13855,11918,86,1182,8.5,"SHERWOOD PARK","EDMONTON"
"Z4.6.A.01","75+ years",6008,5523,91.9,5145,85.6,"SHERWOOD PARK","EDMONTON"
"Z4.6.A.01","All age years",82764,45702,55.2,8126,9.8,"SHERWOOD PARK","EDMONTON"
"Z4.6.B.02","12-19 years",1134,432,38.1,7,0.6,"STRATHCONA COUNTY EXCLUDING SHERWOOD PARK","EDMONTON"
"Z4.6.B.02","20-39 years",4048,1508,37.2,135,3.3,"STRATHCONA COUNTY EXCLUDING SHERWOOD PARK","EDMONTON"
"Z4.6.B.02","40-59 years",5056,3146,62.2,157,3.1,"STRATHCONA COUNTY EXCLUDING SHERWOOD PARK","EDMONTON"
"Z4.6.B.02","60-74 years",3684,2923,79.3,213,5.8,"STRATHCONA COUNTY EXCLUDING SHERWOOD PARK","EDMONTON"
"Z4.6.B.02","75+ years",890,751,84.4,638,71.7,"STRATHCONA COUNTY EXCLUDING SHERWOOD PARK","EDMONTON"
"Z4.6.B.02","All age years",17456,8774,50.3,1150,6.6,"STRATHCONA COUNTY EXCLUDING SHERWOOD PARK","EDMONTON"
"Z4.7.A.01","12-19 years",1711,595,34.8,2,0.1,"BEAUMONT","EDMONTON"
"Z4.7.A.01","20-39 years",7019,2862,40.8,216,3.1,"BEAUMONT","EDMONTON"
"Z4.7.A.01","40-59 years",7153,4472,62.5,238,3.3,"BEAUMONT","EDMONTON"
"Z4.7.A.01","60-74 years",3649,2974,81.5,235,6.4,"BEAUMONT","EDMONTON"
"Z4.7.A.01","75+ years",845,732,86.6,613,72.6,"BEAUMONT","EDMONTON"
"Z4.7.A.01","All age years",26562,11663,43.9,1304,4.9,"BEAUMONT","EDMONTON"
"Z4.7.A.02","12-19 years",2546,747,29.3,5,0.2,"LEDUC & DEVON","EDMONTON"
"Z4.7.A.02","20-39 years",12378,4155,33.6,352,2.8,"LEDUC & DEVON","EDMONTON"
"Z4.7.A.02","40-59 years",11145,6299,56.5,334,3,"LEDUC & DEVON","EDMONTON"
"Z4.7.A.02","60-74 years",6224,5042,81,410,6.6,"LEDUC & DEVON","EDMONTON"
"Z4.7.A.02","75+ years",2473,2199,88.9,1827,73.9,"LEDUC & DEVON","EDMONTON"
"Z4.7.A.02","All age years",43727,18481,42.3,2928,6.7,"LEDUC & DEVON","EDMONTON"
"Z4.7.A.03","12-19 years",506,88,17.4,3,0.6,"THORSBY","EDMONTON"
"Z4.7.A.03","20-39 years",2166,508,23.5,29,1.3,"THORSBY","EDMONTON"
"Z4.7.A.03","40-59 years",2460,1074,43.7,57,2.3,"THORSBY","EDMONTON"
"Z4.7.A.03","60-74 years",1870,1321,70.6,87,4.7,"THORSBY","EDMONTON"
"Z4.7.A.03","75+ years",616,500,81.1,338,54.9,"THORSBY","EDMONTON"
"Z4.7.A.03","All age years",9168,3494,38.1,514,5.6,"THORSBY","EDMONTON"
"Z4.8.A.01","12-19 years",3478,1069,30.7,11,0.3,"STONY PLAIN & SPRUCE GROVE","EDMONTON"
"Z4.8.A.01","20-39 years",16423,6005,36.6,522,3.2,"STONY PLAIN & SPRUCE GROVE","EDMONTON"
"Z4.8.A.01","40-59 years",14423,8821,61.2,526,3.6,"STONY PLAIN & SPRUCE GROVE","EDMONTON"
"Z4.8.A.01","60-74 years",8330,6880,82.6,656,7.9,"STONY PLAIN & SPRUCE GROVE","EDMONTON"
"Z4.8.A.01","75+ years",3448,3160,91.6,2787,80.8,"STONY PLAIN & SPRUCE GROVE","EDMONTON"
"Z4.8.A.01","All age years",57619,25985,45.1,4502,7.8,"STONY PLAIN & SPRUCE GROVE","EDMONTON"
"Z4.8.B.02","12-19 years",2494,559,22.4,4,0.2,"WESTVIEW EXCLUDING STONY PLAIN & SPRUCE GROVE","EDMONTON"
"Z4.8.B.02","20-39 years",8579,2343,27.3,192,2.2,"WESTVIEW EXCLUDING STONY PLAIN & SPRUCE GROVE","EDMONTON"
"Z4.8.B.02","40-59 years",10710,5397,50.4,326,3,"WESTVIEW EXCLUDING STONY PLAIN & SPRUCE GROVE","EDMONTON"
"Z4.8.B.02","60-74 years",7655,5343,69.8,479,6.3,"WESTVIEW EXCLUDING STONY PLAIN & SPRUCE GROVE","EDMONTON"
"Z4.8.B.02","75+ years",2287,1770,77.4,1405,61.4,"WESTVIEW EXCLUDING STONY PLAIN & SPRUCE GROVE","EDMONTON"
"Z4.8.B.02","All age years",38491,15429,40.1,2406,6.3,"WESTVIEW EXCLUDING STONY PLAIN & SPRUCE GROVE","EDMONTON"
"Z4.9.A.01","12-19 years",4373,2283,52.2,27,0.6,"ST. ALBERT","EDMONTON"
"Z4.9.A.01","20-39 years",17052,8667,50.8,713,4.2,"ST. ALBERT","EDMONTON"
"Z4.9.A.01","40-59 years",18691,13918,74.5,934,5,"ST. ALBERT","EDMONTON"
"Z4.9.A.01","60-74 years",12567,10998,87.5,1290,10.3,"ST. ALBERT","EDMONTON"
"Z4.9.A.01","75+ years",5555,5033,90.6,4637,83.5,"ST. ALBERT","EDMONTON"
"Z4.9.A.01","All age years",70159,41021,58.5,7601,10.8,"ST. ALBERT","EDMONTON"
"Z5.1.A.01","12-19 years",216,66,30.5,0,0,"JASPER","NORTH"
"Z5.1.A.01","20-39 years",2424,589,24.3,51,2.1,"JASPER","NORTH"
"Z5.1.A.01","40-59 years",1522,988,64.9,59,3.9,"JASPER","NORTH"
"Z5.1.A.01","60-74 years",716,590,82.4,31,4.3,"JASPER","NORTH"
"Z5.1.A.01","75+ years",190,164,86.1,154,80.9,"JASPER","NORTH"
"Z5.1.A.01","All age years",5718,2398,41.9,295,5.2,"JASPER","NORTH"
"Z5.1.A.02","12-19 years",685,157,22.9,1,0.1,"HINTON","NORTH"
"Z5.1.A.02","20-39 years",3631,962,26.5,94,2.6,"HINTON","NORTH"
"Z5.1.A.02","40-59 years",3288,1692,51.5,104,3.2,"HINTON","NORTH"
"Z5.1.A.02","60-74 years",1941,1435,73.9,66,3.4,"HINTON","NORTH"
"Z5.1.A.02","75+ years",576,492,85.4,328,56.9,"HINTON","NORTH"
"Z5.1.A.02","All age years",12354,4740,38.4,593,4.8,"HINTON","NORTH"
"Z5.1.A.03","12-19 years",955,230,24.1,6,0.6,"EDSON","NORTH"
"Z5.1.A.03","20-39 years",4437,1122,25.3,100,2.3,"EDSON","NORTH"
"Z5.1.A.03","40-59 years",4339,2039,47,124,2.9,"EDSON","NORTH"
"Z5.1.A.03","60-74 years",2565,1850,72.1,177,6.9,"EDSON","NORTH"
"Z5.1.A.03","75+ years",816,652,79.9,492,60.3,"EDSON","NORTH"
"Z5.1.A.03","All age years",16076,5896,36.7,899,5.6,"EDSON","NORTH"
"Z5.1.B.04","12-19 years",965,225,23.3,1,0.1,"WHITECOURT","NORTH"
"Z5.1.B.04","20-39 years",4227,976,23.1,64,1.5,"WHITECOURT","NORTH"
"Z5.1.B.04","40-59 years",4202,1972,46.9,81,1.9,"WHITECOURT","NORTH"
"Z5.1.B.04","60-74 years",1938,1343,69.3,92,4.7,"WHITECOURT","NORTH"
"Z5.1.B.04","75+ years",463,385,83.2,329,71.1,"WHITECOURT","NORTH"
"Z5.1.B.04","All age years",14757,4913,33.3,567,3.8,"WHITECOURT","NORTH"
"Z5.1.B.05","12-19 years",903,184,20.4,10,1.1,"MAYERTHORPE","NORTH"
"Z5.1.B.05","20-39 years",3558,859,24.1,142,4,"MAYERTHORPE","NORTH"
"Z5.1.B.05","40-59 years",4434,1894,42.7,211,4.8,"MAYERTHORPE","NORTH"
"Z5.1.B.05","60-74 years",3468,2509,72.4,231,6.7,"MAYERTHORPE","NORTH"
"Z5.1.B.05","75+ years",1252,955,76.3,786,62.8,"MAYERTHORPE","NORTH"
"Z5.1.B.05","All age years",16160,6408,39.7,1380,8.5,"MAYERTHORPE","NORTH"
"Z5.1.C.06","12-19 years",656,122,18.6,6,0.9,"BARRHEAD","NORTH"
"Z5.1.C.06","20-39 years",2588,614,23.7,73,2.8,"BARRHEAD","NORTH"
"Z5.1.C.06","40-59 years",2469,1153,46.7,93,3.8,"BARRHEAD","NORTH"
"Z5.1.C.06","60-74 years",2082,1546,74.3,154,7.4,"BARRHEAD","NORTH"
"Z5.1.C.06","75+ years",1090,904,82.9,757,69.4,"BARRHEAD","NORTH"
"Z5.1.C.06","All age years",10988,4347,39.6,1083,9.9,"BARRHEAD","NORTH"
"Z5.1.C.07","12-19 years",1217,270,22.2,8,0.7,"WESTLOCK","NORTH"
"Z5.1.C.07","20-39 years",4392,1136,25.9,147,3.3,"WESTLOCK","NORTH"
"Z5.1.C.07","40-59 years",4731,2335,49.4,177,3.7,"WESTLOCK","NORTH"
"Z5.1.C.07","60-74 years",3987,2960,74.2,241,6,"WESTLOCK","NORTH"
"Z5.1.C.07","75+ years",1868,1601,85.7,1317,70.5,"WESTLOCK","NORTH"
"Z5.1.C.07","All age years",19131,8313,43.5,1890,9.9,"WESTLOCK","NORTH"
"Z5.2.A.01","12-19 years",404,58,14.4,2,0.5,"FROG LAKE","NORTH"
"Z5.2.A.01","20-39 years",1267,250,19.7,37,2.9,"FROG LAKE","NORTH"
"Z5.2.A.01","40-59 years",1214,427,35.2,58,4.8,"FROG LAKE","NORTH"
"Z5.2.A.01","60-74 years",632,403,63.8,93,14.7,"FROG LAKE","NORTH"
"Z5.2.A.01","75+ years",297,241,81.1,194,65.3,"FROG LAKE","NORTH"
"Z5.2.A.01","All age years",4839,1380,28.5,384,7.9,"FROG LAKE","NORTH"
"Z5.2.A.04","12-19 years",1059,283,26.7,19,1.8,"ST. PAUL","NORTH"
"Z5.2.A.04","20-39 years",4133,1028,24.9,144,3.5,"ST. PAUL","NORTH"
"Z5.2.A.04","40-59 years",3501,1502,42.9,200,5.7,"ST. PAUL","NORTH"
"Z5.2.A.04","60-74 years",2365,1572,66.5,378,16,"ST. PAUL","NORTH"
"Z5.2.A.04","75+ years",1026,840,81.9,743,72.5,"ST. PAUL","NORTH"
"Z5.2.A.04","All age years",15524,5231,33.7,1484,9.6,"ST. PAUL","NORTH"
"Z5.2.A.05","12-19 years",217,74,34.1,2,0.9,"SMOKY LAKE","NORTH"
"Z5.2.A.05","20-39 years",965,248,25.7,27,2.8,"SMOKY LAKE","NORTH"
"Z5.2.A.05","40-59 years",1229,555,45.2,70,5.7,"SMOKY LAKE","NORTH"
"Z5.2.A.05","60-74 years",1112,779,70.1,146,13.1,"SMOKY LAKE","NORTH"
"Z5.2.A.05","75+ years",577,474,82.2,388,67.3,"SMOKY LAKE","NORTH"
"Z5.2.A.05","All age years",4764,2132,44.7,633,13.3,"SMOKY LAKE","NORTH"
"Z5.2.B.02","12-19 years",1377,279,20.3,4,0.3,"COLD LAKE","NORTH"
"Z5.2.B.02","20-39 years",6341,1699,26.8,207,3.3,"COLD LAKE","NORTH"
"Z5.2.B.02","40-59 years",5179,2580,49.8,239,4.6,"COLD LAKE","NORTH"
"Z5.2.B.02","60-74 years",2281,1703,74.6,209,9.2,"COLD LAKE","NORTH"
"Z5.2.B.02","75+ years",698,599,85.8,519,74.4,"COLD LAKE","NORTH"
"Z5.2.B.02","All age years",20916,6871,32.8,1178,5.6,"COLD LAKE","NORTH"
"Z5.2.B.03","12-19 years",1139,289,25.4,5,0.4,"BONNYVILLE","NORTH"
"Z5.2.B.03","20-39 years",4504,1077,23.9,107,2.4,"BONNYVILLE","NORTH"
"Z5.2.B.03","40-59 years",4373,1913,43.7,141,3.2,"BONNYVILLE","NORTH"
"Z5.2.B.03","60-74 years",2373,1533,64.6,123,5.2,"BONNYVILLE","NORTH"
"Z5.2.B.03","75+ years",869,675,77.7,580,66.8,"BONNYVILLE","NORTH"
"Z5.2.B.03","All age years",16642,5502,33.1,956,5.7,"BONNYVILLE","NORTH"
"Z5.2.C.06","12-19 years",185,47,25.5,0,0,"BOYLE","NORTH"
"Z5.2.C.06","20-39 years",855,190,22.2,19,2.2,"BOYLE","NORTH"
"Z5.2.C.06","40-59 years",931,407,43.7,45,4.8,"BOYLE","NORTH"
"Z5.2.C.06","60-74 years",767,520,67.8,105,13.7,"BOYLE","NORTH"
"Z5.2.C.06","75+ years",285,221,77.6,187,65.7,"BOYLE","NORTH"
"Z5.2.C.06","All age years",3587,1386,38.6,356,9.9,"BOYLE","NORTH"
"Z5.2.C.07","12-19 years",628,223,35.5,4,0.6,"ATHABASCA","NORTH"
"Z5.2.C.07","20-39 years",2402,711,29.6,76,3.2,"ATHABASCA","NORTH"
"Z5.2.C.07","40-59 years",2925,1504,51.4,143,4.9,"ATHABASCA","NORTH"
"Z5.2.C.07","60-74 years",2160,1670,77.3,227,10.5,"ATHABASCA","NORTH"
"Z5.2.C.07","75+ years",880,758,86.1,656,74.5,"ATHABASCA","NORTH"
"Z5.2.C.07","All age years",10660,4883,45.8,1106,10.4,"ATHABASCA","NORTH"
"Z5.2.C.08","12-19 years",709,234,33,2,0.3,"LAC LA BICHE","NORTH"
"Z5.2.C.08","20-39 years",2845,793,27.9,93,3.3,"LAC LA BICHE","NORTH"
"Z5.2.C.08","40-59 years",2666,1375,51.6,162,6.1,"LAC LA BICHE","NORTH"
"Z5.2.C.08","60-74 years",1541,1103,71.6,207,13.4,"LAC LA BICHE","NORTH"
"Z5.2.C.08","75+ years",562,466,83,371,66,"LAC LA BICHE","NORTH"
"Z5.2.C.08","All age years",10391,3974,38.2,835,8,"LAC LA BICHE","NORTH"
"Z5.3.A.01","12-19 years",278,38,13.7,0,0,"GRANDE CACHE","NORTH"
"Z5.3.A.01","20-39 years",1222,236,19.3,33,2.7,"GRANDE CACHE","NORTH"
"Z5.3.A.01","40-59 years",1209,432,35.7,46,3.8,"GRANDE CACHE","NORTH"
"Z5.3.A.01","60-74 years",560,394,70.3,112,20,"GRANDE CACHE","NORTH"
"Z5.3.A.01","75+ years",188,147,78.2,117,62.2,"GRANDE CACHE","NORTH"
"Z5.3.A.01","All age years",4205,1248,29.7,308,7.3,"GRANDE CACHE","NORTH"
"Z5.3.A.02","12-19 years",132,39,29.6,1,0.8,"FOX CREEK","NORTH"
"Z5.3.A.02","20-39 years",632,156,24.7,6,1,"FOX CREEK","NORTH"
"Z5.3.A.02","40-59 years",704,289,41.1,15,2.1,"FOX CREEK","NORTH"
"Z5.3.A.02","60-74 years",329,234,71.2,17,5.2,"FOX CREEK","NORTH"
"Z5.3.A.02","75+ years",63,37,58.3,28,44.1,"FOX CREEK","NORTH"
"Z5.3.A.02","All age years",2270,756,33.3,67,3,"FOX CREEK","NORTH"
"Z5.3.A.03","12-19 years",497,35,7,4,0.8,"VALLEYVIEW","NORTH"
"Z5.3.A.03","20-39 years",1891,385,20.4,131,6.9,"VALLEYVIEW","NORTH"
"Z5.3.A.03","40-59 years",1721,682,39.6,157,9.1,"VALLEYVIEW","NORTH"
"Z5.3.A.03","60-74 years",1210,776,64.1,162,13.4,"VALLEYVIEW","NORTH"
"Z5.3.A.03","75+ years",427,324,76,268,62.8,"VALLEYVIEW","NORTH"
"Z5.3.A.03","All age years",7258,2203,30.4,722,9.9,"VALLEYVIEW","NORTH"
"Z5.3.A.05","12-19 years",816,120,14.7,4,0.5,"BEAVERLODGE","NORTH"
"Z5.3.A.05","20-39 years",3234,627,19.4,69,2.1,"BEAVERLODGE","NORTH"
"Z5.3.A.05","40-59 years",3023,1267,41.9,98,3.2,"BEAVERLODGE","NORTH"
"Z5.3.A.05","60-74 years",1876,1282,68.3,118,6.3,"BEAVERLODGE","NORTH"
"Z5.3.A.05","75+ years",688,562,81.7,444,64.5,"BEAVERLODGE","NORTH"
"Z5.3.A.05","All age years",12253,3867,31.6,733,6,"BEAVERLODGE","NORTH"
"Z5.3.B.04","12-19 years",1498,264,17.6,2,0.1,"GRANDE PRAIRIE COUNTY","NORTH"
"Z5.3.B.04","20-39 years",5723,1293,22.6,102,1.8,"GRANDE PRAIRIE COUNTY","NORTH"
"Z5.3.B.04","40-59 years",5812,2577,44.3,127,2.2,"GRANDE PRAIRIE COUNTY","NORTH"
"Z5.3.B.04","60-74 years",2835,1875,66.1,101,3.6,"GRANDE PRAIRIE COUNTY","NORTH"
"Z5.3.B.04","75+ years",737,535,72.6,443,60.1,"GRANDE PRAIRIE COUNTY","NORTH"
"Z5.3.B.04","All age years",21400,6554,30.6,775,3.6,"GRANDE PRAIRIE COUNTY","NORTH"
"Z5.4.A.01","12-19 years",75,25,33.2,0,0,"SWAN HILLS","NORTH"
"Z5.4.A.01","20-39 years",328,72,22,2,0.6,"SWAN HILLS","NORTH"
"Z5.4.A.01","40-59 years",464,229,49.3,13,2.8,"SWAN HILLS","NORTH"
"Z5.4.A.01","60-74 years",211,165,78.4,46,21.8,"SWAN HILLS","NORTH"
"Z5.4.A.01","75+ years",29,27,94.1,21,73.2,"SWAN HILLS","NORTH"
"Z5.4.A.01","All age years",1356,519,38.3,82,6,"SWAN HILLS","NORTH"
"Z5.4.A.02","12-19 years",783,213,27.2,2,0.3,"SLAVE LAKE","NORTH"
"Z5.4.A.02","20-39 years",3462,918,26.5,100,2.9,"SLAVE LAKE","NORTH"
"Z5.4.A.02","40-59 years",3175,1393,43.9,117,3.7,"SLAVE LAKE","NORTH"
"Z5.4.A.02","60-74 years",1354,920,68,108,8,"SLAVE LAKE","NORTH"
"Z5.4.A.02","75+ years",376,265,70.4,222,59,"SLAVE LAKE","NORTH"
"Z5.4.A.02","All age years",11804,3716,31.5,549,4.7,"SLAVE LAKE","NORTH"
"Z5.4.A.03","12-19 years",371,30,8.1,14,3.8,"WABASCA","NORTH"
"Z5.4.A.03","20-39 years",1169,282,24.1,176,15.1,"WABASCA","NORTH"
"Z5.4.A.03","40-59 years",965,442,45.8,265,27.4,"WABASCA","NORTH"
"Z5.4.A.03","60-74 years",444,298,67.1,188,42.4,"WABASCA","NORTH"
"Z5.4.A.03","75+ years",98,73,74.1,65,66,"WABASCA","NORTH"
"Z5.4.A.03","All age years",4245,1128,26.6,708,16.7,"WABASCA","NORTH"
"Z5.4.A.07","12-19 years",910,184,20.2,2,0.2,"HIGH PRAIRIE","NORTH"
"Z5.4.A.07","20-39 years",2932,612,20.9,77,2.6,"HIGH PRAIRIE","NORTH"
"Z5.4.A.07","40-59 years",2941,1075,36.6,192,6.5,"HIGH PRAIRIE","NORTH"
"Z5.4.A.07","60-74 years",1682,1043,62,205,12.2,"HIGH PRAIRIE","NORTH"
"Z5.4.A.07","75+ years",632,433,68.5,357,56.5,"HIGH PRAIRIE","NORTH"
"Z5.4.A.07","All age years",11701,3347,28.6,833,7.1,"HIGH PRAIRIE","NORTH"
"Z5.4.B.04","12-19 years",2129,145,6.8,2,0.1,"HIGH LEVEL","NORTH"
"Z5.4.B.04","20-39 years",7486,772,10.3,89,1.2,"HIGH LEVEL","NORTH"
"Z5.4.B.04","40-59 years",4646,1038,22.3,109,2.3,"HIGH LEVEL","NORTH"
"Z5.4.B.04","60-74 years",1876,541,28.8,55,2.9,"HIGH LEVEL","NORTH"
"Z5.4.B.04","75+ years",630,165,26.2,123,19.5,"HIGH LEVEL","NORTH"
"Z5.4.B.04","All age years",25363,2663,10.5,378,1.5,"HIGH LEVEL","NORTH"
"Z5.4.B.05","12-19 years",226,41,18.2,0,0,"MANNING","NORTH"
"Z5.4.B.05","20-39 years",821,172,21,23,2.8,"MANNING","NORTH"
"Z5.4.B.05","40-59 years",844,327,38.7,47,5.6,"MANNING","NORTH"
"Z5.4.B.05","60-74 years",549,320,58.3,112,20.4,"MANNING","NORTH"
"Z5.4.B.05","75+ years",256,198,77.2,167,65.1,"MANNING","NORTH"
"Z5.4.B.05","All age years",3333,1060,31.8,349,10.5,"MANNING","NORTH"
"Z5.4.C.06","12-19 years",1307,307,23.5,2,0.2,"PEACE RIVER","NORTH"
"Z5.4.C.06","20-39 years",5318,1343,25.3,207,3.9,"PEACE RIVER","NORTH"
"Z5.4.C.06","40-59 years",4577,2236,48.9,226,4.9,"PEACE RIVER","NORTH"
"Z5.4.C.06","60-74 years",2673,1881,70.4,237,8.9,"PEACE RIVER","NORTH"
"Z5.4.C.06","75+ years",897,708,78.9,576,64.2,"PEACE RIVER","NORTH"
"Z5.4.C.06","All age years",18659,6486,34.8,1248,6.7,"PEACE RIVER","NORTH"
"Z5.4.D.08","12-19 years",251,92,36.6,0,0,"FALHER","NORTH"
"Z5.4.D.08","20-39 years",1166,299,25.6,38,3.3,"FALHER","NORTH"
"Z5.4.D.08","40-59 years",1018,454,44.6,45,4.4,"FALHER","NORTH"
"Z5.4.D.08","60-74 years",789,591,74.9,47,6,"FALHER","NORTH"
"Z5.4.D.08","75+ years",403,346,85.8,309,76.6,"FALHER","NORTH"
"Z5.4.D.08","All age years",4481,1787,39.9,439,9.8,"FALHER","NORTH"
"Z5.4.D.09","12-19 years",390,79,20.3,0,0,"SPIRIT RIVER","NORTH"
"Z5.4.D.09","20-39 years",1446,242,16.7,14,1,"SPIRIT RIVER","NORTH"
"Z5.4.D.09","40-59 years",1552,661,42.6,44,2.8,"SPIRIT RIVER","NORTH"
"Z5.4.D.09","60-74 years",1137,741,65.2,56,4.9,"SPIRIT RIVER","NORTH"
"Z5.4.D.09","75+ years",447,357,79.9,273,61.1,"SPIRIT RIVER","NORTH"
"Z5.4.D.09","All age years",6128,2084,34,387,6.3,"SPIRIT RIVER","NORTH"
"Z5.4.D.10","12-19 years",630,154,24.4,2,0.3,"FAIRVIEW","NORTH"
"Z5.4.D.10","20-39 years",1966,391,19.9,59,3,"FAIRVIEW","NORTH"
"Z5.4.D.10","40-59 years",1870,774,41.4,89,4.8,"FAIRVIEW","NORTH"
"Z5.4.D.10","60-74 years",1314,844,64.2,98,7.5,"FAIRVIEW","NORTH"
"Z5.4.D.10","75+ years",648,492,75.9,397,61.2,"FAIRVIEW","NORTH"
"Z5.4.D.10","All age years",8172,2658,32.5,645,7.9,"FAIRVIEW","NORTH"
"Z5.5.A.01","12-19 years",292,65,22.3,2,0.7,"WOOD BUFFALO","NORTH"
"Z5.5.A.01","20-39 years",1168,247,21.2,36,3.1,"WOOD BUFFALO","NORTH"
"Z5.5.A.01","40-59 years",1165,476,40.9,79,6.8,"WOOD BUFFALO","NORTH"
"Z5.5.A.01","60-74 years",507,262,51.7,86,17,"WOOD BUFFALO","NORTH"
"Z5.5.A.01","75+ years",104,60,57.5,48,46,"WOOD BUFFALO","NORTH"
"Z5.5.A.01","All age years",4097,1113,27.2,251,6.1,"WOOD BUFFALO","NORTH"
"Z5.6.A.01","12-19 years",4195,1869,44.6,13,0.3,"FORT MCMURRAY","NORTH"
"Z5.6.A.01","20-39 years",28164,9757,34.6,536,1.9,"FORT MCMURRAY","NORTH"
"Z5.6.A.01","40-59 years",23077,12625,54.7,568,2.5,"FORT MCMURRAY","NORTH"
"Z5.6.A.01","60-74 years",6850,4387,64,319,4.7,"FORT MCMURRAY","NORTH"
"Z5.6.A.01","75+ years",729,482,66.1,323,44.3,"FORT MCMURRAY","NORTH"
"Z5.6.A.01","All age years",79888,29203,36.6,1759,2.2,"FORT MCMURRAY","NORTH"
"Z5.7.A.01","12-19 years",4382,675,15.4,3,0.1,"CITY OF GRANDE PRAIRIE","NORTH"
"Z5.7.A.01","20-39 years",26855,6155,22.9,510,1.9,"CITY OF GRANDE PRAIRIE","NORTH"
"Z5.7.A.01","40-59 years",18549,8445,45.5,501,2.7,"CITY OF GRANDE PRAIRIE","NORTH"
"Z5.7.A.01","60-74 years",7325,5094,69.5,365,5,"CITY OF GRANDE PRAIRIE","NORTH"
"Z5.7.A.01","75+ years",2240,1804,80.5,1512,67.5,"CITY OF GRANDE PRAIRIE","NORTH"
"Z5.7.A.01","All age years",75043,22195,29.6,2891,3.9,"CITY OF GRANDE PRAIRIE","NORTH"
