"Local Code","Age Group","Population","# of population with at least 1 dose","Percent of population who received at least one dose","# of population fully immunized","Percent of population fully immunized","Alberta: percent of population who received at least one dose","Alberta: percent of population fully immunized","Local Name","Zone Name"
"Z1.1.A.01","12-19 years",500,165,33,0,0,47.7,0.5,"CROWSNEST PASS","SOUTH"
"Z1.1.A.01","12+ years",5690,3430,60.3,736,12.9,64,10.7,"CROWSNEST PASS","SOUTH"
"Z1.1.A.01","20-39 years",1322,530,40.1,60,4.5,52.1,4.1,"CROWSNEST PASS","SOUTH"
"Z1.1.A.01","40-59 years",1617,957,59.2,86,5.3,67,5.8,"CROWSNEST PASS","SOUTH"
"Z1.1.A.01","60-74 years",1633,1262,77.3,160,9.8,80.5,13.5,"CROWSNEST PASS","SOUTH"
"Z1.1.A.01","75+ years",618,506,81.9,430,69.6,86,73.9,"CROWSNEST PASS","SOUTH"
"Z1.1.A.01","ALL years",6358,3430,53.9,736,11.6,54.5,9.1,"CROWSNEST PASS","SOUTH"
"Z1.1.A.02","12-19 years",773,286,37,7,0.9,47.7,0.5,"PINCHER CREEK","SOUTH"
"Z1.1.A.02","12+ years",7229,4464,61.8,1241,17.2,64,10.7,"PINCHER CREEK","SOUTH"
"Z1.1.A.02","20-39 years",1971,905,45.9,122,6.2,52.1,4.1,"PINCHER CREEK","SOUTH"
"Z1.1.A.02","40-59 years",1929,1184,61.4,222,11.5,67,5.8,"PINCHER CREEK","SOUTH"
"Z1.1.A.02","60-74 years",1749,1358,77.6,265,15.1,80.5,13.5,"PINCHER CREEK","SOUTH"
"Z1.1.A.02","75+ years",807,717,88.8,625,77.4,86,73.9,"PINCHER CREEK","SOUTH"
"Z1.1.A.02","ALL years",8407,4464,53.1,1241,14.8,54.5,9.1,"PINCHER CREEK","SOUTH"
"Z1.1.A.03","12-19 years",680,189,27.8,6,0.9,47.7,0.5,"FORT MACLEOD","SOUTH"
"Z1.1.A.03","12+ years",5610,2697,48.1,639,11.4,64,10.7,"FORT MACLEOD","SOUTH"
"Z1.1.A.03","20-39 years",1717,516,30,55,3.2,52.1,4.1,"FORT MACLEOD","SOUTH"
"Z1.1.A.03","40-59 years",1458,726,49.8,94,6.4,67,5.8,"FORT MACLEOD","SOUTH"
"Z1.1.A.03","60-74 years",1219,857,70.3,134,11,80.5,13.5,"FORT MACLEOD","SOUTH"
"Z1.1.A.03","75+ years",535,405,75.7,350,65.4,86,73.9,"FORT MACLEOD","SOUTH"
"Z1.1.A.03","ALL years",6840,2697,39.4,639,9.3,54.5,9.1,"FORT MACLEOD","SOUTH"
"Z1.1.B.04","12-19 years",2217,584,26.3,23,1,47.7,0.5,"CARDSTON-KAINAI","SOUTH"
"Z1.1.B.04","12+ years",13531,5385,39.8,1537,11.4,64,10.7,"CARDSTON-KAINAI","SOUTH"
"Z1.1.B.04","20-39 years",4122,1042,25.3,163,4,52.1,4.1,"CARDSTON-KAINAI","SOUTH"
"Z1.1.B.04","40-59 years",3357,1422,42.4,252,7.5,67,5.8,"CARDSTON-KAINAI","SOUTH"
"Z1.1.B.04","60-74 years",2558,1429,55.9,381,14.9,80.5,13.5,"CARDSTON-KAINAI","SOUTH"
"Z1.1.B.04","75+ years",1277,894,70,718,56.2,86,73.9,"CARDSTON-KAINAI","SOUTH"
"Z1.1.B.04","ALL years",16639,5385,32.4,1537,9.2,54.5,9.1,"CARDSTON-KAINAI","SOUTH"
"Z1.2.A.01","12-19 years",3177,1007,31.7,9,0.3,47.7,0.5,"COUNTY OF LETHBRIDGE","SOUTH"
"Z1.2.A.01","12+ years",20900,10751,51.4,1899,9.1,64,10.7,"COUNTY OF LETHBRIDGE","SOUTH"
"Z1.2.A.01","20-39 years",7077,2602,36.8,248,3.5,52.1,4.1,"COUNTY OF LETHBRIDGE","SOUTH"
"Z1.2.A.01","40-59 years",5594,3182,56.9,232,4.1,67,5.8,"COUNTY OF LETHBRIDGE","SOUTH"
"Z1.2.A.01","60-74 years",3696,2801,75.8,449,12.1,80.5,13.5,"COUNTY OF LETHBRIDGE","SOUTH"
"Z1.2.A.01","75+ years",1356,1106,81.6,961,70.9,86,73.9,"COUNTY OF LETHBRIDGE","SOUTH"
"Z1.2.A.01","ALL years",26202,10751,41,1899,7.2,54.5,9.1,"COUNTY OF LETHBRIDGE","SOUTH"
"Z1.2.B.02","12-19 years",2630,544,20.7,3,0.1,47.7,0.5,"TABER MD","SOUTH"
"Z1.2.B.02","12+ years",15282,6270,41,1180,7.7,64,10.7,"TABER MD","SOUTH"
"Z1.2.B.02","20-39 years",5153,1270,24.6,83,1.6,52.1,4.1,"TABER MD","SOUTH"
"Z1.2.B.02","40-59 years",4152,1947,46.9,137,3.3,67,5.8,"TABER MD","SOUTH"
"Z1.2.B.02","60-74 years",2357,1667,70.7,283,12,80.5,13.5,"TABER MD","SOUTH"
"Z1.2.B.02","75+ years",989,819,82.8,674,68.2,86,73.9,"TABER MD","SOUTH"
"Z1.2.B.02","ALL years",19203,6270,32.7,1180,6.1,54.5,9.1,"TABER MD","SOUTH"
"Z1.2.C.03","12-19 years",1484,440,29.6,4,0.3,47.7,0.5,"COUNTY OF WARNER","SOUTH"
"Z1.2.C.03","12+ years",9133,4538,49.7,1107,12.1,64,10.7,"COUNTY OF WARNER","SOUTH"
"Z1.2.C.03","20-39 years",2698,894,33.1,98,3.6,52.1,4.1,"COUNTY OF WARNER","SOUTH"
"Z1.2.C.03","40-59 years",2278,1205,52.9,152,6.7,67,5.8,"COUNTY OF WARNER","SOUTH"
"Z1.2.C.03","60-74 years",1858,1344,72.3,316,17,80.5,13.5,"COUNTY OF WARNER","SOUTH"
"Z1.2.C.03","75+ years",815,627,76.9,537,65.9,86,73.9,"COUNTY OF WARNER","SOUTH"
"Z1.2.C.03","ALL years",11216,4538,40.5,1107,9.9,54.5,9.1,"COUNTY OF WARNER","SOUTH"
"Z1.2.C.04","12-19 years",878,104,11.8,0,0,47.7,0.5,"COUNTY OF FORTY MILE","SOUTH"
"Z1.2.C.04","12+ years",4990,1706,34.2,446,8.9,64,10.7,"COUNTY OF FORTY MILE","SOUTH"
"Z1.2.C.04","20-39 years",1699,313,18.4,23,1.4,52.1,4.1,"COUNTY OF FORTY MILE","SOUTH"
"Z1.2.C.04","40-59 years",1214,489,40.3,47,3.9,67,5.8,"COUNTY OF FORTY MILE","SOUTH"
"Z1.2.C.04","60-74 years",859,534,62.2,145,16.9,80.5,13.5,"COUNTY OF FORTY MILE","SOUTH"
"Z1.2.C.04","75+ years",341,263,77.2,231,67.8,86,73.9,"COUNTY OF FORTY MILE","SOUTH"
"Z1.2.C.04","ALL years",6477,1706,26.3,446,6.9,54.5,9.1,"COUNTY OF FORTY MILE","SOUTH"
"Z1.3.A.01","12-19 years",3305,995,30.1,18,0.5,47.7,0.5,"NEWELL","SOUTH"
"Z1.3.A.01","12+ years",23276,11811,50.7,1797,7.7,64,10.7,"NEWELL","SOUTH"
"Z1.3.A.01","20-39 years",7780,3055,39.3,144,1.9,52.1,4.1,"NEWELL","SOUTH"
"Z1.3.A.01","40-59 years",7416,4140,55.8,265,3.6,67,5.8,"NEWELL","SOUTH"
"Z1.3.A.01","60-74 years",3496,2552,73,495,14.2,80.5,13.5,"NEWELL","SOUTH"
"Z1.3.A.01","75+ years",1279,1029,80.5,875,68.4,86,73.9,"NEWELL","SOUTH"
"Z1.3.A.01","ALL years",27920,11811,42.3,1797,6.4,54.5,9.1,"NEWELL","SOUTH"
"Z1.3.B.02","12-19 years",331,66,19.9,3,0.9,47.7,0.5,"OYEN","SOUTH"
"Z1.3.B.02","12+ years",3004,1428,47.5,492,16.4,64,10.7,"OYEN","SOUTH"
"Z1.3.B.02","20-39 years",781,226,28.9,28,3.6,52.1,4.1,"OYEN","SOUTH"
"Z1.3.B.02","40-59 years",833,368,44.2,62,7.4,67,5.8,"OYEN","SOUTH"
"Z1.3.B.02","60-74 years",745,512,68.8,189,25.4,80.5,13.5,"OYEN","SOUTH"
"Z1.3.B.02","75+ years",313,254,81.1,210,67.1,86,73.9,"OYEN","SOUTH"
"Z1.3.B.02","ALL years",3525,1428,40.5,492,14,54.5,9.1,"OYEN","SOUTH"
"Z1.3.B.03","12-19 years",1285,465,36.2,7,0.5,47.7,0.5,"CYPRESS COUNTY","SOUTH"
"Z1.3.B.03","12+ years",9721,5151,53,606,6.2,64,10.7,"CYPRESS COUNTY","SOUTH"
"Z1.3.B.03","20-39 years",2798,1065,38.1,59,2.1,52.1,4.1,"CYPRESS COUNTY","SOUTH"
"Z1.3.B.03","40-59 years",3168,1843,58.2,116,3.7,67,5.8,"CYPRESS COUNTY","SOUTH"
"Z1.3.B.03","60-74 years",1963,1389,70.8,139,7.1,80.5,13.5,"CYPRESS COUNTY","SOUTH"
"Z1.3.B.03","75+ years",507,373,73.6,285,56.3,86,73.9,"CYPRESS COUNTY","SOUTH"
"Z1.3.B.03","ALL years",11405,5151,45.2,606,5.3,54.5,9.1,"CYPRESS COUNTY","SOUTH"
"Z1.4.A.01","12-19 years",6351,2946,46.4,25,0.4,47.7,0.5,"MEDICINE HAT","SOUTH"
"Z1.4.A.01","12+ years",59504,37411,62.9,7456,12.5,64,10.7,"MEDICINE HAT","SOUTH"
"Z1.4.A.01","20-39 years",17653,8337,47.2,718,4.1,52.1,4.1,"MEDICINE HAT","SOUTH"
"Z1.4.A.01","40-59 years",17060,10905,63.9,961,5.6,67,5.8,"MEDICINE HAT","SOUTH"
"Z1.4.A.01","60-74 years",12574,9993,79.5,1333,10.6,80.5,13.5,"MEDICINE HAT","SOUTH"
"Z1.4.A.01","75+ years",5866,5090,86.8,4419,75.3,86,73.9,"MEDICINE HAT","SOUTH"
"Z1.4.A.01","ALL years",68404,37411,54.7,7456,10.9,54.5,9.1,"MEDICINE HAT","SOUTH"
"Z1.5.A.01","12-19 years",4104,2679,65.3,20,0.5,47.7,0.5,"LETHBRIDGE - WEST","SOUTH"
"Z1.5.A.01","12+ years",32966,24434,74.1,3404,10.3,64,10.7,"LETHBRIDGE - WEST","SOUTH"
"Z1.5.A.01","20-39 years",13658,9033,66.1,698,5.1,52.1,4.1,"LETHBRIDGE - WEST","SOUTH"
"Z1.5.A.01","40-59 years",8704,6802,78.1,640,7.4,67,5.8,"LETHBRIDGE - WEST","SOUTH"
"Z1.5.A.01","60-74 years",4903,4299,87.7,713,14.5,80.5,13.5,"LETHBRIDGE - WEST","SOUTH"
"Z1.5.A.01","75+ years",1596,1457,91.3,1333,83.5,86,73.9,"LETHBRIDGE - WEST","SOUTH"
"Z1.5.A.01","ALL years",39115,24434,62.5,3404,8.7,54.5,9.1,"LETHBRIDGE - WEST","SOUTH"
"Z1.5.B.02","12-19 years",2497,1293,51.8,16,0.6,47.7,0.5,"LETHBRIDGE - NORTH","SOUTH"
"Z1.5.B.02","12+ years",24451,16568,67.8,2953,12.1,64,10.7,"LETHBRIDGE - NORTH","SOUTH"
"Z1.5.B.02","20-39 years",8270,4482,54.2,360,4.4,52.1,4.1,"LETHBRIDGE - NORTH","SOUTH"
"Z1.5.B.02","40-59 years",7090,5014,70.7,419,5.9,67,5.8,"LETHBRIDGE - NORTH","SOUTH"
"Z1.5.B.02","60-74 years",4590,3923,85.5,659,14.4,80.5,13.5,"LETHBRIDGE - NORTH","SOUTH"
"Z1.5.B.02","75+ years",2004,1788,89.2,1499,74.8,86,73.9,"LETHBRIDGE - NORTH","SOUTH"
"Z1.5.B.02","ALL years",28222,16568,58.7,2953,10.5,54.5,9.1,"LETHBRIDGE - NORTH","SOUTH"
"Z1.5.C.03","12-19 years",2630,1476,56.1,22,0.8,47.7,0.5,"LETHBRIDGE - SOUTH","SOUTH"
"Z1.5.C.03","12+ years",30909,21817,70.6,5780,18.7,64,10.7,"LETHBRIDGE - SOUTH","SOUTH"
"Z1.5.C.03","20-39 years",9700,5217,53.8,431,4.4,52.1,4.1,"LETHBRIDGE - SOUTH","SOUTH"
"Z1.5.C.03","40-59 years",7527,5459,72.5,558,7.4,67,5.8,"LETHBRIDGE - SOUTH","SOUTH"
"Z1.5.C.03","60-74 years",6621,5594,84.5,1085,16.4,80.5,13.5,"LETHBRIDGE - SOUTH","SOUTH"
"Z1.5.C.03","75+ years",4430,4006,90.4,3684,83.2,86,73.9,"LETHBRIDGE - SOUTH","SOUTH"
"Z1.5.C.03","ALL years",34789,21817,62.7,5780,16.6,54.5,9.1,"LETHBRIDGE - SOUTH","SOUTH"
"Z2.1.A.01","12-19 years",12829,7779,60.6,76,0.6,47.7,0.5,"CALGARY - UPPER NW","CALGARY"
"Z2.1.A.01","12+ years",108162,78475,72.6,11604,10.7,64,10.7,"CALGARY - UPPER NW","CALGARY"
"Z2.1.A.01","20-39 years",34553,21955,63.5,1551,4.5,52.1,4.1,"CALGARY - UPPER NW","CALGARY"
"Z2.1.A.01","40-59 years",34909,26264,75.2,2113,6.1,67,5.8,"CALGARY - UPPER NW","CALGARY"
"Z2.1.A.01","60-74 years",19230,16295,84.7,2693,14,80.5,13.5,"CALGARY - UPPER NW","CALGARY"
"Z2.1.A.01","75+ years",6641,5761,86.7,5169,77.8,86,73.9,"CALGARY - UPPER NW","CALGARY"
"Z2.1.A.01","ALL years",125587,78475,62.5,11604,9.2,54.5,9.1,"CALGARY - UPPER NW","CALGARY"
"Z2.1.B.02","12-19 years",12454,7086,56.9,54,0.4,47.7,0.5,"CALGARY - NORTH","CALGARY"
"Z2.1.B.02","12+ years",99564,70044,70.4,8262,8.3,64,10.7,"CALGARY - NORTH","CALGARY"
"Z2.1.B.02","20-39 years",33695,20779,61.7,1399,4.2,52.1,4.1,"CALGARY - NORTH","CALGARY"
"Z2.1.B.02","40-59 years",34221,25512,74.6,1976,5.8,67,5.8,"CALGARY - NORTH","CALGARY"
"Z2.1.B.02","60-74 years",14770,12473,84.4,1643,11.1,80.5,13.5,"CALGARY - NORTH","CALGARY"
"Z2.1.B.02","75+ years",4424,3851,87,3190,72.1,86,73.9,"CALGARY - NORTH","CALGARY"
"Z2.1.B.02","ALL years",118910,70044,58.9,8262,6.9,54.5,9.1,"CALGARY - NORTH","CALGARY"
"Z2.1.C.03","12-19 years",5744,3176,55.3,16,0.3,47.7,0.5,"CALGARY - NOSE HILL","CALGARY"
"Z2.1.C.03","12+ years",68316,47494,69.5,7088,10.4,64,10.7,"CALGARY - NOSE HILL","CALGARY"
"Z2.1.C.03","20-39 years",25107,15199,60.5,890,3.5,52.1,4.1,"CALGARY - NOSE HILL","CALGARY"
"Z2.1.C.03","40-59 years",20735,14905,71.9,1005,4.8,67,5.8,"CALGARY - NOSE HILL","CALGARY"
"Z2.1.C.03","60-74 years",11778,9726,82.6,1421,12.1,80.5,13.5,"CALGARY - NOSE HILL","CALGARY"
"Z2.1.C.03","75+ years",4952,4325,87.3,3756,75.8,86,73.9,"CALGARY - NOSE HILL","CALGARY"
"Z2.1.C.03","ALL years",78422,47494,60.6,7088,9,54.5,9.1,"CALGARY - NOSE HILL","CALGARY"
"Z2.1.D.04","12-19 years",6744,4417,65.5,39,0.6,47.7,0.5,"CALGARY - LOWER NW","CALGARY"
"Z2.1.D.04","12+ years",54873,42136,76.8,7232,13.2,64,10.7,"CALGARY - LOWER NW","CALGARY"
"Z2.1.D.04","20-39 years",16704,11103,66.5,718,4.3,52.1,4.1,"CALGARY - LOWER NW","CALGARY"
"Z2.1.D.04","40-59 years",17271,13749,79.6,1165,6.7,67,5.8,"CALGARY - LOWER NW","CALGARY"
"Z2.1.D.04","60-74 years",9736,8524,87.6,1516,15.6,80.5,13.5,"CALGARY - LOWER NW","CALGARY"
"Z2.1.D.04","75+ years",4417,4087,92.5,3794,85.9,86,73.9,"CALGARY - LOWER NW","CALGARY"
"Z2.1.D.04","ALL years",62936,42136,67,7232,11.5,54.5,9.1,"CALGARY - LOWER NW","CALGARY"
"Z2.1.E.05","12-19 years",1326,661,49.9,7,0.5,47.7,0.5,"CALGARY - WEST BOW","CALGARY"
"Z2.1.E.05","12+ years",18832,12857,68.3,2654,14.1,64,10.7,"CALGARY - WEST BOW","CALGARY"
"Z2.1.E.05","20-39 years",6482,3919,60.5,422,6.5,52.1,4.1,"CALGARY - WEST BOW","CALGARY"
"Z2.1.E.05","40-59 years",5552,3751,67.6,339,6.1,67,5.8,"CALGARY - WEST BOW","CALGARY"
"Z2.1.E.05","60-74 years",3760,2994,79.6,531,14.1,80.5,13.5,"CALGARY - WEST BOW","CALGARY"
"Z2.1.E.05","75+ years",1714,1502,87.7,1355,79.1,86,73.9,"CALGARY - WEST BOW","CALGARY"
"Z2.1.E.05","ALL years",21500,12857,59.8,2654,12.3,54.5,9.1,"CALGARY - WEST BOW","CALGARY"
"Z2.1.F.06","12-19 years",2653,1774,66.9,15,0.6,47.7,0.5,"CALGARY - CENTRE NORTH","CALGARY"
"Z2.1.F.06","12+ years",40248,29672,73.7,5158,12.8,64,10.7,"CALGARY - CENTRE NORTH","CALGARY"
"Z2.1.F.06","20-39 years",15638,10738,68.7,833,5.3,52.1,4.1,"CALGARY - CENTRE NORTH","CALGARY"
"Z2.1.F.06","40-59 years",12413,9092,73.2,852,6.9,67,5.8,"CALGARY - CENTRE NORTH","CALGARY"
"Z2.1.F.06","60-74 years",6537,5332,81.6,1115,17.1,80.5,13.5,"CALGARY - CENTRE NORTH","CALGARY"
"Z2.1.F.06","75+ years",3007,2613,86.9,2343,77.9,86,73.9,"CALGARY - CENTRE NORTH","CALGARY"
"Z2.1.F.06","ALL years",45414,29672,65.3,5158,11.4,54.5,9.1,"CALGARY - CENTRE NORTH","CALGARY"
"Z2.2.A.01","12-19 years",12850,6874,53.5,41,0.3,47.7,0.5,"CALGARY - UPPER NE","CALGARY"
"Z2.2.A.01","12+ years",102568,65491,63.9,6062,5.9,64,10.7,"CALGARY - UPPER NE","CALGARY"
"Z2.2.A.01","20-39 years",44857,24369,54.3,1401,3.1,52.1,4.1,"CALGARY - UPPER NE","CALGARY"
"Z2.2.A.01","40-59 years",29656,21340,72,1696,5.7,67,5.8,"CALGARY - UPPER NE","CALGARY"
"Z2.2.A.01","60-74 years",11824,9988,84.5,1038,8.8,80.5,13.5,"CALGARY - UPPER NE","CALGARY"
"Z2.2.A.01","75+ years",3380,2650,78.4,1886,55.8,86,73.9,"CALGARY - UPPER NE","CALGARY"
"Z2.2.A.01","ALL years",125654,65491,52.1,6062,4.8,54.5,9.1,"CALGARY - UPPER NE","CALGARY"
"Z2.2.B.02","12-19 years",9471,3865,40.8,32,0.3,47.7,0.5,"CALGARY - LOWER NE","CALGARY"
"Z2.2.B.02","12+ years",81860,49035,59.9,6695,8.2,64,10.7,"CALGARY - LOWER NE","CALGARY"
"Z2.2.B.02","20-39 years",28657,12966,45.2,727,2.5,52.1,4.1,"CALGARY - LOWER NE","CALGARY"
"Z2.2.B.02","40-59 years",25149,16228,64.5,1138,4.5,67,5.8,"CALGARY - LOWER NE","CALGARY"
"Z2.2.B.02","60-74 years",14007,11815,84.4,1545,11,80.5,13.5,"CALGARY - LOWER NE","CALGARY"
"Z2.2.B.02","75+ years",4576,4018,87.8,3253,71.1,86,73.9,"CALGARY - LOWER NE","CALGARY"
"Z2.2.B.02","ALL years",96631,49035,50.7,6695,6.9,54.5,9.1,"CALGARY - LOWER NE","CALGARY"
"Z2.3.A.01","12-19 years",6620,2388,36.1,10,0.2,47.7,0.5,"CALGARY - EAST","CALGARY"
"Z2.3.A.01","12+ years",63117,35609,56.4,4695,7.4,64,10.7,"CALGARY - EAST","CALGARY"
"Z2.3.A.01","20-39 years",21176,9017,42.6,468,2.2,52.1,4.1,"CALGARY - EAST","CALGARY"
"Z2.3.A.01","40-59 years",20685,12295,59.4,768,3.7,67,5.8,"CALGARY - EAST","CALGARY"
"Z2.3.A.01","60-74 years",11080,8852,79.9,1032,9.3,80.5,13.5,"CALGARY - EAST","CALGARY"
"Z2.3.A.01","75+ years",3557,2983,83.9,2417,68,86,73.9,"CALGARY - EAST","CALGARY"
"Z2.3.A.01","ALL years",72591,35609,49.1,4695,6.5,54.5,9.1,"CALGARY - EAST","CALGARY"
"Z2.3.B.02","12-19 years",12838,7242,56.4,40,0.3,47.7,0.5,"CALGARY - SE","CALGARY"
"Z2.3.B.02","12+ years",112940,77226,68.4,9414,8.3,64,10.7,"CALGARY - SE","CALGARY"
"Z2.3.B.02","20-39 years",41476,24551,59.2,1923,4.6,52.1,4.1,"CALGARY - SE","CALGARY"
"Z2.3.B.02","40-59 years",38943,28288,72.6,2202,5.7,67,5.8,"CALGARY - SE","CALGARY"
"Z2.3.B.02","60-74 years",15419,12939,83.9,1795,11.6,80.5,13.5,"CALGARY - SE","CALGARY"
"Z2.3.B.02","75+ years",4263,3751,88,3454,81,86,73.9,"CALGARY - SE","CALGARY"
"Z2.3.B.02","ALL years",138537,77226,55.7,9414,6.8,54.5,9.1,"CALGARY - SE","CALGARY"
"Z2.4.A.01","12-19 years",10419,7050,67.7,85,0.8,47.7,0.5,"CALGARY - WEST","CALGARY"
"Z2.4.A.01","12+ years",79935,60024,75.1,9327,11.7,64,10.7,"CALGARY - WEST","CALGARY"
"Z2.4.A.01","20-39 years",22214,14619,65.8,1043,4.7,52.1,4.1,"CALGARY - WEST","CALGARY"
"Z2.4.A.01","40-59 years",28211,21750,77.1,1868,6.6,67,5.8,"CALGARY - WEST","CALGARY"
"Z2.4.A.01","60-74 years",13870,11583,83.5,2097,15.1,80.5,13.5,"CALGARY - WEST","CALGARY"
"Z2.4.A.01","75+ years",5221,4612,88.3,4234,81.1,86,73.9,"CALGARY - WEST","CALGARY"
"Z2.4.A.01","ALL years",93211,60024,64.4,9327,10,54.5,9.1,"CALGARY - WEST","CALGARY"
"Z2.4.B.02","12-19 years",2223,1181,53.1,9,0.4,47.7,0.5,"CALGARY - CENTRE","CALGARY"
"Z2.4.B.02","12+ years",63686,41675,65.4,4883,7.7,64,10.7,"CALGARY - CENTRE","CALGARY"
"Z2.4.B.02","20-39 years",33047,20917,63.3,1243,3.8,52.1,4.1,"CALGARY - CENTRE","CALGARY"
"Z2.4.B.02","40-59 years",17260,11043,64,632,3.7,67,5.8,"CALGARY - CENTRE","CALGARY"
"Z2.4.B.02","60-74 years",8169,6167,75.5,1031,12.6,80.5,13.5,"CALGARY - CENTRE","CALGARY"
"Z2.4.B.02","75+ years",2988,2323,77.8,1968,65.9,86,73.9,"CALGARY - CENTRE","CALGARY"
"Z2.4.B.02","ALL years",69057,41675,60.3,4883,7.1,54.5,9.1,"CALGARY - CENTRE","CALGARY"
"Z2.4.C.03","12-19 years",4959,3102,62.6,24,0.5,47.7,0.5,"CALGARY - CENTRE WEST","CALGARY"
"Z2.4.C.03","12+ years",57411,41999,73.2,6874,12,64,10.7,"CALGARY - CENTRE WEST","CALGARY"
"Z2.4.C.03","20-39 years",21123,13854,65.6,1170,5.5,52.1,4.1,"CALGARY - CENTRE WEST","CALGARY"
"Z2.4.C.03","40-59 years",18494,13941,75.4,1157,6.3,67,5.8,"CALGARY - CENTRE WEST","CALGARY"
"Z2.4.C.03","60-74 years",8966,7420,82.8,1375,15.3,80.5,13.5,"CALGARY - CENTRE WEST","CALGARY"
"Z2.4.C.03","75+ years",3869,3506,90.6,3148,81.4,86,73.9,"CALGARY - CENTRE WEST","CALGARY"
"Z2.4.C.03","ALL years",66463,41999,63.2,6874,10.3,54.5,9.1,"CALGARY - CENTRE WEST","CALGARY"
"Z2.4.D.04","12-19 years",3001,2079,69.3,28,0.9,47.7,0.5,"CALGARY - ELBOW","CALGARY"
"Z2.4.D.04","12+ years",36961,27038,73.2,6055,16.4,64,10.7,"CALGARY - ELBOW","CALGARY"
"Z2.4.D.04","20-39 years",11893,7371,62,526,4.4,52.1,4.1,"CALGARY - ELBOW","CALGARY"
"Z2.4.D.04","40-59 years",10652,7814,73.4,789,7.4,67,5.8,"CALGARY - ELBOW","CALGARY"
"Z2.4.D.04","60-74 years",7583,6368,84,1638,21.6,80.5,13.5,"CALGARY - ELBOW","CALGARY"
"Z2.4.D.04","75+ years",3832,3302,86.2,3074,80.2,86,73.9,"CALGARY - ELBOW","CALGARY"
"Z2.4.D.04","ALL years",41000,27038,65.9,6055,14.8,54.5,9.1,"CALGARY - ELBOW","CALGARY"
"Z2.4.E.05","12-19 years",8740,4723,54,44,0.5,47.7,0.5,"CALGARY - FISH CREEK","CALGARY"
"Z2.4.E.05","12+ years",98046,68925,70.3,11908,12.1,64,10.7,"CALGARY - FISH CREEK","CALGARY"
"Z2.4.E.05","20-39 years",30543,17500,57.3,1071,3.5,52.1,4.1,"CALGARY - FISH CREEK","CALGARY"
"Z2.4.E.05","40-59 years",29766,21475,72.1,1475,5,67,5.8,"CALGARY - FISH CREEK","CALGARY"
"Z2.4.E.05","60-74 years",20793,17667,85,2763,13.3,80.5,13.5,"CALGARY - FISH CREEK","CALGARY"
"Z2.4.E.05","75+ years",8203,7309,89.1,6555,79.9,86,73.9,"CALGARY - FISH CREEK","CALGARY"
"Z2.4.E.05","ALL years",111466,68925,61.8,11908,10.7,54.5,9.1,"CALGARY - FISH CREEK","CALGARY"
"Z2.4.F.06","12-19 years",12647,7041,55.7,90,0.7,47.7,0.5,"CALGARY - SW","CALGARY"
"Z2.4.F.06","12+ years",101398,70370,69.4,10739,10.6,64,10.7,"CALGARY - SW","CALGARY"
"Z2.4.F.06","20-39 years",32217,19173,59.5,1483,4.6,52.1,4.1,"CALGARY - SW","CALGARY"
"Z2.4.F.06","40-59 years",35029,25403,72.5,2442,7,67,5.8,"CALGARY - SW","CALGARY"
"Z2.4.F.06","60-74 years",15660,13201,84.3,1954,12.5,80.5,13.5,"CALGARY - SW","CALGARY"
"Z2.4.F.06","75+ years",5845,5222,89.3,4770,81.6,86,73.9,"CALGARY - SW","CALGARY"
"Z2.4.F.06","ALL years",118678,70370,59.3,10739,9,54.5,9.1,"CALGARY - SW","CALGARY"
"Z2.5.A.01","12-19 years",5694,2519,44.2,33,0.6,47.7,0.5,"OKOTOKS-PRIDDIS","CALGARY"
"Z2.5.A.01","12+ years",40623,25473,62.7,4397,10.8,64,10.7,"OKOTOKS-PRIDDIS","CALGARY"
"Z2.5.A.01","20-39 years",10373,4793,46.2,363,3.5,52.1,4.1,"OKOTOKS-PRIDDIS","CALGARY"
"Z2.5.A.01","40-59 years",13508,8981,66.5,717,5.3,67,5.8,"OKOTOKS-PRIDDIS","CALGARY"
"Z2.5.A.01","60-74 years",8412,6727,80,1161,13.8,80.5,13.5,"OKOTOKS-PRIDDIS","CALGARY"
"Z2.5.A.01","75+ years",2636,2321,88,2123,80.5,86,73.9,"OKOTOKS-PRIDDIS","CALGARY"
"Z2.5.A.01","ALL years",46994,25473,54.2,4397,9.4,54.5,9.1,"OKOTOKS-PRIDDIS","CALGARY"
"Z2.5.B.02","12-19 years",771,235,30.5,7,0.9,47.7,0.5,"BLACK DIAMOND","CALGARY"
"Z2.5.B.02","12+ years",7758,4419,57,963,12.4,64,10.7,"BLACK DIAMOND","CALGARY"
"Z2.5.B.02","20-39 years",1783,655,36.7,83,4.7,52.1,4.1,"BLACK DIAMOND","CALGARY"
"Z2.5.B.02","40-59 years",2341,1274,54.4,125,5.3,67,5.8,"BLACK DIAMOND","CALGARY"
"Z2.5.B.02","60-74 years",2139,1629,76.2,246,11.5,80.5,13.5,"BLACK DIAMOND","CALGARY"
"Z2.5.B.02","75+ years",724,611,84.4,502,69.3,86,73.9,"BLACK DIAMOND","CALGARY"
"Z2.5.B.02","ALL years",8875,4419,49.8,963,10.9,54.5,9.1,"BLACK DIAMOND","CALGARY"
"Z2.5.B.03","12-19 years",2454,848,34.6,11,0.4,47.7,0.5,"HIGH RIVER","CALGARY"
"Z2.5.B.03","12+ years",20989,12182,58,2805,13.4,64,10.7,"HIGH RIVER","CALGARY"
"Z2.5.B.03","20-39 years",5174,2004,38.7,142,2.7,52.1,4.1,"HIGH RIVER","CALGARY"
"Z2.5.B.03","40-59 years",6115,3599,58.9,276,4.5,67,5.8,"HIGH RIVER","CALGARY"
"Z2.5.B.03","60-74 years",4868,3643,74.8,626,12.9,80.5,13.5,"HIGH RIVER","CALGARY"
"Z2.5.B.03","75+ years",2379,2056,86.4,1750,73.6,86,73.9,"HIGH RIVER","CALGARY"
"Z2.5.B.03","ALL years",23993,12182,50.8,2805,11.7,54.5,9.1,"HIGH RIVER","CALGARY"
"Z2.5.C.04","12-19 years",462,141,30.5,0,0,47.7,0.5,"CLARESHOLM","CALGARY"
"Z2.5.C.04","12+ years",5582,3342,59.9,900,16.1,64,10.7,"CLARESHOLM","CALGARY"
"Z2.5.C.04","20-39 years",1257,442,35.2,35,2.8,52.1,4.1,"CLARESHOLM","CALGARY"
"Z2.5.C.04","40-59 years",1502,832,55.4,86,5.7,67,5.8,"CLARESHOLM","CALGARY"
"Z2.5.C.04","60-74 years",1530,1207,78.9,208,13.6,80.5,13.5,"CLARESHOLM","CALGARY"
"Z2.5.C.04","75+ years",831,711,85.5,571,68.7,86,73.9,"CLARESHOLM","CALGARY"
"Z2.5.C.04","ALL years",6267,3342,53.3,900,14.4,54.5,9.1,"CLARESHOLM","CALGARY"
"Z2.5.C.05","12-19 years",719,168,23.4,2,0.3,47.7,0.5,"VULCAN","CALGARY"
"Z2.5.C.05","12+ years",5897,2986,50.6,651,11,64,10.7,"VULCAN","CALGARY"
"Z2.5.C.05","20-39 years",1488,439,29.5,40,2.7,52.1,4.1,"VULCAN","CALGARY"
"Z2.5.C.05","40-59 years",1515,742,49,68,4.5,67,5.8,"VULCAN","CALGARY"
"Z2.5.C.05","60-74 years",1496,1079,72.1,125,8.4,80.5,13.5,"VULCAN","CALGARY"
"Z2.5.C.05","75+ years",679,554,81.6,416,61.2,86,73.9,"VULCAN","CALGARY"
"Z2.5.C.05","ALL years",6837,2986,43.7,651,9.5,54.5,9.1,"VULCAN","CALGARY"
"Z2.6.A.01","12-19 years",8060,3591,44.6,22,0.3,47.7,0.5,"AIRDRIE","CALGARY"
"Z2.6.A.01","12+ years",61558,37001,60.1,3947,6.4,64,10.7,"AIRDRIE","CALGARY"
"Z2.6.A.01","20-39 years",22157,10813,48.8,687,3.1,52.1,4.1,"AIRDRIE","CALGARY"
"Z2.6.A.01","40-59 years",20294,13304,65.6,919,4.5,67,5.8,"AIRDRIE","CALGARY"
"Z2.6.A.01","60-74 years",8824,7220,81.8,773,8.8,80.5,13.5,"AIRDRIE","CALGARY"
"Z2.6.A.01","75+ years",2222,1839,82.7,1546,69.6,86,73.9,"AIRDRIE","CALGARY"
"Z2.6.A.01","ALL years",76018,37001,48.7,3947,5.2,54.5,9.1,"AIRDRIE","CALGARY"
"Z2.6.B.02","12-19 years",3045,1588,52.2,11,0.4,47.7,0.5,"CHESTERMERE","CALGARY"
"Z2.6.B.02","12+ years",21658,14414,66.6,1954,9,64,10.7,"CHESTERMERE","CALGARY"
"Z2.6.B.02","20-39 years",6562,3635,55.4,222,3.4,52.1,4.1,"CHESTERMERE","CALGARY"
"Z2.6.B.02","40-59 years",7295,5165,70.8,347,4.8,67,5.8,"CHESTERMERE","CALGARY"
"Z2.6.B.02","60-74 years",3610,2935,81.3,487,13.5,80.5,13.5,"CHESTERMERE","CALGARY"
"Z2.6.B.02","75+ years",1145,1027,89.7,887,77.5,86,73.9,"CHESTERMERE","CALGARY"
"Z2.6.B.02","ALL years",25681,14414,56.1,1954,7.6,54.5,9.1,"CHESTERMERE","CALGARY"
"Z2.6.C.03","12-19 years",4173,1778,42.6,61,1.5,47.7,0.5,"STRATHMORE","CALGARY"
"Z2.6.C.03","12+ years",30481,18147,59.5,3968,13,64,10.7,"STRATHMORE","CALGARY"
"Z2.6.C.03","20-39 years",8802,3965,45,650,7.4,52.1,4.1,"STRATHMORE","CALGARY"
"Z2.6.C.03","40-59 years",9970,6272,62.9,875,8.8,67,5.8,"STRATHMORE","CALGARY"
"Z2.6.C.03","60-74 years",5565,4336,77.9,946,17,80.5,13.5,"STRATHMORE","CALGARY"
"Z2.6.C.03","75+ years",1971,1686,85.6,1436,72.9,86,73.9,"STRATHMORE","CALGARY"
"Z2.6.C.03","ALL years",35924,18147,50.5,3968,11,54.5,9.1,"STRATHMORE","CALGARY"
"Z2.6.C.04","12-19 years",883,334,37.8,5,0.6,47.7,0.5,"CROSSFIELD","CALGARY"
"Z2.6.C.04","12+ years",8162,4301,52.7,605,7.4,64,10.7,"CROSSFIELD","CALGARY"
"Z2.6.C.04","20-39 years",2287,832,36.4,39,1.7,52.1,4.1,"CROSSFIELD","CALGARY"
"Z2.6.C.04","40-59 years",2618,1420,54.2,74,2.8,67,5.8,"CROSSFIELD","CALGARY"
"Z2.6.C.04","60-74 years",1866,1303,69.8,191,10.2,80.5,13.5,"CROSSFIELD","CALGARY"
"Z2.6.C.04","75+ years",508,397,78.1,296,58.2,86,73.9,"CROSSFIELD","CALGARY"
"Z2.6.C.04","ALL years",9432,4301,45.6,605,6.4,54.5,9.1,"CROSSFIELD","CALGARY"
"Z2.6.C.05","12-19 years",1695,548,32.3,7,0.4,47.7,0.5,"DIDSBURY","CALGARY"
"Z2.6.C.05","12+ years",14315,7742,54.1,1449,10.1,64,10.7,"DIDSBURY","CALGARY"
"Z2.6.C.05","20-39 years",3607,1219,33.8,89,2.5,52.1,4.1,"DIDSBURY","CALGARY"
"Z2.6.C.05","40-59 years",4485,2392,53.3,183,4.1,67,5.8,"DIDSBURY","CALGARY"
"Z2.6.C.05","60-74 years",3319,2465,74.3,303,9.1,80.5,13.5,"DIDSBURY","CALGARY"
"Z2.6.C.05","75+ years",1209,1086,89.8,867,71.7,86,73.9,"DIDSBURY","CALGARY"
"Z2.6.C.05","ALL years",16700,7742,46.4,1449,8.7,54.5,9.1,"DIDSBURY","CALGARY"
"Z2.7.A.01","12-19 years",5343,2696,50.5,30,0.6,47.7,0.5,"COCHRANE-SPRINGBANK","CALGARY"
"Z2.7.A.01","12+ years",44875,29825,66.5,5065,11.3,64,10.7,"COCHRANE-SPRINGBANK","CALGARY"
"Z2.7.A.01","20-39 years",12658,6759,53.4,469,3.7,52.1,4.1,"COCHRANE-SPRINGBANK","CALGARY"
"Z2.7.A.01","40-59 years",14175,9907,69.9,872,6.2,67,5.8,"COCHRANE-SPRINGBANK","CALGARY"
"Z2.7.A.01","60-74 years",9720,7769,79.9,1357,14,80.5,13.5,"COCHRANE-SPRINGBANK","CALGARY"
"Z2.7.A.01","75+ years",2978,2561,86,2337,78.5,86,73.9,"COCHRANE-SPRINGBANK","CALGARY"
"Z2.7.A.01","ALL years",52406,29825,56.9,5065,9.7,54.5,9.1,"COCHRANE-SPRINGBANK","CALGARY"
"Z2.7.B.02","12-19 years",2549,1502,58.9,111,4.4,47.7,0.5,"CANMORE","CALGARY"
"Z2.7.B.02","12+ years",24666,17079,69.2,3460,14,64,10.7,"CANMORE","CALGARY"
"Z2.7.B.02","20-39 years",8460,4784,56.5,659,7.8,52.1,4.1,"CANMORE","CALGARY"
"Z2.7.B.02","40-59 years",7679,5674,73.9,807,10.5,67,5.8,"CANMORE","CALGARY"
"Z2.7.B.02","60-74 years",4711,3934,83.5,847,18,80.5,13.5,"CANMORE","CALGARY"
"Z2.7.B.02","75+ years",1267,1116,88.1,1036,81.8,86,73.9,"CANMORE","CALGARY"
"Z2.7.B.02","ALL years",28270,17079,60.4,3460,12.2,54.5,9.1,"CANMORE","CALGARY"
"Z2.7.B.03","12-19 years",711,417,58.6,1,0.1,47.7,0.5,"BANFF","CALGARY"
"Z2.7.B.03","12+ years",12901,7593,58.9,552,4.3,64,10.7,"BANFF","CALGARY"
"Z2.7.B.03","20-39 years",7824,3891,49.7,62,0.8,52.1,4.1,"BANFF","CALGARY"
"Z2.7.B.03","40-59 years",2983,2135,71.6,92,3.1,67,5.8,"BANFF","CALGARY"
"Z2.7.B.03","60-74 years",1082,868,80.2,160,14.8,80.5,13.5,"BANFF","CALGARY"
"Z2.7.B.03","75+ years",301,266,88.4,237,78.8,86,73.9,"BANFF","CALGARY"
"Z2.7.B.03","ALL years",13665,7593,55.6,552,4,54.5,9.1,"BANFF","CALGARY"
"Z3.1.A.01","12-19 years",2131,513,24.1,10,0.5,47.7,0.5,"ROCKY MOUNTAIN HOUSE","CENTRAL"
"Z3.1.A.01","12+ years",17420,8203,47.1,1688,9.7,64,10.7,"ROCKY MOUNTAIN HOUSE","CENTRAL"
"Z3.1.A.01","20-39 years",5102,1426,27.9,185,3.6,52.1,4.1,"ROCKY MOUNTAIN HOUSE","CENTRAL"
"Z3.1.A.01","40-59 years",5199,2556,49.2,253,4.9,67,5.8,"ROCKY MOUNTAIN HOUSE","CENTRAL"
"Z3.1.A.01","60-74 years",3606,2557,70.9,340,9.4,80.5,13.5,"ROCKY MOUNTAIN HOUSE","CENTRAL"
"Z3.1.A.01","75+ years",1381,1128,81.7,900,65.2,86,73.9,"ROCKY MOUNTAIN HOUSE","CENTRAL"
"Z3.1.A.01","ALL years",20358,8203,40.3,1688,8.3,54.5,9.1,"ROCKY MOUNTAIN HOUSE","CENTRAL"
"Z3.1.B.02","12-19 years",1833,427,23.3,6,0.3,47.7,0.5,"DRAYTON VALLEY","CENTRAL"
"Z3.1.B.02","12+ years",15432,6888,44.6,1094,7.1,64,10.7,"DRAYTON VALLEY","CENTRAL"
"Z3.1.B.02","20-39 years",4686,1246,26.6,103,2.2,52.1,4.1,"DRAYTON VALLEY","CENTRAL"
"Z3.1.B.02","40-59 years",4799,2204,45.9,154,3.2,67,5.8,"DRAYTON VALLEY","CENTRAL"
"Z3.1.B.02","60-74 years",3017,2109,69.9,260,8.6,80.5,13.5,"DRAYTON VALLEY","CENTRAL"
"Z3.1.B.02","75+ years",1098,884,80.5,571,52,86,73.9,"DRAYTON VALLEY","CENTRAL"
"Z3.1.B.02","ALL years",18113,6888,38,1094,6,54.5,9.1,"DRAYTON VALLEY","CENTRAL"
"Z3.2.A.01","12-19 years",640,180,28.1,4,0.6,47.7,0.5,"SUNDRE","CENTRAL"
"Z3.2.A.01","12+ years",6102,3101,50.8,593,9.7,64,10.7,"SUNDRE","CENTRAL"
"Z3.2.A.01","20-39 years",1432,405,28.3,29,2,52.1,4.1,"SUNDRE","CENTRAL"
"Z3.2.A.01","40-59 years",1750,844,48.2,62,3.5,67,5.8,"SUNDRE","CENTRAL"
"Z3.2.A.01","60-74 years",1633,1143,70,148,9.1,80.5,13.5,"SUNDRE","CENTRAL"
"Z3.2.A.01","75+ years",647,525,81.1,350,54.1,86,73.9,"SUNDRE","CENTRAL"
"Z3.2.A.01","ALL years",6847,3101,45.3,593,8.7,54.5,9.1,"SUNDRE","CENTRAL"
"Z3.2.A.02","12-19 years",1158,491,42.4,1,0.1,47.7,0.5,"OLDS","CENTRAL"
"Z3.2.A.02","12+ years",11063,6586,59.5,1334,12.1,64,10.7,"OLDS","CENTRAL"
"Z3.2.A.02","20-39 years",3167,1311,41.4,111,3.5,52.1,4.1,"OLDS","CENTRAL"
"Z3.2.A.02","40-59 years",3103,1867,60.2,140,4.5,67,5.8,"OLDS","CENTRAL"
"Z3.2.A.02","60-74 years",2280,1787,78.4,179,7.9,80.5,13.5,"OLDS","CENTRAL"
"Z3.2.A.02","75+ years",1355,1116,82.3,903,66.6,86,73.9,"OLDS","CENTRAL"
"Z3.2.A.02","ALL years",12662,6586,52,1334,10.5,54.5,9.1,"OLDS","CENTRAL"
"Z3.2.B.03","12-19 years",1454,473,32.5,7,0.5,47.7,0.5,"INNISFAIL","CENTRAL"
"Z3.2.B.03","12+ years",14049,7767,55.3,1535,10.9,64,10.7,"INNISFAIL","CENTRAL"
"Z3.2.B.03","20-39 years",3773,1272,33.7,105,2.8,52.1,4.1,"INNISFAIL","CENTRAL"
"Z3.2.B.03","40-59 years",4106,2264,55.1,178,4.3,67,5.8,"INNISFAIL","CENTRAL"
"Z3.2.B.03","60-74 years",3248,2469,76,305,9.4,80.5,13.5,"INNISFAIL","CENTRAL"
"Z3.2.B.03","75+ years",1468,1271,86.6,940,64.1,86,73.9,"INNISFAIL","CENTRAL"
"Z3.2.B.03","ALL years",15923,7767,48.8,1535,9.6,54.5,9.1,"INNISFAIL","CENTRAL"
"Z3.2.C.04","12-19 years",2839,984,34.7,9,0.3,47.7,0.5,"RED DEER COUNTY","CENTRAL"
"Z3.2.C.04","12+ years",25439,12153,47.8,2009,7.9,64,10.7,"RED DEER COUNTY","CENTRAL"
"Z3.2.C.04","20-39 years",8941,2942,32.9,251,2.8,52.1,4.1,"RED DEER COUNTY","CENTRAL"
"Z3.2.C.04","40-59 years",7587,3875,51.1,330,4.3,67,5.8,"RED DEER COUNTY","CENTRAL"
"Z3.2.C.04","60-74 years",4663,3202,68.7,542,11.6,80.5,13.5,"RED DEER COUNTY","CENTRAL"
"Z3.2.C.04","75+ years",1409,1109,78.7,877,62.2,86,73.9,"RED DEER COUNTY","CENTRAL"
"Z3.2.C.04","ALL years",30540,12153,39.8,2009,6.6,54.5,9.1,"RED DEER COUNTY","CENTRAL"
"Z3.2.C.05","12-19 years",1885,626,33.2,6,0.3,47.7,0.5,"SYLVAN LAKE","CENTRAL"
"Z3.2.C.05","12+ years",15392,7336,47.7,1047,6.8,64,10.7,"SYLVAN LAKE","CENTRAL"
"Z3.2.C.05","20-39 years",5697,1891,33.2,157,2.8,52.1,4.1,"SYLVAN LAKE","CENTRAL"
"Z3.2.C.05","40-59 years",4766,2500,52.5,183,3.8,67,5.8,"SYLVAN LAKE","CENTRAL"
"Z3.2.C.05","60-74 years",2413,1746,72.4,255,10.6,80.5,13.5,"SYLVAN LAKE","CENTRAL"
"Z3.2.C.05","75+ years",631,535,84.8,446,70.7,86,73.9,"SYLVAN LAKE","CENTRAL"
"Z3.2.C.05","ALL years",18367,7336,39.9,1047,5.7,54.5,9.1,"SYLVAN LAKE","CENTRAL"
"Z3.3.A.01","12-19 years",1126,362,32.2,10,0.9,47.7,0.5,"THREE HILLS/HIGHWAY 21","CENTRAL"
"Z3.3.A.01","12+ years",9321,4816,51.7,891,9.6,64,10.7,"THREE HILLS/HIGHWAY 21","CENTRAL"
"Z3.3.A.01","20-39 years",2481,861,34.7,79,3.2,52.1,4.1,"THREE HILLS/HIGHWAY 21","CENTRAL"
"Z3.3.A.01","40-59 years",2658,1364,51.3,138,5.2,67,5.8,"THREE HILLS/HIGHWAY 21","CENTRAL"
"Z3.3.A.01","60-74 years",2052,1438,70.1,168,8.2,80.5,13.5,"THREE HILLS/HIGHWAY 21","CENTRAL"
"Z3.3.A.01","75+ years",1005,773,76.9,496,49.3,86,73.9,"THREE HILLS/HIGHWAY 21","CENTRAL"
"Z3.3.A.01","ALL years",10858,4816,44.4,891,8.2,54.5,9.1,"THREE HILLS/HIGHWAY 21","CENTRAL"
"Z3.3.A.02","12-19 years",1131,437,38.6,3,0.3,47.7,0.5,"STARLAND COUNTY/DRUMHELLER","CENTRAL"
"Z3.3.A.02","12+ years",10395,6067,58.4,1169,11.2,64,10.7,"STARLAND COUNTY/DRUMHELLER","CENTRAL"
"Z3.3.A.02","20-39 years",2837,1155,40.7,108,3.8,52.1,4.1,"STARLAND COUNTY/DRUMHELLER","CENTRAL"
"Z3.3.A.02","40-59 years",3069,1775,57.8,177,5.8,67,5.8,"STARLAND COUNTY/DRUMHELLER","CENTRAL"
"Z3.3.A.02","60-74 years",2396,1844,77,257,10.7,80.5,13.5,"STARLAND COUNTY/DRUMHELLER","CENTRAL"
"Z3.3.A.02","75+ years",961,843,87.7,624,64.9,86,73.9,"STARLAND COUNTY/DRUMHELLER","CENTRAL"
"Z3.3.A.02","ALL years",11848,6067,51.2,1169,9.9,54.5,9.1,"STARLAND COUNTY/DRUMHELLER","CENTRAL"
"Z3.3.A.04","12-19 years",344,94,27.3,3,0.9,47.7,0.5,"PLANNING & SPECIAL AREA 2","CENTRAL"
"Z3.3.A.04","12+ years",3255,1687,51.8,368,11.3,64,10.7,"PLANNING & SPECIAL AREA 2","CENTRAL"
"Z3.3.A.04","20-39 years",776,248,32,24,3.1,52.1,4.1,"PLANNING & SPECIAL AREA 2","CENTRAL"
"Z3.3.A.04","40-59 years",960,486,50.6,52,5.4,67,5.8,"PLANNING & SPECIAL AREA 2","CENTRAL"
"Z3.3.A.04","60-74 years",803,526,65.5,56,7,80.5,13.5,"PLANNING & SPECIAL AREA 2","CENTRAL"
"Z3.3.A.04","75+ years",372,326,87.6,233,62.6,86,73.9,"PLANNING & SPECIAL AREA 2","CENTRAL"
"Z3.3.A.04","ALL years",3673,1687,45.9,368,10,54.5,9.1,"PLANNING & SPECIAL AREA 2","CENTRAL"
"Z3.3.B.03","12-19 years",1187,321,27.1,6,0.5,47.7,0.5,"STETTLER & COUNTY","CENTRAL"
"Z3.3.B.03","12+ years",10728,5441,50.7,1155,10.8,64,10.7,"STETTLER & COUNTY","CENTRAL"
"Z3.3.B.03","20-39 years",3014,918,30.5,104,3.5,52.1,4.1,"STETTLER & COUNTY","CENTRAL"
"Z3.3.B.03","40-59 years",3001,1540,51.3,142,4.7,67,5.8,"STETTLER & COUNTY","CENTRAL"
"Z3.3.B.03","60-74 years",2371,1688,71.2,213,9,80.5,13.5,"STETTLER & COUNTY","CENTRAL"
"Z3.3.B.03","75+ years",1156,963,83.3,690,59.7,86,73.9,"STETTLER & COUNTY","CENTRAL"
"Z3.3.B.03","ALL years",12597,5441,43.2,1155,9.2,54.5,9.1,"STETTLER & COUNTY","CENTRAL"
"Z3.3.B.05","12-19 years",663,176,26.6,0,0,47.7,0.5,"CASTOR/CORONATION/CONSORT","CENTRAL"
"Z3.3.B.05","12+ years",5303,2594,48.9,796,15,64,10.7,"CASTOR/CORONATION/CONSORT","CENTRAL"
"Z3.3.B.05","20-39 years",1396,434,31.1,65,4.7,52.1,4.1,"CASTOR/CORONATION/CONSORT","CENTRAL"
"Z3.3.B.05","40-59 years",1515,701,46.3,89,5.9,67,5.8,"CASTOR/CORONATION/CONSORT","CENTRAL"
"Z3.3.B.05","60-74 years",1210,863,71.3,314,26,80.5,13.5,"CASTOR/CORONATION/CONSORT","CENTRAL"
"Z3.3.B.05","75+ years",518,412,79.5,328,63.3,86,73.9,"CASTOR/CORONATION/CONSORT","CENTRAL"
"Z3.3.B.05","ALL years",6194,2594,41.9,796,12.9,54.5,9.1,"CASTOR/CORONATION/CONSORT","CENTRAL"
"Z3.4.A.01","12-19 years",3834,1119,29.2,62,1.6,47.7,0.5,"WETASKIWIN COUNTY","CENTRAL"
"Z3.4.A.01","12+ years",28034,15039,53.6,4255,15.2,64,10.7,"WETASKIWIN COUNTY","CENTRAL"
"Z3.4.A.01","20-39 years",8308,3109,37.4,679,8.2,52.1,4.1,"WETASKIWIN COUNTY","CENTRAL"
"Z3.4.A.01","40-59 years",7809,4453,57,899,11.5,67,5.8,"WETASKIWIN COUNTY","CENTRAL"
"Z3.4.A.01","60-74 years",5668,4223,74.5,916,16.2,80.5,13.5,"WETASKIWIN COUNTY","CENTRAL"
"Z3.4.A.01","75+ years",2415,2086,86.4,1699,70.4,86,73.9,"WETASKIWIN COUNTY","CENTRAL"
"Z3.4.A.01","ALL years",33659,15039,44.7,4255,12.6,54.5,9.1,"WETASKIWIN COUNTY","CENTRAL"
"Z3.4.B.02","12-19 years",1189,347,29.2,8,0.7,47.7,0.5,"PONOKA","CENTRAL"
"Z3.4.B.02","12+ years",10570,5606,53,1320,12.5,64,10.7,"PONOKA","CENTRAL"
"Z3.4.B.02","20-39 years",3210,1106,34.5,154,4.8,52.1,4.1,"PONOKA","CENTRAL"
"Z3.4.B.02","40-59 years",2960,1701,57.5,227,7.7,67,5.8,"PONOKA","CENTRAL"
"Z3.4.B.02","60-74 years",2200,1597,72.6,267,12.1,80.5,13.5,"PONOKA","CENTRAL"
"Z3.4.B.02","75+ years",1011,842,83.3,664,65.7,86,73.9,"PONOKA","CENTRAL"
"Z3.4.B.02","ALL years",12487,5606,44.9,1320,10.6,54.5,9.1,"PONOKA","CENTRAL"
"Z3.4.B.03","12-19 years",895,234,26.1,2,0.2,47.7,0.5,"RIMBEY","CENTRAL"
"Z3.4.B.03","12+ years",8774,4248,48.4,821,9.4,64,10.7,"RIMBEY","CENTRAL"
"Z3.4.B.03","20-39 years",2214,573,25.9,47,2.1,52.1,4.1,"RIMBEY","CENTRAL"
"Z3.4.B.03","40-59 years",2471,1092,44.2,92,3.7,67,5.8,"RIMBEY","CENTRAL"
"Z3.4.B.03","60-74 years",2265,1582,69.8,188,8.3,80.5,13.5,"RIMBEY","CENTRAL"
"Z3.4.B.03","75+ years",928,754,81.2,492,53,86,73.9,"RIMBEY","CENTRAL"
"Z3.4.B.03","ALL years",10134,4248,41.9,821,8.1,54.5,9.1,"RIMBEY","CENTRAL"
"Z3.4.B.04","12-19 years",2419,830,34.3,7,0.3,47.7,0.5,"LACOMBE","CENTRAL"
"Z3.4.B.04","12+ years",20154,10763,53.4,1890,9.4,64,10.7,"LACOMBE","CENTRAL"
"Z3.4.B.04","20-39 years",6146,2292,37.3,193,3.1,52.1,4.1,"LACOMBE","CENTRAL"
"Z3.4.B.04","40-59 years",5817,3279,56.4,266,4.6,67,5.8,"LACOMBE","CENTRAL"
"Z3.4.B.04","60-74 years",4089,2934,71.8,434,10.6,80.5,13.5,"LACOMBE","CENTRAL"
"Z3.4.B.04","75+ years",1684,1384,82.2,990,58.8,86,73.9,"LACOMBE","CENTRAL"
"Z3.4.B.04","ALL years",23679,10763,45.5,1890,8,54.5,9.1,"LACOMBE","CENTRAL"
"Z3.5.A.01","12-19 years",2725,1294,47.5,11,0.4,47.7,0.5,"CAMROSE & COUNTY","CENTRAL"
"Z3.5.A.01","12+ years",26087,16878,64.7,4333,16.6,64,10.7,"CAMROSE & COUNTY","CENTRAL"
"Z3.5.A.01","20-39 years",7537,3553,47.1,395,5.2,52.1,4.1,"CAMROSE & COUNTY","CENTRAL"
"Z3.5.A.01","40-59 years",7156,4693,65.6,575,8,67,5.8,"CAMROSE & COUNTY","CENTRAL"
"Z3.5.A.01","60-74 years",5681,4585,80.7,961,16.9,80.5,13.5,"CAMROSE & COUNTY","CENTRAL"
"Z3.5.A.01","75+ years",2987,2677,89.6,2391,80,86,73.9,"CAMROSE & COUNTY","CENTRAL"
"Z3.5.A.01","ALL years",30202,16878,55.9,4333,14.3,54.5,9.1,"CAMROSE & COUNTY","CENTRAL"
"Z3.5.B.02","12-19 years",735,261,35.5,3,0.4,47.7,0.5,"TOFIELD","CENTRAL"
"Z3.5.B.02","12+ years",6776,3882,57.3,863,12.7,64,10.7,"TOFIELD","CENTRAL"
"Z3.5.B.02","20-39 years",1803,755,41.9,71,3.9,52.1,4.1,"TOFIELD","CENTRAL"
"Z3.5.B.02","40-59 years",2038,1159,56.9,105,5.2,67,5.8,"TOFIELD","CENTRAL"
"Z3.5.B.02","60-74 years",1580,1192,75.4,263,16.6,80.5,13.5,"TOFIELD","CENTRAL"
"Z3.5.B.02","75+ years",619,504,81.4,421,68,86,73.9,"TOFIELD","CENTRAL"
"Z3.5.B.02","ALL years",7876,3882,49.3,863,11,54.5,9.1,"TOFIELD","CENTRAL"
"Z3.5.B.03","12-19 years",210,83,39.4,3,1.4,47.7,0.5,"VIKING","CENTRAL"
"Z3.5.B.03","12+ years",2099,1251,59.6,465,22.2,64,10.7,"VIKING","CENTRAL"
"Z3.5.B.03","20-39 years",505,208,41.2,31,6.1,52.1,4.1,"VIKING","CENTRAL"
"Z3.5.B.03","40-59 years",585,345,59,45,7.7,67,5.8,"VIKING","CENTRAL"
"Z3.5.B.03","60-74 years",514,375,73,170,33.1,80.5,13.5,"VIKING","CENTRAL"
"Z3.5.B.03","75+ years",285,237,83,216,75.7,86,73.9,"VIKING","CENTRAL"
"Z3.5.B.03","ALL years",2385,1251,52.5,465,19.5,54.5,9.1,"VIKING","CENTRAL"
"Z3.5.B.04","12-19 years",806,343,42.6,9,1.1,47.7,0.5,"FLAGSTAFF COUNTY","CENTRAL"
"Z3.5.B.04","12+ years",7365,4494,61,967,13.1,64,10.7,"FLAGSTAFF COUNTY","CENTRAL"
"Z3.5.B.04","20-39 years",1817,729,40.1,65,3.6,52.1,4.1,"FLAGSTAFF COUNTY","CENTRAL"
"Z3.5.B.04","40-59 years",2106,1265,60.1,122,5.8,67,5.8,"FLAGSTAFF COUNTY","CENTRAL"
"Z3.5.B.04","60-74 years",1795,1423,79.3,176,9.8,80.5,13.5,"FLAGSTAFF COUNTY","CENTRAL"
"Z3.5.B.04","75+ years",840,722,85.9,595,70.8,86,73.9,"FLAGSTAFF COUNTY","CENTRAL"
"Z3.5.B.04","ALL years",8424,4494,53.3,967,11.5,54.5,9.1,"FLAGSTAFF COUNTY","CENTRAL"
"Z3.5.C.05","12-19 years",544,182,33.5,3,0.6,47.7,0.5,"MD OF PROVOST","CENTRAL"
"Z3.5.C.05","12+ years",4219,2037,48.3,396,9.4,64,10.7,"MD OF PROVOST","CENTRAL"
"Z3.5.C.05","20-39 years",1236,374,30.3,37,3,52.1,4.1,"MD OF PROVOST","CENTRAL"
"Z3.5.C.05","40-59 years",1256,586,46.7,56,4.5,67,5.8,"MD OF PROVOST","CENTRAL"
"Z3.5.C.05","60-74 years",806,574,71.2,65,8.1,80.5,13.5,"MD OF PROVOST","CENTRAL"
"Z3.5.C.05","75+ years",377,317,84,235,62.3,86,73.9,"MD OF PROVOST","CENTRAL"
"Z3.5.C.05","ALL years",4891,2037,41.6,396,8.1,54.5,9.1,"MD OF PROVOST","CENTRAL"
"Z3.5.C.06","12-19 years",1256,530,42.2,0,0,47.7,0.5,"MD OF WAINWRIGHT","CENTRAL"
"Z3.5.C.06","12+ years",10129,5814,57.4,908,9,64,10.7,"MD OF WAINWRIGHT","CENTRAL"
"Z3.5.C.06","20-39 years",3204,1402,43.8,97,3,52.1,4.1,"MD OF WAINWRIGHT","CENTRAL"
"Z3.5.C.06","40-59 years",2953,1737,58.8,123,4.2,67,5.8,"MD OF WAINWRIGHT","CENTRAL"
"Z3.5.C.06","60-74 years",1938,1454,75,139,7.2,80.5,13.5,"MD OF WAINWRIGHT","CENTRAL"
"Z3.5.C.06","75+ years",779,665,85.4,549,70.5,86,73.9,"MD OF WAINWRIGHT","CENTRAL"
"Z3.5.C.06","ALL years",12030,5814,48.3,908,7.5,54.5,9.1,"MD OF WAINWRIGHT","CENTRAL"
"Z3.6.A.01","12-19 years",508,218,42.9,2,0.4,47.7,0.5,"LAMONT COUNTY","CENTRAL"
"Z3.6.A.01","12+ years",5563,3208,57.7,795,14.3,64,10.7,"LAMONT COUNTY","CENTRAL"
"Z3.6.A.01","20-39 years",1485,525,35.3,52,3.5,52.1,4.1,"LAMONT COUNTY","CENTRAL"
"Z3.6.A.01","40-59 years",1564,886,56.6,87,5.6,67,5.8,"LAMONT COUNTY","CENTRAL"
"Z3.6.A.01","60-74 years",1409,1052,74.7,206,14.6,80.5,13.5,"LAMONT COUNTY","CENTRAL"
"Z3.6.A.01","75+ years",597,520,87.1,448,75.1,86,73.9,"LAMONT COUNTY","CENTRAL"
"Z3.6.A.01","ALL years",6427,3208,49.9,795,12.4,54.5,9.1,"LAMONT COUNTY","CENTRAL"
"Z3.6.A.02","12-19 years",736,64,8.7,1,0.1,47.7,0.5,"TWO HILLS COUNTY","CENTRAL"
"Z3.6.A.02","12+ years",4459,1619,36.3,714,16,64,10.7,"TWO HILLS COUNTY","CENTRAL"
"Z3.6.A.02","20-39 years",1380,211,15.3,35,2.5,52.1,4.1,"TWO HILLS COUNTY","CENTRAL"
"Z3.6.A.02","40-59 years",1106,396,35.8,72,6.5,67,5.8,"TWO HILLS COUNTY","CENTRAL"
"Z3.6.A.02","60-74 years",801,583,72.7,288,35.9,80.5,13.5,"TWO HILLS COUNTY","CENTRAL"
"Z3.6.A.02","75+ years",435,362,83.3,318,73.1,86,73.9,"TWO HILLS COUNTY","CENTRAL"
"Z3.6.A.02","ALL years",5608,1619,28.9,714,12.7,54.5,9.1,"TWO HILLS COUNTY","CENTRAL"
"Z3.6.A.03","12-19 years",939,380,40.5,7,0.7,47.7,0.5,"VEGREVILLE/MINBURN COUNTY","CENTRAL"
"Z3.6.A.03","12+ years",9028,5598,62,1604,17.8,64,10.7,"VEGREVILLE/MINBURN COUNTY","CENTRAL"
"Z3.6.A.03","20-39 years",2342,992,42.4,99,4.2,52.1,4.1,"VEGREVILLE/MINBURN COUNTY","CENTRAL"
"Z3.6.A.03","40-59 years",2594,1627,62.7,206,7.9,67,5.8,"VEGREVILLE/MINBURN COUNTY","CENTRAL"
"Z3.6.A.03","60-74 years",2003,1576,78.7,490,24.5,80.5,13.5,"VEGREVILLE/MINBURN COUNTY","CENTRAL"
"Z3.6.A.03","75+ years",1150,1006,87.5,802,69.7,86,73.9,"VEGREVILLE/MINBURN COUNTY","CENTRAL"
"Z3.6.A.03","ALL years",10314,5598,54.3,1604,15.6,54.5,9.1,"VEGREVILLE/MINBURN COUNTY","CENTRAL"
"Z3.6.B.04","12-19 years",3955,923,23.3,2,0.1,47.7,0.5,"VERMILION RIVER COUNTY","CENTRAL"
"Z3.6.B.04","12+ years",31346,9584,30.6,1675,5.3,64,10.7,"VERMILION RIVER COUNTY","CENTRAL"
"Z3.6.B.04","20-39 years",10018,2243,22.4,125,1.2,52.1,4.1,"VERMILION RIVER COUNTY","CENTRAL"
"Z3.6.B.04","40-59 years",9494,2278,24,159,1.7,67,5.8,"VERMILION RIVER COUNTY","CENTRAL"
"Z3.6.B.04","60-74 years",5524,2633,47.7,451,8.2,80.5,13.5,"VERMILION RIVER COUNTY","CENTRAL"
"Z3.6.B.04","75+ years",2355,1465,62.2,938,39.8,86,73.9,"VERMILION RIVER COUNTY","CENTRAL"
"Z3.6.B.04","ALL years",36913,9584,26,1675,4.5,54.5,9.1,"VERMILION RIVER COUNTY","CENTRAL"
"Z3.7.A.01","12-19 years",3526,1406,39.9,15,0.4,47.7,0.5,"RED DEER - NORTH","CENTRAL"
"Z3.7.A.01","12+ years",30242,16763,55.4,3119,10.3,64,10.7,"RED DEER - NORTH","CENTRAL"
"Z3.7.A.01","20-39 years",10995,4443,40.4,386,3.5,52.1,4.1,"RED DEER - NORTH","CENTRAL"
"Z3.7.A.01","40-59 years",9039,5458,60.4,599,6.6,67,5.8,"RED DEER - NORTH","CENTRAL"
"Z3.7.A.01","60-74 years",4945,3868,78.2,810,16.4,80.5,13.5,"RED DEER - NORTH","CENTRAL"
"Z3.7.A.01","75+ years",1736,1523,87.7,1309,75.4,86,73.9,"RED DEER - NORTH","CENTRAL"
"Z3.7.A.01","ALL years",35527,16763,47.2,3119,8.8,54.5,9.1,"RED DEER - NORTH","CENTRAL"
"Z3.7.B.02","12-19 years",1042,381,36.6,2,0.2,47.7,0.5,"RED DEER - SW","CENTRAL"
"Z3.7.B.02","12+ years",13945,7507,53.8,1500,10.8,64,10.7,"RED DEER - SW","CENTRAL"
"Z3.7.B.02","20-39 years",4840,1950,40.3,173,3.6,52.1,4.1,"RED DEER - SW","CENTRAL"
"Z3.7.B.02","40-59 years",4125,2209,53.6,193,4.7,67,5.8,"RED DEER - SW","CENTRAL"
"Z3.7.B.02","60-74 years",2684,1959,73,355,13.2,80.5,13.5,"RED DEER - SW","CENTRAL"
"Z3.7.B.02","75+ years",1253,997,79.5,777,62,86,73.9,"RED DEER - SW","CENTRAL"
"Z3.7.B.02","ALL years",15728,7507,47.7,1500,9.5,54.5,9.1,"RED DEER - SW","CENTRAL"
"Z3.7.C.03","12-19 years",5734,2879,50.2,38,0.7,47.7,0.5,"RED DEER - EAST","CENTRAL"
"Z3.7.C.03","12+ years",47486,29928,63,5911,12.4,64,10.7,"RED DEER - EAST","CENTRAL"
"Z3.7.C.03","20-39 years",15630,7717,49.4,919,5.9,52.1,4.1,"RED DEER - EAST","CENTRAL"
"Z3.7.C.03","40-59 years",14810,9766,65.9,1174,7.9,67,5.8,"RED DEER - EAST","CENTRAL"
"Z3.7.C.03","60-74 years",8147,6686,82.1,1496,18.4,80.5,13.5,"RED DEER - EAST","CENTRAL"
"Z3.7.C.03","75+ years",3166,2745,86.7,2284,72.2,86,73.9,"RED DEER - EAST","CENTRAL"
"Z3.7.C.03","ALL years",55457,29928,54,5911,10.7,54.5,9.1,"RED DEER - EAST","CENTRAL"
"Z4.1.A.01","12-19 years",3211,1450,45.2,8,0.2,47.7,0.5,"EDMONTON - WOODCROFT EAST","EDMONTON"
"Z4.1.A.01","12+ years",54456,33654,61.8,5861,10.8,64,10.7,"EDMONTON - WOODCROFT EAST","EDMONTON"
"Z4.1.A.01","20-39 years",22826,11903,52.1,999,4.4,52.1,4.1,"EDMONTON - WOODCROFT EAST","EDMONTON"
"Z4.1.A.01","40-59 years",15891,10078,63.4,794,5,67,5.8,"EDMONTON - WOODCROFT EAST","EDMONTON"
"Z4.1.A.01","60-74 years",8756,6910,78.9,1280,14.6,80.5,13.5,"EDMONTON - WOODCROFT EAST","EDMONTON"
"Z4.1.A.01","75+ years",3772,3250,86.2,2780,73.7,86,73.9,"EDMONTON - WOODCROFT EAST","EDMONTON"
"Z4.1.A.01","ALL years",60961,33654,55.2,5861,9.6,54.5,9.1,"EDMONTON - WOODCROFT EAST","EDMONTON"
"Z4.1.B.02","12-19 years",2575,1479,57.4,21,0.8,47.7,0.5,"EDMONTON - WOODCROFT WEST","EDMONTON"
"Z4.1.B.02","12+ years",28498,19564,68.7,3195,11.2,64,10.7,"EDMONTON - WOODCROFT WEST","EDMONTON"
"Z4.1.B.02","20-39 years",10005,5830,58.3,571,5.7,52.1,4.1,"EDMONTON - WOODCROFT WEST","EDMONTON"
"Z4.1.B.02","40-59 years",8882,6330,71.3,544,6.1,67,5.8,"EDMONTON - WOODCROFT WEST","EDMONTON"
"Z4.1.B.02","60-74 years",5169,4182,80.9,626,12.1,80.5,13.5,"EDMONTON - WOODCROFT WEST","EDMONTON"
"Z4.1.B.02","75+ years",1867,1671,89.5,1433,76.8,86,73.9,"EDMONTON - WOODCROFT WEST","EDMONTON"
"Z4.1.B.02","ALL years",33412,19564,58.6,3195,9.6,54.5,9.1,"EDMONTON - WOODCROFT WEST","EDMONTON"
"Z4.1.C.03","12-19 years",3971,1946,49,11,0.3,47.7,0.5,"EDMONTON - JASPER PLACE","EDMONTON"
"Z4.1.C.03","12+ years",41091,25815,62.8,4980,12.1,64,10.7,"EDMONTON - JASPER PLACE","EDMONTON"
"Z4.1.C.03","20-39 years",13813,6965,50.4,541,3.9,52.1,4.1,"EDMONTON - JASPER PLACE","EDMONTON"
"Z4.1.C.03","40-59 years",12382,8086,65.3,691,5.6,67,5.8,"EDMONTON - JASPER PLACE","EDMONTON"
"Z4.1.C.03","60-74 years",7061,5500,77.9,915,13,80.5,13.5,"EDMONTON - JASPER PLACE","EDMONTON"
"Z4.1.C.03","75+ years",3864,3236,83.7,2822,73,86,73.9,"EDMONTON - JASPER PLACE","EDMONTON"
"Z4.1.C.03","ALL years",47017,25815,54.9,4980,10.6,54.5,9.1,"EDMONTON - JASPER PLACE","EDMONTON"
"Z4.1.D.04","12-19 years",10087,6234,61.8,54,0.5,47.7,0.5,"EDMONTON - WEST JASPER PLACE","EDMONTON"
"Z4.1.D.04","12+ years",89097,66406,74.5,11251,12.6,64,10.7,"EDMONTON - WEST JASPER PLACE","EDMONTON"
"Z4.1.D.04","20-39 years",30189,19809,65.6,2011,6.7,52.1,4.1,"EDMONTON - WEST JASPER PLACE","EDMONTON"
"Z4.1.D.04","40-59 years",28265,21867,77.4,2359,8.3,67,5.8,"EDMONTON - WEST JASPER PLACE","EDMONTON"
"Z4.1.D.04","60-74 years",15334,13404,87.4,2653,17.3,80.5,13.5,"EDMONTON - WEST JASPER PLACE","EDMONTON"
"Z4.1.D.04","75+ years",5222,4734,90.7,4174,79.9,86,73.9,"EDMONTON - WEST JASPER PLACE","EDMONTON"
"Z4.1.D.04","ALL years",105899,66406,62.7,11251,10.6,54.5,9.1,"EDMONTON - WEST JASPER PLACE","EDMONTON"
"Z4.2.A.01","12-19 years",7507,3652,48.6,35,0.5,47.7,0.5,"EDMONTON - CASTLE DOWNS","EDMONTON"
"Z4.2.A.01","12+ years",60404,39806,65.9,6482,10.7,64,10.7,"EDMONTON - CASTLE DOWNS","EDMONTON"
"Z4.2.A.01","20-39 years",21000,11436,54.5,990,4.7,52.1,4.1,"EDMONTON - CASTLE DOWNS","EDMONTON"
"Z4.2.A.01","40-59 years",18520,12934,69.8,1272,6.9,67,5.8,"EDMONTON - CASTLE DOWNS","EDMONTON"
"Z4.2.A.01","60-74 years",9725,8332,85.7,1346,13.8,80.5,13.5,"EDMONTON - CASTLE DOWNS","EDMONTON"
"Z4.2.A.01","75+ years",3652,3298,90.3,2839,77.7,86,73.9,"EDMONTON - CASTLE DOWNS","EDMONTON"
"Z4.2.A.01","ALL years",72888,39806,54.6,6482,8.9,54.5,9.1,"EDMONTON - CASTLE DOWNS","EDMONTON"
"Z4.2.B.02","12-19 years",8007,3527,44,33,0.4,47.7,0.5,"EDMONTON - NORTHGATE","EDMONTON"
"Z4.2.B.02","12+ years",71248,45105,63.3,8403,11.8,64,10.7,"EDMONTON - NORTHGATE","EDMONTON"
"Z4.2.B.02","20-39 years",24147,11974,49.6,959,4,52.1,4.1,"EDMONTON - NORTHGATE","EDMONTON"
"Z4.2.B.02","40-59 years",20985,14230,67.8,1162,5.5,67,5.8,"EDMONTON - NORTHGATE","EDMONTON"
"Z4.2.B.02","60-74 years",11806,9843,83.4,1544,13.1,80.5,13.5,"EDMONTON - NORTHGATE","EDMONTON"
"Z4.2.B.02","75+ years",6303,5396,85.6,4705,74.7,86,73.9,"EDMONTON - NORTHGATE","EDMONTON"
"Z4.2.B.02","ALL years",83649,45105,53.9,8403,10,54.5,9.1,"EDMONTON - NORTHGATE","EDMONTON"
"Z4.2.C.03","12-19 years",4307,1703,39.5,13,0.3,47.7,0.5,"EDMONTON - EASTWOOD","EDMONTON"
"Z4.2.C.03","12+ years",65046,37315,57.4,5473,8.4,64,10.7,"EDMONTON - EASTWOOD","EDMONTON"
"Z4.2.C.03","20-39 years",26510,12472,47,906,3.4,52.1,4.1,"EDMONTON - EASTWOOD","EDMONTON"
"Z4.2.C.03","40-59 years",19970,11960,59.9,863,4.3,67,5.8,"EDMONTON - EASTWOOD","EDMONTON"
"Z4.2.C.03","60-74 years",10711,8211,76.7,1361,12.7,80.5,13.5,"EDMONTON - EASTWOOD","EDMONTON"
"Z4.2.C.03","75+ years",3548,2912,82.1,2330,65.7,86,73.9,"EDMONTON - EASTWOOD","EDMONTON"
"Z4.2.C.03","ALL years",72146,37315,51.7,5473,7.6,54.5,9.1,"EDMONTON - EASTWOOD","EDMONTON"
"Z4.2.D.04","12-19 years",1448,510,35.2,5,0.3,47.7,0.5,"EDMONTON - ABBOTTSFIELD","EDMONTON"
"Z4.2.D.04","12+ years",12293,6803,55.3,1111,9,64,10.7,"EDMONTON - ABBOTTSFIELD","EDMONTON"
"Z4.2.D.04","20-39 years",4154,1616,38.9,95,2.3,52.1,4.1,"EDMONTON - ABBOTTSFIELD","EDMONTON"
"Z4.2.D.04","40-59 years",3716,2233,60.1,134,3.6,67,5.8,"EDMONTON - ABBOTTSFIELD","EDMONTON"
"Z4.2.D.04","60-74 years",2072,1651,79.7,187,9,80.5,13.5,"EDMONTON - ABBOTTSFIELD","EDMONTON"
"Z4.2.D.04","75+ years",904,780,86.3,690,76.4,86,73.9,"EDMONTON - ABBOTTSFIELD","EDMONTON"
"Z4.2.D.04","ALL years",14626,6803,46.5,1111,7.6,54.5,9.1,"EDMONTON - ABBOTTSFIELD","EDMONTON"
"Z4.2.E.05","12-19 years",8598,3595,41.8,25,0.3,47.7,0.5,"EDMONTON - NE","EDMONTON"
"Z4.2.E.05","12+ years",76550,46521,60.8,6346,8.3,64,10.7,"EDMONTON - NE","EDMONTON"
"Z4.2.E.05","20-39 years",29610,14323,48.4,1047,3.5,52.1,4.1,"EDMONTON - NE","EDMONTON"
"Z4.2.E.05","40-59 years",22717,15384,67.7,1205,5.3,67,5.8,"EDMONTON - NE","EDMONTON"
"Z4.2.E.05","60-74 years",11802,9815,83.2,1335,11.3,80.5,13.5,"EDMONTON - NE","EDMONTON"
"Z4.2.E.05","75+ years",3822,3238,84.7,2734,71.5,86,73.9,"EDMONTON - NE","EDMONTON"
"Z4.2.E.05","ALL years",92441,46521,50.3,6346,6.9,54.5,9.1,"EDMONTON - NE","EDMONTON"
"Z4.3.A.01","12-19 years",6408,3605,56.3,34,0.5,47.7,0.5,"EDMONTON - BONNIE DOON","EDMONTON"
"Z4.3.A.01","12+ years",87212,62030,71.1,10536,12.1,64,10.7,"EDMONTON - BONNIE DOON","EDMONTON"
"Z4.3.A.01","20-39 years",36077,22682,62.9,1942,5.4,52.1,4.1,"EDMONTON - BONNIE DOON","EDMONTON"
"Z4.3.A.01","40-59 years",23324,17161,73.6,1446,6.2,67,5.8,"EDMONTON - BONNIE DOON","EDMONTON"
"Z4.3.A.01","60-74 years",14526,12391,85.3,1920,13.2,80.5,13.5,"EDMONTON - BONNIE DOON","EDMONTON"
"Z4.3.A.01","75+ years",6878,6005,87.3,5193,75.5,86,73.9,"EDMONTON - BONNIE DOON","EDMONTON"
"Z4.3.A.01","ALL years",96846,62030,64,10536,10.9,54.5,9.1,"EDMONTON - BONNIE DOON","EDMONTON"
"Z4.3.B.02","12-19 years",5166,2481,48,15,0.3,47.7,0.5,"EDMONTON - MILL WOODS WEST","EDMONTON"
"Z4.3.B.02","12+ years",43800,28619,65.3,4226,9.6,64,10.7,"EDMONTON - MILL WOODS WEST","EDMONTON"
"Z4.3.B.02","20-39 years",15647,8171,52.2,492,3.1,52.1,4.1,"EDMONTON - MILL WOODS WEST","EDMONTON"
"Z4.3.B.02","40-59 years",12266,8780,71.6,618,5,67,5.8,"EDMONTON - MILL WOODS WEST","EDMONTON"
"Z4.3.B.02","60-74 years",7650,6536,85.4,893,11.7,80.5,13.5,"EDMONTON - MILL WOODS WEST","EDMONTON"
"Z4.3.B.02","75+ years",3071,2552,83.1,2208,71.9,86,73.9,"EDMONTON - MILL WOODS WEST","EDMONTON"
"Z4.3.B.02","ALL years",51075,28619,56,4226,8.3,54.5,9.1,"EDMONTON - MILL WOODS WEST","EDMONTON"
"Z4.3.C.03","12-19 years",8519,4581,53.8,22,0.3,47.7,0.5,"EDMONTON - MILL WOODS SOUTH & EAST","EDMONTON"
"Z4.3.C.03","12+ years",73292,49687,67.8,5241,7.2,64,10.7,"EDMONTON - MILL WOODS SOUTH & EAST","EDMONTON"
"Z4.3.C.03","20-39 years",30309,17486,57.7,1125,3.7,52.1,4.1,"EDMONTON - MILL WOODS SOUTH & EAST","EDMONTON"
"Z4.3.C.03","40-59 years",21108,15828,75,1223,5.8,67,5.8,"EDMONTON - MILL WOODS SOUTH & EAST","EDMONTON"
"Z4.3.C.03","60-74 years",10657,9297,87.2,1082,10.2,80.5,13.5,"EDMONTON - MILL WOODS SOUTH & EAST","EDMONTON"
"Z4.3.C.03","75+ years",2699,2295,85,1789,66.3,86,73.9,"EDMONTON - MILL WOODS SOUTH & EAST","EDMONTON"
"Z4.3.C.03","ALL years",87320,49687,56.9,5241,6,54.5,9.1,"EDMONTON - MILL WOODS SOUTH & EAST","EDMONTON"
"Z4.4.A.01","12-19 years",3555,1993,56.1,18,0.5,47.7,0.5,"EDMONTON - DUGGAN","EDMONTON"
"Z4.4.A.01","12+ years",34780,24587,70.7,4576,13.2,64,10.7,"EDMONTON - DUGGAN","EDMONTON"
"Z4.4.A.01","20-39 years",13169,8048,61.1,564,4.3,52.1,4.1,"EDMONTON - DUGGAN","EDMONTON"
"Z4.4.A.01","40-59 years",9691,7245,74.8,587,6.1,67,5.8,"EDMONTON - DUGGAN","EDMONTON"
"Z4.4.A.01","60-74 years",5017,4383,87.4,793,15.8,80.5,13.5,"EDMONTON - DUGGAN","EDMONTON"
"Z4.4.A.01","75+ years",3348,2832,84.6,2614,78.1,86,73.9,"EDMONTON - DUGGAN","EDMONTON"
"Z4.4.A.01","ALL years",39991,24587,61.5,4576,11.4,54.5,9.1,"EDMONTON - DUGGAN","EDMONTON"
"Z4.4.B.02","12-19 years",7692,5506,71.6,55,0.7,47.7,0.5,"EDMONTON - TWIN BROOKS","EDMONTON"
"Z4.4.B.02","12+ years",66530,51805,77.9,10517,15.8,64,10.7,"EDMONTON - TWIN BROOKS","EDMONTON"
"Z4.4.B.02","20-39 years",19619,13072,66.6,1243,6.3,52.1,4.1,"EDMONTON - TWIN BROOKS","EDMONTON"
"Z4.4.B.02","40-59 years",20634,16477,79.9,1879,9.1,67,5.8,"EDMONTON - TWIN BROOKS","EDMONTON"
"Z4.4.B.02","60-74 years",12898,11220,87,2523,19.6,80.5,13.5,"EDMONTON - TWIN BROOKS","EDMONTON"
"Z4.4.B.02","75+ years",5687,5209,91.6,4816,84.7,86,73.9,"EDMONTON - TWIN BROOKS","EDMONTON"
"Z4.4.B.02","ALL years",76379,51805,67.8,10517,13.8,54.5,9.1,"EDMONTON - TWIN BROOKS","EDMONTON"
"Z4.4.C.03","12-19 years",10367,6043,58.3,52,0.5,47.7,0.5,"EDMONTON - RUTHERFORD","EDMONTON"
"Z4.4.C.03","12+ years",95709,66220,69.2,8185,8.6,64,10.7,"EDMONTON - RUTHERFORD","EDMONTON"
"Z4.4.C.03","20-39 years",43114,27227,63.2,2563,5.9,52.1,4.1,"EDMONTON - RUTHERFORD","EDMONTON"
"Z4.4.C.03","40-59 years",29525,21901,74.2,2243,7.6,67,5.8,"EDMONTON - RUTHERFORD","EDMONTON"
"Z4.4.C.03","60-74 years",10000,8303,83,1317,13.2,80.5,13.5,"EDMONTON - RUTHERFORD","EDMONTON"
"Z4.4.C.03","75+ years",2703,2359,87.3,2008,74.3,86,73.9,"EDMONTON - RUTHERFORD","EDMONTON"
"Z4.4.C.03","ALL years",121276,66220,54.6,8185,6.7,54.5,9.1,"EDMONTON - RUTHERFORD","EDMONTON"
"Z4.5.A.01","12-19 years",3274,1515,46.3,16,0.5,47.7,0.5,"STURGEON COUNTY WEST","EDMONTON"
"Z4.5.A.01","12+ years",25265,15541,61.5,2510,9.9,64,10.7,"STURGEON COUNTY WEST","EDMONTON"
"Z4.5.A.01","20-39 years",7904,3733,47.2,308,3.9,52.1,4.1,"STURGEON COUNTY WEST","EDMONTON"
"Z4.5.A.01","40-59 years",7824,5195,66.4,432,5.5,67,5.8,"STURGEON COUNTY WEST","EDMONTON"
"Z4.5.A.01","60-74 years",4898,3818,77.9,720,14.7,80.5,13.5,"STURGEON COUNTY WEST","EDMONTON"
"Z4.5.A.01","75+ years",1364,1211,88.8,1034,75.8,86,73.9,"STURGEON COUNTY WEST","EDMONTON"
"Z4.5.A.01","ALL years",30338,15541,51.2,2510,8.3,54.5,9.1,"STURGEON COUNTY WEST","EDMONTON"
"Z4.5.B.02","12-19 years",700,282,40.3,4,0.6,47.7,0.5,"STURGEON COUNTY EAST","EDMONTON"
"Z4.5.B.02","12+ years",5283,3187,60.3,398,7.5,64,10.7,"STURGEON COUNTY EAST","EDMONTON"
"Z4.5.B.02","20-39 years",1561,725,46.4,50,3.2,52.1,4.1,"STURGEON COUNTY EAST","EDMONTON"
"Z4.5.B.02","40-59 years",1775,1119,63,77,4.3,67,5.8,"STURGEON COUNTY EAST","EDMONTON"
"Z4.5.B.02","60-74 years",971,799,82.3,72,7.4,80.5,13.5,"STURGEON COUNTY EAST","EDMONTON"
"Z4.5.B.02","75+ years",275,241,87.5,195,70.8,86,73.9,"STURGEON COUNTY EAST","EDMONTON"
"Z4.5.B.02","ALL years",6165,3187,51.7,398,6.5,54.5,9.1,"STURGEON COUNTY EAST","EDMONTON"
"Z4.5.B.03","12-19 years",2518,1182,46.9,2,0.1,47.7,0.5,"FORT SASKATCHEWAN","EDMONTON"
"Z4.5.B.03","12+ years",22821,14375,63,2104,9.2,64,10.7,"FORT SASKATCHEWAN","EDMONTON"
"Z4.5.B.03","20-39 years",8454,4252,50.3,267,3.2,52.1,4.1,"FORT SASKATCHEWAN","EDMONTON"
"Z4.5.B.03","40-59 years",6752,4503,66.7,312,4.6,67,5.8,"FORT SASKATCHEWAN","EDMONTON"
"Z4.5.B.03","60-74 years",3718,3089,83.1,403,10.8,80.5,13.5,"FORT SASKATCHEWAN","EDMONTON"
"Z4.5.B.03","75+ years",1380,1288,93.4,1120,81.2,86,73.9,"FORT SASKATCHEWAN","EDMONTON"
"Z4.5.B.03","ALL years",27437,14375,52.4,2104,7.7,54.5,9.1,"FORT SASKATCHEWAN","EDMONTON"
"Z4.6.A.01","12-19 years",8684,5233,60.3,54,0.6,47.7,0.5,"SHERWOOD PARK","EDMONTON"
"Z4.6.A.01","12+ years",71962,53975,75,9831,13.7,64,10.7,"SHERWOOD PARK","EDMONTON"
"Z4.6.A.01","20-39 years",20531,13014,63.4,1057,5.1,52.1,4.1,"SHERWOOD PARK","EDMONTON"
"Z4.6.A.01","40-59 years",22884,17708,77.4,1405,6.1,67,5.8,"SHERWOOD PARK","EDMONTON"
"Z4.6.A.01","60-74 years",13855,12185,87.9,2127,15.4,80.5,13.5,"SHERWOOD PARK","EDMONTON"
"Z4.6.A.01","75+ years",6008,5553,92.4,5188,86.4,86,73.9,"SHERWOOD PARK","EDMONTON"
"Z4.6.A.01","ALL years",82764,53975,65.2,9831,11.9,54.5,9.1,"SHERWOOD PARK","EDMONTON"
"Z4.6.B.02","12-19 years",1792,864,48.2,10,0.6,47.7,0.5,"STRATHCONA COUNTY EXCLUDING SHERWOOD PARK","EDMONTON"
"Z4.6.B.02","12+ years",15470,10262,66.3,1480,9.6,64,10.7,"STRATHCONA COUNTY EXCLUDING SHERWOOD PARK","EDMONTON"
"Z4.6.B.02","20-39 years",4048,2127,52.5,179,4.4,52.1,4.1,"STRATHCONA COUNTY EXCLUDING SHERWOOD PARK","EDMONTON"
"Z4.6.B.02","40-59 years",5056,3477,68.8,238,4.7,67,5.8,"STRATHCONA COUNTY EXCLUDING SHERWOOD PARK","EDMONTON"
"Z4.6.B.02","60-74 years",3684,3000,81.4,401,10.9,80.5,13.5,"STRATHCONA COUNTY EXCLUDING SHERWOOD PARK","EDMONTON"
"Z4.6.B.02","75+ years",890,755,84.8,652,73.3,86,73.9,"STRATHCONA COUNTY EXCLUDING SHERWOOD PARK","EDMONTON"
"Z4.6.B.02","ALL years",17456,10262,58.8,1480,8.5,54.5,9.1,"STRATHCONA COUNTY EXCLUDING SHERWOOD PARK","EDMONTON"
"Z4.7.A.01","12-19 years",2927,1499,51.2,7,0.2,47.7,0.5,"BEAUMONT","EDMONTON"
"Z4.7.A.01","12+ years",21593,14308,66.3,1678,7.8,64,10.7,"BEAUMONT","EDMONTON"
"Z4.7.A.01","20-39 years",7019,3931,56,285,4.1,52.1,4.1,"BEAUMONT","EDMONTON"
"Z4.7.A.01","40-59 years",7153,5006,70,314,4.4,67,5.8,"BEAUMONT","EDMONTON"
"Z4.7.A.01","60-74 years",3649,3032,83.1,449,12.3,80.5,13.5,"BEAUMONT","EDMONTON"
"Z4.7.A.01","75+ years",845,736,87.1,623,73.7,86,73.9,"BEAUMONT","EDMONTON"
"Z4.7.A.01","ALL years",26562,14308,53.9,1678,6.3,54.5,9.1,"BEAUMONT","EDMONTON"
"Z4.7.A.02","12-19 years",4242,1864,43.9,9,0.2,47.7,0.5,"LEDUC & DEVON","EDMONTON"
"Z4.7.A.02","12+ years",36462,22512,61.7,3618,9.9,64,10.7,"LEDUC & DEVON","EDMONTON"
"Z4.7.A.02","20-39 years",12378,5888,47.6,426,3.4,52.1,4.1,"LEDUC & DEVON","EDMONTON"
"Z4.7.A.02","40-59 years",11145,7248,65,483,4.3,67,5.8,"LEDUC & DEVON","EDMONTON"
"Z4.7.A.02","60-74 years",6224,5184,83.3,818,13.1,80.5,13.5,"LEDUC & DEVON","EDMONTON"
"Z4.7.A.02","75+ years",2473,2211,89.4,1882,76.1,86,73.9,"LEDUC & DEVON","EDMONTON"
"Z4.7.A.02","ALL years",43727,22512,51.5,3618,8.3,54.5,9.1,"LEDUC & DEVON","EDMONTON"
"Z4.7.A.03","12-19 years",816,236,28.9,4,0.5,47.7,0.5,"THORSBY","EDMONTON"
"Z4.7.A.03","12+ years",7928,4133,52.1,630,7.9,64,10.7,"THORSBY","EDMONTON"
"Z4.7.A.03","20-39 years",2166,752,34.7,39,1.8,52.1,4.1,"THORSBY","EDMONTON"
"Z4.7.A.03","40-59 years",2460,1257,51.1,73,3,67,5.8,"THORSBY","EDMONTON"
"Z4.7.A.03","60-74 years",1870,1366,73.1,151,8.1,80.5,13.5,"THORSBY","EDMONTON"
"Z4.7.A.03","75+ years",616,515,83.6,363,58.9,86,73.9,"THORSBY","EDMONTON"
"Z4.7.A.03","ALL years",9168,4133,45.1,630,6.9,54.5,9.1,"THORSBY","EDMONTON"
"Z4.8.A.01","12-19 years",5778,2710,46.9,19,0.3,47.7,0.5,"STONY PLAIN & SPRUCE GROVE","EDMONTON"
"Z4.8.A.01","12+ years",48402,31032,64.1,5501,11.4,64,10.7,"STONY PLAIN & SPRUCE GROVE","EDMONTON"
"Z4.8.A.01","20-39 years",16423,8147,49.6,660,4,52.1,4.1,"STONY PLAIN & SPRUCE GROVE","EDMONTON"
"Z4.8.A.01","40-59 years",14423,9776,67.8,771,5.3,67,5.8,"STONY PLAIN & SPRUCE GROVE","EDMONTON"
"Z4.8.A.01","60-74 years",8330,7093,85.2,1215,14.6,80.5,13.5,"STONY PLAIN & SPRUCE GROVE","EDMONTON"
"Z4.8.A.01","75+ years",3448,3173,92,2836,82.2,86,73.9,"STONY PLAIN & SPRUCE GROVE","EDMONTON"
"Z4.8.A.01","ALL years",57619,31032,53.9,5501,9.5,54.5,9.1,"STONY PLAIN & SPRUCE GROVE","EDMONTON"
"Z4.8.B.02","12-19 years",4055,1389,34.3,5,0.1,47.7,0.5,"WESTVIEW EXCLUDING STONY PLAIN & SPRUCE GROVE","EDMONTON"
"Z4.8.B.02","12+ years",33286,17930,53.9,2981,9,64,10.7,"WESTVIEW EXCLUDING STONY PLAIN & SPRUCE GROVE","EDMONTON"
"Z4.8.B.02","20-39 years",8579,3228,37.6,237,2.8,52.1,4.1,"WESTVIEW EXCLUDING STONY PLAIN & SPRUCE GROVE","EDMONTON"
"Z4.8.B.02","40-59 years",10710,5967,55.7,432,4,67,5.8,"WESTVIEW EXCLUDING STONY PLAIN & SPRUCE GROVE","EDMONTON"
"Z4.8.B.02","60-74 years",7655,5488,71.7,875,11.4,80.5,13.5,"WESTVIEW EXCLUDING STONY PLAIN & SPRUCE GROVE","EDMONTON"
"Z4.8.B.02","75+ years",2287,1788,78.2,1432,62.6,86,73.9,"WESTVIEW EXCLUDING STONY PLAIN & SPRUCE GROVE","EDMONTON"
"Z4.8.B.02","ALL years",38491,17930,46.6,2981,7.7,54.5,9.1,"WESTVIEW EXCLUDING STONY PLAIN & SPRUCE GROVE","EDMONTON"
"Z4.9.A.01","12-19 years",7062,4526,64.1,56,0.8,47.7,0.5,"ST. ALBERT","EDMONTON"
"Z4.9.A.01","12+ years",60926,46890,77,9970,16.4,64,10.7,"ST. ALBERT","EDMONTON"
"Z4.9.A.01","20-39 years",17052,10965,64.3,1039,6.1,52.1,4.1,"ST. ALBERT","EDMONTON"
"Z4.9.A.01","40-59 years",18691,14849,79.4,1576,8.4,67,5.8,"ST. ALBERT","EDMONTON"
"Z4.9.A.01","60-74 years",12567,11170,88.9,2564,20.4,80.5,13.5,"ST. ALBERT","EDMONTON"
"Z4.9.A.01","75+ years",5555,5075,91.4,4735,85.2,86,73.9,"ST. ALBERT","EDMONTON"
"Z4.9.A.01","ALL years",70159,46890,66.8,9970,14.2,54.5,9.1,"ST. ALBERT","EDMONTON"
"Z5.1.A.01","12-19 years",337,209,62,0,0,47.7,0.5,"JASPER","NORTH"
"Z5.1.A.01","12+ years",5189,3264,62.9,318,6.1,64,10.7,"JASPER","NORTH"
"Z5.1.A.01","20-39 years",2424,1164,48,56,2.3,52.1,4.1,"JASPER","NORTH"
"Z5.1.A.01","40-59 years",1522,1116,73.3,65,4.3,67,5.8,"JASPER","NORTH"
"Z5.1.A.01","60-74 years",716,603,84.2,41,5.7,80.5,13.5,"JASPER","NORTH"
"Z5.1.A.01","75+ years",190,165,86.7,156,81.9,86,73.9,"JASPER","NORTH"
"Z5.1.A.01","ALL years",5718,3264,57.1,318,5.6,54.5,9.1,"JASPER","NORTH"
"Z5.1.A.02","12-19 years",1161,456,39.3,1,0.1,47.7,0.5,"HINTON","NORTH"
"Z5.1.A.02","12+ years",10596,6081,57.4,662,6.2,64,10.7,"HINTON","NORTH"
"Z5.1.A.02","20-39 years",3631,1610,44.3,103,2.8,52.1,4.1,"HINTON","NORTH"
"Z5.1.A.02","40-59 years",3288,2012,61.2,126,3.8,67,5.8,"HINTON","NORTH"
"Z5.1.A.02","60-74 years",1941,1488,76.7,99,5.1,80.5,13.5,"HINTON","NORTH"
"Z5.1.A.02","75+ years",576,499,86.6,333,57.8,86,73.9,"HINTON","NORTH"
"Z5.1.A.02","ALL years",12354,6081,49.2,662,5.4,54.5,9.1,"HINTON","NORTH"
"Z5.1.A.03","12-19 years",1620,524,32.3,6,0.4,47.7,0.5,"EDSON","NORTH"
"Z5.1.A.03","12+ years",13777,7185,52.2,1015,7.4,64,10.7,"EDSON","NORTH"
"Z5.1.A.03","20-39 years",4437,1656,37.3,118,2.7,52.1,4.1,"EDSON","NORTH"
"Z5.1.A.03","40-59 years",4339,2374,54.7,159,3.7,67,5.8,"EDSON","NORTH"
"Z5.1.A.03","60-74 years",2565,1953,76.1,234,9.1,80.5,13.5,"EDSON","NORTH"
"Z5.1.A.03","75+ years",816,664,81.4,498,61,86,73.9,"EDSON","NORTH"
"Z5.1.A.03","ALL years",16076,7185,44.7,1015,6.3,54.5,9.1,"EDSON","NORTH"
"Z5.1.B.04","12-19 years",1606,538,33.5,4,0.2,47.7,0.5,"WHITECOURT","NORTH"
"Z5.1.B.04","12+ years",12435,6124,49.2,668,5.4,64,10.7,"WHITECOURT","NORTH"
"Z5.1.B.04","20-39 years",4227,1482,35.1,79,1.9,52.1,4.1,"WHITECOURT","NORTH"
"Z5.1.B.04","40-59 years",4202,2285,54.4,112,2.7,67,5.8,"WHITECOURT","NORTH"
"Z5.1.B.04","60-74 years",1938,1399,72.2,142,7.3,80.5,13.5,"WHITECOURT","NORTH"
"Z5.1.B.04","75+ years",463,390,84.2,331,71.5,86,73.9,"WHITECOURT","NORTH"
"Z5.1.B.04","ALL years",14757,6124,41.5,668,4.5,54.5,9.1,"WHITECOURT","NORTH"
"Z5.1.B.05","12-19 years",1446,424,29.3,12,0.8,47.7,0.5,"MAYERTHORPE","NORTH"
"Z5.1.B.05","12+ years",14158,7396,52.2,1612,11.4,64,10.7,"MAYERTHORPE","NORTH"
"Z5.1.B.05","20-39 years",3558,1185,33.3,169,4.7,52.1,4.1,"MAYERTHORPE","NORTH"
"Z5.1.B.05","40-59 years",4434,2190,49.4,248,5.6,67,5.8,"MAYERTHORPE","NORTH"
"Z5.1.B.05","60-74 years",3468,2611,75.3,387,11.2,80.5,13.5,"MAYERTHORPE","NORTH"
"Z5.1.B.05","75+ years",1252,967,77.2,796,63.6,86,73.9,"MAYERTHORPE","NORTH"
"Z5.1.B.05","ALL years",16160,7396,45.8,1612,10,54.5,9.1,"MAYERTHORPE","NORTH"
"Z5.1.C.06","12-19 years",1106,295,26.7,11,1,47.7,0.5,"BARRHEAD","NORTH"
"Z5.1.C.06","12+ years",9335,4963,53.2,1255,13.4,64,10.7,"BARRHEAD","NORTH"
"Z5.1.C.06","20-39 years",2588,815,31.5,89,3.4,52.1,4.1,"BARRHEAD","NORTH"
"Z5.1.C.06","40-59 years",2469,1325,53.7,123,5,67,5.8,"BARRHEAD","NORTH"
"Z5.1.C.06","60-74 years",2082,1593,76.5,262,12.6,80.5,13.5,"BARRHEAD","NORTH"
"Z5.1.C.06","75+ years",1090,922,84.6,770,70.6,86,73.9,"BARRHEAD","NORTH"
"Z5.1.C.06","ALL years",10988,4963,45.2,1255,11.4,54.5,9.1,"BARRHEAD","NORTH"
"Z5.1.C.07","12-19 years",1872,593,31.7,14,0.7,47.7,0.5,"WESTLOCK","NORTH"
"Z5.1.C.07","12+ years",16850,9693,57.5,2233,13.3,64,10.7,"WESTLOCK","NORTH"
"Z5.1.C.07","20-39 years",4392,1691,38.5,165,3.8,52.1,4.1,"WESTLOCK","NORTH"
"Z5.1.C.07","40-59 years",4731,2672,56.5,214,4.5,67,5.8,"WESTLOCK","NORTH"
"Z5.1.C.07","60-74 years",3987,3081,77.3,491,12.3,80.5,13.5,"WESTLOCK","NORTH"
"Z5.1.C.07","75+ years",1868,1623,86.9,1349,72.2,86,73.9,"WESTLOCK","NORTH"
"Z5.1.C.07","ALL years",19131,9693,50.7,2233,11.7,54.5,9.1,"WESTLOCK","NORTH"
"Z5.2.A.01","12-19 years",620,121,19.5,4,0.6,47.7,0.5,"FROG LAKE","NORTH"
"Z5.2.A.01","12+ years",4030,1604,39.8,518,12.9,64,10.7,"FROG LAKE","NORTH"
"Z5.2.A.01","20-39 years",1267,332,26.2,47,3.7,52.1,4.1,"FROG LAKE","NORTH"
"Z5.2.A.01","40-59 years",1214,484,39.9,75,6.2,67,5.8,"FROG LAKE","NORTH"
"Z5.2.A.01","60-74 years",632,415,65.7,181,28.7,80.5,13.5,"FROG LAKE","NORTH"
"Z5.2.A.01","75+ years",297,245,82.5,211,71,86,73.9,"FROG LAKE","NORTH"
"Z5.2.A.01","ALL years",4839,1604,33.1,518,10.7,54.5,9.1,"FROG LAKE","NORTH"
"Z5.2.A.04","12-19 years",1788,464,25.9,27,1.5,47.7,0.5,"ST. PAUL","NORTH"
"Z5.2.A.04","12+ years",12813,5860,45.7,1920,15,64,10.7,"ST. PAUL","NORTH"
"Z5.2.A.04","20-39 years",4133,1255,30.4,175,4.2,52.1,4.1,"ST. PAUL","NORTH"
"Z5.2.A.04","40-59 years",3501,1664,47.5,275,7.9,67,5.8,"ST. PAUL","NORTH"
"Z5.2.A.04","60-74 years",2365,1617,68.4,672,28.4,80.5,13.5,"ST. PAUL","NORTH"
"Z5.2.A.04","75+ years",1026,848,82.7,771,75.2,86,73.9,"ST. PAUL","NORTH"
"Z5.2.A.04","ALL years",15524,5860,37.7,1920,12.4,54.5,9.1,"ST. PAUL","NORTH"
"Z5.2.A.05","12-19 years",383,110,28.8,2,0.5,47.7,0.5,"SMOKY LAKE","NORTH"
"Z5.2.A.05","12+ years",4265,2341,54.9,973,22.8,64,10.7,"SMOKY LAKE","NORTH"
"Z5.2.A.05","20-39 years",965,330,34.2,40,4.1,52.1,4.1,"SMOKY LAKE","NORTH"
"Z5.2.A.05","40-59 years",1229,616,50.1,108,8.8,67,5.8,"SMOKY LAKE","NORTH"
"Z5.2.A.05","60-74 years",1112,808,72.7,393,35.4,80.5,13.5,"SMOKY LAKE","NORTH"
"Z5.2.A.05","75+ years",577,475,82.4,430,74.6,86,73.9,"SMOKY LAKE","NORTH"
"Z5.2.A.05","ALL years",4764,2341,49.1,973,20.4,54.5,9.1,"SMOKY LAKE","NORTH"
"Z5.2.B.02","12-19 years",2400,895,37.3,7,0.3,47.7,0.5,"COLD LAKE","NORTH"
"Z5.2.B.02","12+ years",16900,8932,52.9,1270,7.5,64,10.7,"COLD LAKE","NORTH"
"Z5.2.B.02","20-39 years",6341,2570,40.5,229,3.6,52.1,4.1,"COLD LAKE","NORTH"
"Z5.2.B.02","40-59 years",5179,3035,58.6,264,5.1,67,5.8,"COLD LAKE","NORTH"
"Z5.2.B.02","60-74 years",2281,1781,78.1,246,10.8,80.5,13.5,"COLD LAKE","NORTH"
"Z5.2.B.02","75+ years",698,608,87.1,524,75.1,86,73.9,"COLD LAKE","NORTH"
"Z5.2.B.02","ALL years",20916,8932,42.7,1270,6.1,54.5,9.1,"COLD LAKE","NORTH"
"Z5.2.B.03","12-19 years",1863,570,30.6,8,0.4,47.7,0.5,"BONNYVILLE","NORTH"
"Z5.2.B.03","12+ years",13981,6507,46.5,1255,9,64,10.7,"BONNYVILLE","NORTH"
"Z5.2.B.03","20-39 years",4504,1418,31.5,138,3.1,52.1,4.1,"BONNYVILLE","NORTH"
"Z5.2.B.03","40-59 years",4373,2208,50.5,208,4.8,67,5.8,"BONNYVILLE","NORTH"
"Z5.2.B.03","60-74 years",2373,1610,67.9,306,12.9,80.5,13.5,"BONNYVILLE","NORTH"
"Z5.2.B.03","75+ years",869,678,78,595,68.5,86,73.9,"BONNYVILLE","NORTH"
"Z5.2.B.03","ALL years",16642,6507,39.1,1255,7.5,54.5,9.1,"BONNYVILLE","NORTH"
"Z5.2.C.06","12-19 years",291,89,30.6,1,0.3,47.7,0.5,"BOYLE","NORTH"
"Z5.2.C.06","12+ years",3128,1565,50,507,16.2,64,10.7,"BOYLE","NORTH"
"Z5.2.C.06","20-39 years",855,248,29,24,2.8,52.1,4.1,"BOYLE","NORTH"
"Z5.2.C.06","40-59 years",931,453,48.7,63,6.8,67,5.8,"BOYLE","NORTH"
"Z5.2.C.06","60-74 years",767,548,71.5,221,28.8,80.5,13.5,"BOYLE","NORTH"
"Z5.2.C.06","75+ years",285,223,78.3,198,69.5,86,73.9,"BOYLE","NORTH"
"Z5.2.C.06","ALL years",3587,1565,43.6,507,14.1,54.5,9.1,"BOYLE","NORTH"
"Z5.2.C.07","12-19 years",1019,407,40,9,0.9,47.7,0.5,"ATHABASCA","NORTH"
"Z5.2.C.07","12+ years",9385,5559,59.2,1342,14.3,64,10.7,"ATHABASCA","NORTH"
"Z5.2.C.07","20-39 years",2402,961,40,92,3.8,52.1,4.1,"ATHABASCA","NORTH"
"Z5.2.C.07","40-59 years",2925,1669,57.1,214,7.3,67,5.8,"ATHABASCA","NORTH"
"Z5.2.C.07","60-74 years",2160,1725,79.9,361,16.7,80.5,13.5,"ATHABASCA","NORTH"
"Z5.2.C.07","75+ years",880,763,86.7,666,75.7,86,73.9,"ATHABASCA","NORTH"
"Z5.2.C.07","ALL years",10660,5559,52.1,1342,12.6,54.5,9.1,"ATHABASCA","NORTH"
"Z5.2.C.08","12-19 years",1143,353,30.9,4,0.3,47.7,0.5,"LAC LA BICHE","NORTH"
"Z5.2.C.08","12+ years",8757,4464,51,1260,14.4,64,10.7,"LAC LA BICHE","NORTH"
"Z5.2.C.08","20-39 years",2845,989,34.8,132,4.6,52.1,4.1,"LAC LA BICHE","NORTH"
"Z5.2.C.08","40-59 years",2666,1500,56.3,254,9.5,67,5.8,"LAC LA BICHE","NORTH"
"Z5.2.C.08","60-74 years",1541,1135,73.7,483,31.3,80.5,13.5,"LAC LA BICHE","NORTH"
"Z5.2.C.08","75+ years",562,473,84.2,387,68.9,86,73.9,"LAC LA BICHE","NORTH"
"Z5.2.C.08","ALL years",10391,4464,43,1260,12.1,54.5,9.1,"LAC LA BICHE","NORTH"
"Z5.3.A.01","12-19 years",449,124,27.6,1,0.2,47.7,0.5,"GRANDE CACHE","NORTH"
"Z5.3.A.01","12+ years",3627,1559,43,448,12.4,64,10.7,"GRANDE CACHE","NORTH"
"Z5.3.A.01","20-39 years",1222,355,29.1,40,3.3,52.1,4.1,"GRANDE CACHE","NORTH"
"Z5.3.A.01","40-59 years",1209,516,42.7,77,6.4,67,5.8,"GRANDE CACHE","NORTH"
"Z5.3.A.01","60-74 years",560,411,73.4,206,36.8,80.5,13.5,"GRANDE CACHE","NORTH"
"Z5.3.A.01","75+ years",188,150,79.8,124,65.9,86,73.9,"GRANDE CACHE","NORTH"
"Z5.3.A.01","ALL years",4205,1559,37.1,448,10.7,54.5,9.1,"GRANDE CACHE","NORTH"
"Z5.3.A.02","12-19 years",224,92,41,1,0.4,47.7,0.5,"FOX CREEK","NORTH"
"Z5.3.A.02","12+ years",1952,941,48.2,105,5.4,64,10.7,"FOX CREEK","NORTH"
"Z5.3.A.02","20-39 years",632,224,35.5,7,1.1,52.1,4.1,"FOX CREEK","NORTH"
"Z5.3.A.02","40-59 years",704,344,48.9,22,3.1,67,5.8,"FOX CREEK","NORTH"
"Z5.3.A.02","60-74 years",329,240,73,47,14.3,80.5,13.5,"FOX CREEK","NORTH"
"Z5.3.A.02","75+ years",63,38,59.9,28,44.1,86,73.9,"FOX CREEK","NORTH"
"Z5.3.A.02","ALL years",2270,941,41.4,105,4.6,54.5,9.1,"FOX CREEK","NORTH"
"Z5.3.A.03","12-19 years",779,131,16.8,5,0.6,47.7,0.5,"VALLEYVIEW","NORTH"
"Z5.3.A.03","12+ years",6027,2588,42.9,775,12.9,64,10.7,"VALLEYVIEW","NORTH"
"Z5.3.A.03","20-39 years",1891,530,28,143,7.6,52.1,4.1,"VALLEYVIEW","NORTH"
"Z5.3.A.03","40-59 years",1721,789,45.9,176,10.2,67,5.8,"VALLEYVIEW","NORTH"
"Z5.3.A.03","60-74 years",1210,810,67,178,14.7,80.5,13.5,"VALLEYVIEW","NORTH"
"Z5.3.A.03","75+ years",427,325,76.2,273,64,86,73.9,"VALLEYVIEW","NORTH"
"Z5.3.A.03","ALL years",7258,2588,35.7,775,10.7,54.5,9.1,"VALLEYVIEW","NORTH"
"Z5.3.A.05","12-19 years",1375,348,25.3,6,0.4,47.7,0.5,"BEAVERLODGE","NORTH"
"Z5.3.A.05","12+ years",10197,4591,45,827,8.1,64,10.7,"BEAVERLODGE","NORTH"
"Z5.3.A.05","20-39 years",3234,898,27.8,76,2.4,52.1,4.1,"BEAVERLODGE","NORTH"
"Z5.3.A.05","40-59 years",3023,1434,47.4,123,4.1,67,5.8,"BEAVERLODGE","NORTH"
"Z5.3.A.05","60-74 years",1876,1324,70.6,172,9.2,80.5,13.5,"BEAVERLODGE","NORTH"
"Z5.3.A.05","75+ years",688,566,82.2,450,65.4,86,73.9,"BEAVERLODGE","NORTH"
"Z5.3.A.05","ALL years",12253,4591,37.5,827,6.7,54.5,9.1,"BEAVERLODGE","NORTH"
"Z5.3.B.04","12-19 years",2549,864,33.9,4,0.2,47.7,0.5,"GRANDE PRAIRIE COUNTY","NORTH"
"Z5.3.B.04","12+ years",17657,8289,46.9,902,5.1,64,10.7,"GRANDE PRAIRIE COUNTY","NORTH"
"Z5.3.B.04","20-39 years",5723,1901,33.2,113,2,52.1,4.1,"GRANDE PRAIRIE COUNTY","NORTH"
"Z5.3.B.04","40-59 years",5812,2973,51.2,147,2.5,67,5.8,"GRANDE PRAIRIE COUNTY","NORTH"
"Z5.3.B.04","60-74 years",2835,1959,69.1,185,6.5,80.5,13.5,"GRANDE PRAIRIE COUNTY","NORTH"
"Z5.3.B.04","75+ years",737,552,74.9,453,61.4,86,73.9,"GRANDE PRAIRIE COUNTY","NORTH"
"Z5.3.B.04","ALL years",21400,8289,38.7,902,4.2,54.5,9.1,"GRANDE PRAIRIE COUNTY","NORTH"
"Z5.4.A.01","12-19 years",129,35,27.2,0,0,47.7,0.5,"SWAN HILLS","NORTH"
"Z5.4.A.01","12+ years",1160,577,49.8,167,14.4,64,10.7,"SWAN HILLS","NORTH"
"Z5.4.A.01","20-39 years",328,103,31.4,5,1.5,52.1,4.1,"SWAN HILLS","NORTH"
"Z5.4.A.01","40-59 years",464,242,52.1,39,8.4,67,5.8,"SWAN HILLS","NORTH"
"Z5.4.A.01","60-74 years",211,169,80.3,101,48,80.5,13.5,"SWAN HILLS","NORTH"
"Z5.4.A.01","75+ years",29,27,94.1,22,76.7,86,73.9,"SWAN HILLS","NORTH"
"Z5.4.A.01","ALL years",1356,577,42.6,167,12.3,54.5,9.1,"SWAN HILLS","NORTH"
"Z5.4.A.02","12-19 years",1302,490,37.6,2,0.2,47.7,0.5,"SLAVE LAKE","NORTH"
"Z5.4.A.02","12+ years",9669,4597,47.5,619,6.4,64,10.7,"SLAVE LAKE","NORTH"
"Z5.4.A.02","20-39 years",3462,1240,35.8,114,3.3,52.1,4.1,"SLAVE LAKE","NORTH"
"Z5.4.A.02","40-59 years",3175,1608,50.7,139,4.4,67,5.8,"SLAVE LAKE","NORTH"
"Z5.4.A.02","60-74 years",1354,968,71.5,140,10.3,80.5,13.5,"SLAVE LAKE","NORTH"
"Z5.4.A.02","75+ years",376,268,71.2,224,59.5,86,73.9,"SLAVE LAKE","NORTH"
"Z5.4.A.02","ALL years",11804,4597,38.9,619,5.2,54.5,9.1,"SLAVE LAKE","NORTH"
"Z5.4.A.03","12-19 years",623,44,7.1,16,2.6,47.7,0.5,"WABASCA","NORTH"
"Z5.4.A.03","12+ years",3300,1192,36.1,808,24.5,64,10.7,"WABASCA","NORTH"
"Z5.4.A.03","20-39 years",1169,304,26,208,17.8,52.1,4.1,"WABASCA","NORTH"
"Z5.4.A.03","40-59 years",965,463,48,312,32.3,67,5.8,"WABASCA","NORTH"
"Z5.4.A.03","60-74 years",444,304,68.5,206,46.4,80.5,13.5,"WABASCA","NORTH"
"Z5.4.A.03","75+ years",98,74,75.2,66,67,86,73.9,"WABASCA","NORTH"
"Z5.4.A.03","ALL years",4245,1192,28.1,808,19,54.5,9.1,"WABASCA","NORTH"
"Z5.4.A.07","12-19 years",1488,304,20.4,5,0.3,47.7,0.5,"HIGH PRAIRIE","NORTH"
"Z5.4.A.07","12+ years",9675,3759,38.9,928,9.6,64,10.7,"HIGH PRAIRIE","NORTH"
"Z5.4.A.07","20-39 years",2932,765,26.1,96,3.3,52.1,4.1,"HIGH PRAIRIE","NORTH"
"Z5.4.A.07","40-59 years",2941,1175,40,233,7.9,67,5.8,"HIGH PRAIRIE","NORTH"
"Z5.4.A.07","60-74 years",1682,1073,63.8,233,13.8,80.5,13.5,"HIGH PRAIRIE","NORTH"
"Z5.4.A.07","75+ years",632,437,69.2,361,57.1,86,73.9,"HIGH PRAIRIE","NORTH"
"Z5.4.A.07","ALL years",11701,3759,32.1,928,7.9,54.5,9.1,"HIGH PRAIRIE","NORTH"
"Z5.4.B.04","12-19 years",3587,266,7.4,8,0.2,47.7,0.5,"HIGH LEVEL","NORTH"
"Z5.4.B.04","12+ years",18225,3238,17.8,509,2.8,64,10.7,"HIGH LEVEL","NORTH"
"Z5.4.B.04","20-39 years",7486,1004,13.4,137,1.8,52.1,4.1,"HIGH LEVEL","NORTH"
"Z5.4.B.04","40-59 years",4646,1202,25.9,158,3.4,67,5.8,"HIGH LEVEL","NORTH"
"Z5.4.B.04","60-74 years",1876,582,31,79,4.2,80.5,13.5,"HIGH LEVEL","NORTH"
"Z5.4.B.04","75+ years",630,173,27.5,127,20.2,86,73.9,"HIGH LEVEL","NORTH"
"Z5.4.B.04","ALL years",25363,3238,12.8,509,2,54.5,9.1,"HIGH LEVEL","NORTH"
"Z5.4.B.05","12-19 years",360,94,26.1,1,0.3,47.7,0.5,"MANNING","NORTH"
"Z5.4.B.05","12+ years",2830,1209,42.7,447,15.8,64,10.7,"MANNING","NORTH"
"Z5.4.B.05","20-39 years",821,208,25.3,36,4.4,52.1,4.1,"MANNING","NORTH"
"Z5.4.B.05","40-59 years",844,377,44.7,71,8.4,67,5.8,"MANNING","NORTH"
"Z5.4.B.05","60-74 years",549,324,59.1,163,29.7,80.5,13.5,"MANNING","NORTH"
"Z5.4.B.05","75+ years",256,202,78.8,176,68.6,86,73.9,"MANNING","NORTH"
"Z5.4.B.05","ALL years",3333,1209,36.3,447,13.4,54.5,9.1,"MANNING","NORTH"
"Z5.4.C.06","12-19 years",2072,582,28.1,4,0.2,47.7,0.5,"PEACE RIVER","NORTH"
"Z5.4.C.06","12+ years",15537,7526,48.4,1545,9.9,64,10.7,"PEACE RIVER","NORTH"
"Z5.4.C.06","20-39 years",5318,1769,33.3,236,4.4,52.1,4.1,"PEACE RIVER","NORTH"
"Z5.4.C.06","40-59 years",4577,2483,54.2,283,6.2,67,5.8,"PEACE RIVER","NORTH"
"Z5.4.C.06","60-74 years",2673,1952,73,428,16,80.5,13.5,"PEACE RIVER","NORTH"
"Z5.4.C.06","75+ years",897,719,80.1,594,66.2,86,73.9,"PEACE RIVER","NORTH"
"Z5.4.C.06","ALL years",18659,7526,40.3,1545,8.3,54.5,9.1,"PEACE RIVER","NORTH"
"Z5.4.D.08","12-19 years",455,127,27.9,0,0,47.7,0.5,"FALHER","NORTH"
"Z5.4.D.08","12+ years",3832,1977,51.6,455,11.9,64,10.7,"FALHER","NORTH"
"Z5.4.D.08","20-39 years",1166,383,32.8,40,3.4,52.1,4.1,"FALHER","NORTH"
"Z5.4.D.08","40-59 years",1018,513,50.4,49,4.8,67,5.8,"FALHER","NORTH"
"Z5.4.D.08","60-74 years",789,600,76,55,7,80.5,13.5,"FALHER","NORTH"
"Z5.4.D.08","75+ years",403,346,85.8,311,77.1,86,73.9,"FALHER","NORTH"
"Z5.4.D.08","ALL years",4481,1977,44.1,455,10.2,54.5,9.1,"FALHER","NORTH"
"Z5.4.D.09","12-19 years",620,136,21.9,0,0,47.7,0.5,"SPIRIT RIVER","NORTH"
"Z5.4.D.09","12+ years",5202,2362,45.4,470,9,64,10.7,"SPIRIT RIVER","NORTH"
"Z5.4.D.09","20-39 years",1446,331,22.9,19,1.3,52.1,4.1,"SPIRIT RIVER","NORTH"
"Z5.4.D.09","40-59 years",1552,750,48.3,64,4.1,67,5.8,"SPIRIT RIVER","NORTH"
"Z5.4.D.09","60-74 years",1137,777,68.4,104,9.2,80.5,13.5,"SPIRIT RIVER","NORTH"
"Z5.4.D.09","75+ years",447,361,80.8,283,63.4,86,73.9,"SPIRIT RIVER","NORTH"
"Z5.4.D.09","ALL years",6128,2362,38.5,470,7.7,54.5,9.1,"SPIRIT RIVER","NORTH"
"Z5.4.D.10","12-19 years",1014,242,23.9,4,0.4,47.7,0.5,"FAIRVIEW","NORTH"
"Z5.4.D.10","12+ years",6813,3019,44.3,852,12.5,64,10.7,"FAIRVIEW","NORTH"
"Z5.4.D.10","20-39 years",1966,527,26.8,72,3.7,52.1,4.1,"FAIRVIEW","NORTH"
"Z5.4.D.10","40-59 years",1870,863,46.1,101,5.4,67,5.8,"FAIRVIEW","NORTH"
"Z5.4.D.10","60-74 years",1314,882,67.1,265,20.2,80.5,13.5,"FAIRVIEW","NORTH"
"Z5.4.D.10","75+ years",648,502,77.4,410,63.2,86,73.9,"FAIRVIEW","NORTH"
"Z5.4.D.10","ALL years",8172,3019,36.9,852,10.4,54.5,9.1,"FAIRVIEW","NORTH"
"Z5.5.A.01","12-19 years",468,117,25,4,0.9,47.7,0.5,"WOOD BUFFALO","NORTH"
"Z5.5.A.01","12+ years",3411,1335,39.1,385,11.3,64,10.7,"WOOD BUFFALO","NORTH"
"Z5.5.A.01","20-39 years",1168,327,28,67,5.7,52.1,4.1,"WOOD BUFFALO","NORTH"
"Z5.5.A.01","40-59 years",1165,546,46.9,145,12.5,67,5.8,"WOOD BUFFALO","NORTH"
"Z5.5.A.01","60-74 years",507,278,54.8,119,23.5,80.5,13.5,"WOOD BUFFALO","NORTH"
"Z5.5.A.01","75+ years",104,61,58.5,50,48,86,73.9,"WOOD BUFFALO","NORTH"
"Z5.5.A.01","ALL years",4097,1335,32.6,385,9.4,54.5,9.1,"WOOD BUFFALO","NORTH"
"Z5.6.A.01","12-19 years",6810,3504,51.5,39,0.6,47.7,0.5,"FORT MCMURRAY","NORTH"
"Z5.6.A.01","12+ years",65631,37541,57.2,3128,4.8,64,10.7,"FORT MCMURRAY","NORTH"
"Z5.6.A.01","20-39 years",28164,13525,48,872,3.1,52.1,4.1,"FORT MCMURRAY","NORTH"
"Z5.6.A.01","40-59 years",23077,15112,65.5,1114,4.8,67,5.8,"FORT MCMURRAY","NORTH"
"Z5.6.A.01","60-74 years",6850,4726,69,764,11.2,80.5,13.5,"FORT MCMURRAY","NORTH"
"Z5.6.A.01","75+ years",729,496,68,339,46.5,86,73.9,"FORT MCMURRAY","NORTH"
"Z5.6.A.01","ALL years",79888,37541,47,3128,3.9,54.5,9.1,"FORT MCMURRAY","NORTH"
"Z5.7.A.01","12-19 years",7363,2633,35.8,8,0.1,47.7,0.5,"CITY OF GRANDE PRAIRIE","NORTH"
"Z5.7.A.01","12+ years",62331,29329,47.1,3229,5.2,64,10.7,"CITY OF GRANDE PRAIRIE","NORTH"
"Z5.7.A.01","20-39 years",26855,9503,35.4,568,2.1,52.1,4.1,"CITY OF GRANDE PRAIRIE","NORTH"
"Z5.7.A.01","40-59 years",18549,9876,53.2,554,3,67,5.8,"CITY OF GRANDE PRAIRIE","NORTH"
"Z5.7.A.01","60-74 years",7325,5344,73,561,7.7,80.5,13.5,"CITY OF GRANDE PRAIRIE","NORTH"
"Z5.7.A.01","75+ years",2240,1840,82.1,1538,68.7,86,73.9,"CITY OF GRANDE PRAIRIE","NORTH"
"Z5.7.A.01","ALL years",75043,29329,39.1,3229,4.3,54.5,9.1,"CITY OF GRANDE PRAIRIE","NORTH"
