"Local Code","Age Group","Population","# of population with at least 1 dose","Percent of population who received at least one dose","# of population fully immunized","Percent of population fully immunized","Alberta: percent of population who received at least one dose","Alberta: percent of population fully immunized","Local Name","Zone Name"
"Z1.1.A.01","12-19 years",500,163,32.6,0,0,46.5,0.5,"CROWSNEST PASS","SOUTH"
"Z1.1.A.01","20-39 years",1322,525,39.7,59,4.5,51.3,4,"CROWSNEST PASS","SOUTH"
"Z1.1.A.01","40-59 years",1617,955,59.1,85,5.3,66.6,5.6,"CROWSNEST PASS","SOUTH"
"Z1.1.A.01","60-74 years",1633,1261,77.2,149,9.1,80.4,12.9,"CROWSNEST PASS","SOUTH"
"Z1.1.A.01","75+ years",618,506,81.9,429,69.5,86,73.7,"CROWSNEST PASS","SOUTH"
"Z1.1.A.01","All age years",6358,3420,53.8,722,11.4,54,8.9,"CROWSNEST PASS","SOUTH"
"Z1.1.A.02","12-19 years",773,282,36.5,7,0.9,46.5,0.5,"PINCHER CREEK","SOUTH"
"Z1.1.A.02","20-39 years",1971,905,45.9,122,6.2,51.3,4,"PINCHER CREEK","SOUTH"
"Z1.1.A.02","40-59 years",1929,1183,61.3,222,11.5,66.6,5.6,"PINCHER CREEK","SOUTH"
"Z1.1.A.02","60-74 years",1749,1356,77.5,257,14.7,80.4,12.9,"PINCHER CREEK","SOUTH"
"Z1.1.A.02","75+ years",807,717,88.8,624,77.3,86,73.7,"PINCHER CREEK","SOUTH"
"Z1.1.A.02","All age years",8407,4457,53,1232,14.7,54,8.9,"PINCHER CREEK","SOUTH"
"Z1.1.A.03","12-19 years",680,185,27.2,6,0.9,46.5,0.5,"FORT MACLEOD","SOUTH"
"Z1.1.A.03","20-39 years",1717,509,29.6,54,3.1,51.3,4,"FORT MACLEOD","SOUTH"
"Z1.1.A.03","40-59 years",1458,717,49.2,93,6.4,66.6,5.6,"FORT MACLEOD","SOUTH"
"Z1.1.A.03","60-74 years",1219,854,70.1,128,10.5,80.4,12.9,"FORT MACLEOD","SOUTH"
"Z1.1.A.03","75+ years",535,404,75.5,350,65.4,86,73.7,"FORT MACLEOD","SOUTH"
"Z1.1.A.03","All age years",6840,2673,39.1,631,9.2,54,8.9,"FORT MACLEOD","SOUTH"
"Z1.1.B.04","12-19 years",2217,579,26.1,20,0.9,46.5,0.5,"CARDSTON-KAINAI","SOUTH"
"Z1.1.B.04","20-39 years",4122,1035,25.1,159,3.9,51.3,4,"CARDSTON-KAINAI","SOUTH"
"Z1.1.B.04","40-59 years",3357,1415,42.1,248,7.4,66.6,5.6,"CARDSTON-KAINAI","SOUTH"
"Z1.1.B.04","60-74 years",2558,1428,55.8,370,14.5,80.4,12.9,"CARDSTON-KAINAI","SOUTH"
"Z1.1.B.04","75+ years",1277,892,69.9,718,56.2,86,73.7,"CARDSTON-KAINAI","SOUTH"
"Z1.1.B.04","All age years",16639,5363,32.2,1515,9.1,54,8.9,"CARDSTON-KAINAI","SOUTH"
"Z1.2.A.01","12-19 years",3177,1006,31.7,9,0.3,46.5,0.5,"COUNTY OF LETHBRIDGE","SOUTH"
"Z1.2.A.01","20-39 years",7077,2585,36.5,247,3.5,51.3,4,"COUNTY OF LETHBRIDGE","SOUTH"
"Z1.2.A.01","40-59 years",5594,3175,56.8,230,4.1,66.6,5.6,"COUNTY OF LETHBRIDGE","SOUTH"
"Z1.2.A.01","60-74 years",3696,2800,75.8,426,11.5,80.4,12.9,"COUNTY OF LETHBRIDGE","SOUTH"
"Z1.2.A.01","75+ years",1356,1105,81.5,958,70.7,86,73.7,"COUNTY OF LETHBRIDGE","SOUTH"
"Z1.2.A.01","All age years",26202,10724,40.9,1870,7.1,54,8.9,"COUNTY OF LETHBRIDGE","SOUTH"
"Z1.2.B.02","12-19 years",2630,542,20.6,3,0.1,46.5,0.5,"TABER MD","SOUTH"
"Z1.2.B.02","20-39 years",5153,1268,24.6,83,1.6,51.3,4,"TABER MD","SOUTH"
"Z1.2.B.02","40-59 years",4152,1947,46.9,137,3.3,66.6,5.6,"TABER MD","SOUTH"
"Z1.2.B.02","60-74 years",2357,1665,70.6,280,11.9,80.4,12.9,"TABER MD","SOUTH"
"Z1.2.B.02","75+ years",989,819,82.8,674,68.2,86,73.7,"TABER MD","SOUTH"
"Z1.2.B.02","All age years",19203,6264,32.6,1177,6.1,54,8.9,"TABER MD","SOUTH"
"Z1.2.C.03","12-19 years",1484,438,29.5,4,0.3,46.5,0.5,"COUNTY OF WARNER","SOUTH"
"Z1.2.C.03","20-39 years",2698,887,32.9,98,3.6,51.3,4,"COUNTY OF WARNER","SOUTH"
"Z1.2.C.03","40-59 years",2278,1203,52.8,151,6.6,66.6,5.6,"COUNTY OF WARNER","SOUTH"
"Z1.2.C.03","60-74 years",1858,1338,72,309,16.6,80.4,12.9,"COUNTY OF WARNER","SOUTH"
"Z1.2.C.03","75+ years",815,627,76.9,537,65.9,86,73.7,"COUNTY OF WARNER","SOUTH"
"Z1.2.C.03","All age years",11216,4521,40.3,1099,9.8,54,8.9,"COUNTY OF WARNER","SOUTH"
"Z1.2.C.04","12-19 years",878,101,11.5,0,0,46.5,0.5,"COUNTY OF FORTY MILE","SOUTH"
"Z1.2.C.04","20-39 years",1699,308,18.1,23,1.4,51.3,4,"COUNTY OF FORTY MILE","SOUTH"
"Z1.2.C.04","40-59 years",1214,487,40.1,46,3.8,66.6,5.6,"COUNTY OF FORTY MILE","SOUTH"
"Z1.2.C.04","60-74 years",859,534,62.2,137,16,80.4,12.9,"COUNTY OF FORTY MILE","SOUTH"
"Z1.2.C.04","75+ years",341,262,76.9,231,67.8,86,73.7,"COUNTY OF FORTY MILE","SOUTH"
"Z1.2.C.04","All age years",6477,1695,26.2,437,6.7,54,8.9,"COUNTY OF FORTY MILE","SOUTH"
"Z1.3.A.01","12-19 years",3305,983,29.7,17,0.5,46.5,0.5,"NEWELL","SOUTH"
"Z1.3.A.01","20-39 years",7780,3031,39,143,1.8,51.3,4,"NEWELL","SOUTH"
"Z1.3.A.01","40-59 years",7416,4127,55.6,261,3.5,66.6,5.6,"NEWELL","SOUTH"
"Z1.3.A.01","60-74 years",3496,2546,72.8,478,13.7,80.4,12.9,"NEWELL","SOUTH"
"Z1.3.A.01","75+ years",1279,1029,80.5,875,68.4,86,73.7,"NEWELL","SOUTH"
"Z1.3.A.01","All age years",27920,11755,42.1,1774,6.4,54,8.9,"NEWELL","SOUTH"
"Z1.3.B.02","12-19 years",331,66,19.9,3,0.9,46.5,0.5,"OYEN","SOUTH"
"Z1.3.B.02","20-39 years",781,225,28.8,28,3.6,51.3,4,"OYEN","SOUTH"
"Z1.3.B.02","40-59 years",833,368,44.2,62,7.4,66.6,5.6,"OYEN","SOUTH"
"Z1.3.B.02","60-74 years",745,510,68.5,189,25.4,80.4,12.9,"OYEN","SOUTH"
"Z1.3.B.02","75+ years",313,254,81.1,210,67.1,86,73.7,"OYEN","SOUTH"
"Z1.3.B.02","All age years",3525,1425,40.4,492,14,54,8.9,"OYEN","SOUTH"
"Z1.3.B.03","12-19 years",1285,458,35.6,7,0.5,46.5,0.5,"CYPRESS COUNTY","SOUTH"
"Z1.3.B.03","20-39 years",2798,1062,38,59,2.1,51.3,4,"CYPRESS COUNTY","SOUTH"
"Z1.3.B.03","40-59 years",3168,1843,58.2,112,3.5,66.6,5.6,"CYPRESS COUNTY","SOUTH"
"Z1.3.B.03","60-74 years",1963,1389,70.8,136,6.9,80.4,12.9,"CYPRESS COUNTY","SOUTH"
"Z1.3.B.03","75+ years",507,373,73.6,284,56.1,86,73.7,"CYPRESS COUNTY","SOUTH"
"Z1.3.B.03","All age years",11405,5141,45.1,598,5.2,54,8.9,"CYPRESS COUNTY","SOUTH"
"Z1.4.A.01","12-19 years",6351,2941,46.3,25,0.4,46.5,0.5,"MEDICINE HAT","SOUTH"
"Z1.4.A.01","20-39 years",17653,8294,47,710,4,51.3,4,"MEDICINE HAT","SOUTH"
"Z1.4.A.01","40-59 years",17060,10873,63.7,938,5.5,66.6,5.6,"MEDICINE HAT","SOUTH"
"Z1.4.A.01","60-74 years",12574,9985,79.4,1266,10.1,80.4,12.9,"MEDICINE HAT","SOUTH"
"Z1.4.A.01","75+ years",5866,5083,86.6,4408,75.1,86,73.7,"MEDICINE HAT","SOUTH"
"Z1.4.A.01","All age years",68404,37316,54.6,7347,10.7,54,8.9,"MEDICINE HAT","SOUTH"
"Z1.5.A.01","12-19 years",4104,2668,65,19,0.5,46.5,0.5,"LETHBRIDGE - WEST","SOUTH"
"Z1.5.A.01","20-39 years",13658,8980,65.7,687,5,51.3,4,"LETHBRIDGE - WEST","SOUTH"
"Z1.5.A.01","40-59 years",8704,6788,78,625,7.2,66.6,5.6,"LETHBRIDGE - WEST","SOUTH"
"Z1.5.A.01","60-74 years",4903,4295,87.6,632,12.9,80.4,12.9,"LETHBRIDGE - WEST","SOUTH"
"Z1.5.A.01","75+ years",1596,1456,91.2,1330,83.3,86,73.7,"LETHBRIDGE - WEST","SOUTH"
"Z1.5.A.01","All age years",39115,24350,62.3,3293,8.4,54,8.9,"LETHBRIDGE - WEST","SOUTH"
"Z1.5.B.02","12-19 years",2497,1279,51.2,16,0.6,46.5,0.5,"LETHBRIDGE - NORTH","SOUTH"
"Z1.5.B.02","20-39 years",8270,4455,53.9,355,4.3,51.3,4,"LETHBRIDGE - NORTH","SOUTH"
"Z1.5.B.02","40-59 years",7090,5005,70.6,411,5.8,66.6,5.6,"LETHBRIDGE - NORTH","SOUTH"
"Z1.5.B.02","60-74 years",4590,3914,85.3,630,13.7,80.4,12.9,"LETHBRIDGE - NORTH","SOUTH"
"Z1.5.B.02","75+ years",2004,1787,89.2,1495,74.6,86,73.7,"LETHBRIDGE - NORTH","SOUTH"
"Z1.5.B.02","All age years",28222,16508,58.5,2907,10.3,54,8.9,"LETHBRIDGE - NORTH","SOUTH"
"Z1.5.C.03","12-19 years",2630,1473,56,21,0.8,46.5,0.5,"LETHBRIDGE - SOUTH","SOUTH"
"Z1.5.C.03","20-39 years",9700,5191,53.5,423,4.4,51.3,4,"LETHBRIDGE - SOUTH","SOUTH"
"Z1.5.C.03","40-59 years",7527,5445,72.3,543,7.2,66.6,5.6,"LETHBRIDGE - SOUTH","SOUTH"
"Z1.5.C.03","60-74 years",6621,5586,84.4,1045,15.8,80.4,12.9,"LETHBRIDGE - SOUTH","SOUTH"
"Z1.5.C.03","75+ years",4430,4005,90.4,3679,83,86,73.7,"LETHBRIDGE - SOUTH","SOUTH"
"Z1.5.C.03","All age years",34789,21765,62.6,5711,16.4,54,8.9,"LETHBRIDGE - SOUTH","SOUTH"
"Z2.1.A.01","12-19 years",12829,7531,58.7,71,0.6,46.5,0.5,"CALGARY - UPPER NW","CALGARY"
"Z2.1.A.01","20-39 years",34553,21595,62.5,1508,4.4,51.3,4,"CALGARY - UPPER NW","CALGARY"
"Z2.1.A.01","40-59 years",34909,26118,74.8,2038,5.8,66.6,5.6,"CALGARY - UPPER NW","CALGARY"
"Z2.1.A.01","60-74 years",19230,16272,84.6,2585,13.4,80.4,12.9,"CALGARY - UPPER NW","CALGARY"
"Z2.1.A.01","75+ years",6641,5758,86.7,5163,77.7,86,73.7,"CALGARY - UPPER NW","CALGARY"
"Z2.1.A.01","All age years",125587,77683,61.9,11367,9.1,54,8.9,"CALGARY - UPPER NW","CALGARY"
"Z2.1.B.02","12-19 years",12454,6775,54.4,49,0.4,46.5,0.5,"CALGARY - NORTH","CALGARY"
"Z2.1.B.02","20-39 years",33695,20333,60.3,1362,4,51.3,4,"CALGARY - NORTH","CALGARY"
"Z2.1.B.02","40-59 years",34221,25319,74,1893,5.5,66.6,5.6,"CALGARY - NORTH","CALGARY"
"Z2.1.B.02","60-74 years",14770,12447,84.3,1573,10.6,80.4,12.9,"CALGARY - NORTH","CALGARY"
"Z2.1.B.02","75+ years",4424,3847,87,3190,72.1,86,73.7,"CALGARY - NORTH","CALGARY"
"Z2.1.B.02","All age years",118910,69051,58.1,8067,6.8,54,8.9,"CALGARY - NORTH","CALGARY"
"Z2.1.C.03","12-19 years",5744,3046,53,15,0.3,46.5,0.5,"CALGARY - NOSE HILL","CALGARY"
"Z2.1.C.03","20-39 years",25107,14874,59.2,860,3.4,51.3,4,"CALGARY - NOSE HILL","CALGARY"
"Z2.1.C.03","40-59 years",20735,14791,71.3,953,4.6,66.6,5.6,"CALGARY - NOSE HILL","CALGARY"
"Z2.1.C.03","60-74 years",11778,9696,82.3,1366,11.6,80.4,12.9,"CALGARY - NOSE HILL","CALGARY"
"Z2.1.C.03","75+ years",4952,4323,87.3,3756,75.8,86,73.7,"CALGARY - NOSE HILL","CALGARY"
"Z2.1.C.03","All age years",78422,46888,59.8,6950,8.9,54,8.9,"CALGARY - NOSE HILL","CALGARY"
"Z2.1.D.04","12-19 years",6744,4275,63.4,37,0.5,46.5,0.5,"CALGARY - LOWER NW","CALGARY"
"Z2.1.D.04","20-39 years",16704,10930,65.4,699,4.2,51.3,4,"CALGARY - LOWER NW","CALGARY"
"Z2.1.D.04","40-59 years",17271,13690,79.3,1113,6.4,66.6,5.6,"CALGARY - LOWER NW","CALGARY"
"Z2.1.D.04","60-74 years",9736,8515,87.5,1466,15.1,80.4,12.9,"CALGARY - LOWER NW","CALGARY"
"Z2.1.D.04","75+ years",4417,4087,92.5,3794,85.9,86,73.7,"CALGARY - LOWER NW","CALGARY"
"Z2.1.D.04","All age years",62936,41746,66.3,7109,11.3,54,8.9,"CALGARY - LOWER NW","CALGARY"
"Z2.1.E.05","12-19 years",1326,639,48.2,7,0.5,46.5,0.5,"CALGARY - WEST BOW","CALGARY"
"Z2.1.E.05","20-39 years",6482,3851,59.4,414,6.4,51.3,4,"CALGARY - WEST BOW","CALGARY"
"Z2.1.E.05","40-59 years",5552,3725,67.1,331,6,66.6,5.6,"CALGARY - WEST BOW","CALGARY"
"Z2.1.E.05","60-74 years",3760,2986,79.4,522,13.9,80.4,12.9,"CALGARY - WEST BOW","CALGARY"
"Z2.1.E.05","75+ years",1714,1501,87.6,1354,79,86,73.7,"CALGARY - WEST BOW","CALGARY"
"Z2.1.E.05","All age years",21500,12731,59.2,2628,12.2,54,8.9,"CALGARY - WEST BOW","CALGARY"
"Z2.1.F.06","12-19 years",2653,1715,64.7,13,0.5,46.5,0.5,"CALGARY - CENTRE NORTH","CALGARY"
"Z2.1.F.06","20-39 years",15638,10563,67.5,804,5.1,51.3,4,"CALGARY - CENTRE NORTH","CALGARY"
"Z2.1.F.06","40-59 years",12413,9036,72.8,820,6.6,66.6,5.6,"CALGARY - CENTRE NORTH","CALGARY"
"Z2.1.F.06","60-74 years",6537,5325,81.5,1069,16.4,80.4,12.9,"CALGARY - CENTRE NORTH","CALGARY"
"Z2.1.F.06","75+ years",3007,2612,86.9,2337,77.7,86,73.7,"CALGARY - CENTRE NORTH","CALGARY"
"Z2.1.F.06","All age years",45414,29371,64.7,5043,11.1,54,8.9,"CALGARY - CENTRE NORTH","CALGARY"
"Z2.2.A.01","12-19 years",12850,6563,51.1,38,0.3,46.5,0.5,"CALGARY - UPPER NE","CALGARY"
"Z2.2.A.01","20-39 years",44857,23633,52.7,1368,3,51.3,4,"CALGARY - UPPER NE","CALGARY"
"Z2.2.A.01","40-59 years",29656,21091,71.1,1662,5.6,66.6,5.6,"CALGARY - UPPER NE","CALGARY"
"Z2.2.A.01","60-74 years",11824,9943,84.1,996,8.4,80.4,12.9,"CALGARY - UPPER NE","CALGARY"
"Z2.2.A.01","75+ years",3380,2645,78.2,1884,55.7,86,73.7,"CALGARY - UPPER NE","CALGARY"
"Z2.2.A.01","All age years",125654,64130,51,5948,4.7,54,8.9,"CALGARY - UPPER NE","CALGARY"
"Z2.2.B.02","12-19 years",9471,3706,39.1,31,0.3,46.5,0.5,"CALGARY - LOWER NE","CALGARY"
"Z2.2.B.02","20-39 years",28657,12596,44,709,2.5,51.3,4,"CALGARY - LOWER NE","CALGARY"
"Z2.2.B.02","40-59 years",25149,16088,64,1117,4.4,66.6,5.6,"CALGARY - LOWER NE","CALGARY"
"Z2.2.B.02","60-74 years",14007,11781,84.1,1496,10.7,80.4,12.9,"CALGARY - LOWER NE","CALGARY"
"Z2.2.B.02","75+ years",4576,4017,87.8,3250,71,86,73.7,"CALGARY - LOWER NE","CALGARY"
"Z2.2.B.02","All age years",96631,48317,50,6603,6.8,54,8.9,"CALGARY - LOWER NE","CALGARY"
"Z2.3.A.01","12-19 years",6620,2291,34.6,10,0.2,46.5,0.5,"CALGARY - EAST","CALGARY"
"Z2.3.A.01","20-39 years",21176,8800,41.6,457,2.2,51.3,4,"CALGARY - EAST","CALGARY"
"Z2.3.A.01","40-59 years",20685,12179,58.9,749,3.6,66.6,5.6,"CALGARY - EAST","CALGARY"
"Z2.3.A.01","60-74 years",11080,8829,79.7,1006,9.1,80.4,12.9,"CALGARY - EAST","CALGARY"
"Z2.3.A.01","75+ years",3557,2981,83.8,2412,67.8,86,73.7,"CALGARY - EAST","CALGARY"
"Z2.3.A.01","All age years",72591,35152,48.4,4634,6.4,54,8.9,"CALGARY - EAST","CALGARY"
"Z2.3.B.02","12-19 years",12838,6912,53.8,40,0.3,46.5,0.5,"CALGARY - SE","CALGARY"
"Z2.3.B.02","20-39 years",41476,24124,58.2,1888,4.6,51.3,4,"CALGARY - SE","CALGARY"
"Z2.3.B.02","40-59 years",38943,28085,72.1,2144,5.5,66.6,5.6,"CALGARY - SE","CALGARY"
"Z2.3.B.02","60-74 years",15419,12921,83.8,1697,11,80.4,12.9,"CALGARY - SE","CALGARY"
"Z2.3.B.02","75+ years",4263,3750,88,3453,81,86,73.7,"CALGARY - SE","CALGARY"
"Z2.3.B.02","All age years",138537,76221,55,9222,6.7,54,8.9,"CALGARY - SE","CALGARY"
"Z2.4.A.01","12-19 years",10419,6850,65.7,77,0.7,46.5,0.5,"CALGARY - WEST","CALGARY"
"Z2.4.A.01","20-39 years",22214,14417,64.9,996,4.5,51.3,4,"CALGARY - WEST","CALGARY"
"Z2.4.A.01","40-59 years",28211,21638,76.7,1809,6.4,66.6,5.6,"CALGARY - WEST","CALGARY"
"Z2.4.A.01","60-74 years",13870,11564,83.4,2013,14.5,80.4,12.9,"CALGARY - WEST","CALGARY"
"Z2.4.A.01","75+ years",5221,4612,88.3,4233,81.1,86,73.7,"CALGARY - WEST","CALGARY"
"Z2.4.A.01","All age years",93211,59475,63.8,9128,9.8,54,8.9,"CALGARY - WEST","CALGARY"
"Z2.4.B.02","12-19 years",2223,1131,50.9,8,0.4,46.5,0.5,"CALGARY - CENTRE","CALGARY"
"Z2.4.B.02","20-39 years",33047,20503,62,1190,3.6,51.3,4,"CALGARY - CENTRE","CALGARY"
"Z2.4.B.02","40-59 years",17260,10951,63.4,590,3.4,66.6,5.6,"CALGARY - CENTRE","CALGARY"
"Z2.4.B.02","60-74 years",8169,6154,75.3,988,12.1,80.4,12.9,"CALGARY - CENTRE","CALGARY"
"Z2.4.B.02","75+ years",2988,2322,77.7,1961,65.6,86,73.7,"CALGARY - CENTRE","CALGARY"
"Z2.4.B.02","All age years",69057,41101,59.5,4737,6.9,54,8.9,"CALGARY - CENTRE","CALGARY"
"Z2.4.C.03","12-19 years",4959,3014,60.8,21,0.4,46.5,0.5,"CALGARY - CENTRE WEST","CALGARY"
"Z2.4.C.03","20-39 years",21123,13639,64.6,1126,5.3,51.3,4,"CALGARY - CENTRE WEST","CALGARY"
"Z2.4.C.03","40-59 years",18494,13864,75,1106,6,66.6,5.6,"CALGARY - CENTRE WEST","CALGARY"
"Z2.4.C.03","60-74 years",8966,7411,82.7,1337,14.9,80.4,12.9,"CALGARY - CENTRE WEST","CALGARY"
"Z2.4.C.03","75+ years",3869,3506,90.6,3145,81.3,86,73.7,"CALGARY - CENTRE WEST","CALGARY"
"Z2.4.C.03","All age years",66463,41598,62.6,6735,10.1,54,8.9,"CALGARY - CENTRE WEST","CALGARY"
"Z2.4.D.04","12-19 years",3001,2017,67.2,24,0.8,46.5,0.5,"CALGARY - ELBOW","CALGARY"
"Z2.4.D.04","20-39 years",11893,7250,61,503,4.2,51.3,4,"CALGARY - ELBOW","CALGARY"
"Z2.4.D.04","40-59 years",10652,7771,73,754,7.1,66.6,5.6,"CALGARY - ELBOW","CALGARY"
"Z2.4.D.04","60-74 years",7583,6355,83.8,1585,20.9,80.4,12.9,"CALGARY - ELBOW","CALGARY"
"Z2.4.D.04","75+ years",3832,3302,86.2,3074,80.2,86,73.7,"CALGARY - ELBOW","CALGARY"
"Z2.4.D.04","All age years",41000,26794,65.4,5940,14.5,54,8.9,"CALGARY - ELBOW","CALGARY"
"Z2.4.E.05","12-19 years",8740,4505,51.5,39,0.4,46.5,0.5,"CALGARY - FISH CREEK","CALGARY"
"Z2.4.E.05","20-39 years",30543,17193,56.3,1044,3.4,51.3,4,"CALGARY - FISH CREEK","CALGARY"
"Z2.4.E.05","40-59 years",29766,21337,71.7,1426,4.8,66.6,5.6,"CALGARY - FISH CREEK","CALGARY"
"Z2.4.E.05","60-74 years",20793,17644,84.9,2637,12.7,80.4,12.9,"CALGARY - FISH CREEK","CALGARY"
"Z2.4.E.05","75+ years",8203,7307,89.1,6550,79.8,86,73.7,"CALGARY - FISH CREEK","CALGARY"
"Z2.4.E.05","All age years",111466,68222,61.2,11696,10.5,54,8.9,"CALGARY - FISH CREEK","CALGARY"
"Z2.4.F.06","12-19 years",12647,6763,53.5,82,0.6,46.5,0.5,"CALGARY - SW","CALGARY"
"Z2.4.F.06","20-39 years",32217,18793,58.3,1447,4.5,51.3,4,"CALGARY - SW","CALGARY"
"Z2.4.F.06","40-59 years",35029,25202,71.9,2385,6.8,66.6,5.6,"CALGARY - SW","CALGARY"
"Z2.4.F.06","60-74 years",15660,13182,84.2,1858,11.9,80.4,12.9,"CALGARY - SW","CALGARY"
"Z2.4.F.06","75+ years",5845,5221,89.3,4768,81.6,86,73.7,"CALGARY - SW","CALGARY"
"Z2.4.F.06","All age years",118678,69476,58.5,10540,8.9,54,8.9,"CALGARY - SW","CALGARY"
"Z2.5.A.01","12-19 years",5694,2338,41.1,33,0.6,46.5,0.5,"OKOTOKS-PRIDDIS","CALGARY"
"Z2.5.A.01","20-39 years",10373,4682,45.1,355,3.4,51.3,4,"OKOTOKS-PRIDDIS","CALGARY"
"Z2.5.A.01","40-59 years",13508,8917,66,668,4.9,66.6,5.6,"OKOTOKS-PRIDDIS","CALGARY"
"Z2.5.A.01","60-74 years",8412,6719,79.9,1089,12.9,80.4,12.9,"OKOTOKS-PRIDDIS","CALGARY"
"Z2.5.A.01","75+ years",2636,2318,87.9,2116,80.3,86,73.7,"OKOTOKS-PRIDDIS","CALGARY"
"Z2.5.A.01","All age years",46994,25091,53.4,4261,9.1,54,8.9,"OKOTOKS-PRIDDIS","CALGARY"
"Z2.5.B.02","12-19 years",771,227,29.5,7,0.9,46.5,0.5,"BLACK DIAMOND","CALGARY"
"Z2.5.B.02","20-39 years",1783,642,36,83,4.7,51.3,4,"BLACK DIAMOND","CALGARY"
"Z2.5.B.02","40-59 years",2341,1261,53.9,124,5.3,66.6,5.6,"BLACK DIAMOND","CALGARY"
"Z2.5.B.02","60-74 years",2139,1618,75.6,231,10.8,80.4,12.9,"BLACK DIAMOND","CALGARY"
"Z2.5.B.02","75+ years",724,611,84.4,502,69.3,86,73.7,"BLACK DIAMOND","CALGARY"
"Z2.5.B.02","All age years",8875,4374,49.3,947,10.7,54,8.9,"BLACK DIAMOND","CALGARY"
"Z2.5.B.03","12-19 years",2454,795,32.4,11,0.4,46.5,0.5,"HIGH RIVER","CALGARY"
"Z2.5.B.03","20-39 years",5174,1954,37.8,141,2.7,51.3,4,"HIGH RIVER","CALGARY"
"Z2.5.B.03","40-59 years",6115,3572,58.4,269,4.4,66.6,5.6,"HIGH RIVER","CALGARY"
"Z2.5.B.03","60-74 years",4868,3638,74.7,591,12.1,80.4,12.9,"HIGH RIVER","CALGARY"
"Z2.5.B.03","75+ years",2379,2054,86.3,1744,73.3,86,73.7,"HIGH RIVER","CALGARY"
"Z2.5.B.03","All age years",23993,12042,50.2,2756,11.5,54,8.9,"HIGH RIVER","CALGARY"
"Z2.5.C.04","12-19 years",462,139,30.1,0,0,46.5,0.5,"CLARESHOLM","CALGARY"
"Z2.5.C.04","20-39 years",1257,440,35,34,2.7,51.3,4,"CLARESHOLM","CALGARY"
"Z2.5.C.04","40-59 years",1502,828,55.1,85,5.7,66.6,5.6,"CLARESHOLM","CALGARY"
"Z2.5.C.04","60-74 years",1530,1207,78.9,187,12.2,80.4,12.9,"CLARESHOLM","CALGARY"
"Z2.5.C.04","75+ years",831,710,85.4,570,68.6,86,73.7,"CLARESHOLM","CALGARY"
"Z2.5.C.04","All age years",6267,3332,53.2,876,14,54,8.9,"CLARESHOLM","CALGARY"
"Z2.5.C.05","12-19 years",719,164,22.8,2,0.3,46.5,0.5,"VULCAN","CALGARY"
"Z2.5.C.05","20-39 years",1488,434,29.2,37,2.5,51.3,4,"VULCAN","CALGARY"
"Z2.5.C.05","40-59 years",1515,739,48.8,66,4.4,66.6,5.6,"VULCAN","CALGARY"
"Z2.5.C.05","60-74 years",1496,1078,72.1,120,8,80.4,12.9,"VULCAN","CALGARY"
"Z2.5.C.05","75+ years",679,554,81.6,415,61.1,86,73.7,"VULCAN","CALGARY"
"Z2.5.C.05","All age years",6837,2973,43.5,640,9.4,54,8.9,"VULCAN","CALGARY"
"Z2.6.A.01","12-19 years",8060,3447,42.8,22,0.3,46.5,0.5,"AIRDRIE","CALGARY"
"Z2.6.A.01","20-39 years",22157,10605,47.9,667,3,51.3,4,"AIRDRIE","CALGARY"
"Z2.6.A.01","40-59 years",20294,13203,65.1,881,4.3,66.6,5.6,"AIRDRIE","CALGARY"
"Z2.6.A.01","60-74 years",8824,7199,81.6,730,8.3,80.4,12.9,"AIRDRIE","CALGARY"
"Z2.6.A.01","75+ years",2222,1839,82.7,1542,69.4,86,73.7,"AIRDRIE","CALGARY"
"Z2.6.A.01","All age years",76018,36516,48,3842,5.1,54,8.9,"AIRDRIE","CALGARY"
"Z2.6.B.02","12-19 years",3045,1520,49.9,10,0.3,46.5,0.5,"CHESTERMERE","CALGARY"
"Z2.6.B.02","20-39 years",6562,3570,54.4,217,3.3,51.3,4,"CHESTERMERE","CALGARY"
"Z2.6.B.02","40-59 years",7295,5127,70.3,336,4.6,66.6,5.6,"CHESTERMERE","CALGARY"
"Z2.6.B.02","60-74 years",3610,2927,81.1,439,12.2,80.4,12.9,"CHESTERMERE","CALGARY"
"Z2.6.B.02","75+ years",1145,1027,89.7,886,77.4,86,73.7,"CHESTERMERE","CALGARY"
"Z2.6.B.02","All age years",25681,14233,55.4,1888,7.4,54,8.9,"CHESTERMERE","CALGARY"
"Z2.6.C.03","12-19 years",4173,1718,41.2,59,1.4,46.5,0.5,"STRATHMORE","CALGARY"
"Z2.6.C.03","20-39 years",8802,3921,44.5,643,7.3,51.3,4,"STRATHMORE","CALGARY"
"Z2.6.C.03","40-59 years",9970,6238,62.6,864,8.7,66.6,5.6,"STRATHMORE","CALGARY"
"Z2.6.C.03","60-74 years",5565,4329,77.8,884,15.9,80.4,12.9,"STRATHMORE","CALGARY"
"Z2.6.C.03","75+ years",1971,1685,85.5,1433,72.7,86,73.7,"STRATHMORE","CALGARY"
"Z2.6.C.03","All age years",35924,18000,50.1,3883,10.8,54,8.9,"STRATHMORE","CALGARY"
"Z2.6.C.04","12-19 years",883,325,36.8,5,0.6,46.5,0.5,"CROSSFIELD","CALGARY"
"Z2.6.C.04","20-39 years",2287,818,35.8,39,1.7,51.3,4,"CROSSFIELD","CALGARY"
"Z2.6.C.04","40-59 years",2618,1407,53.7,73,2.8,66.6,5.6,"CROSSFIELD","CALGARY"
"Z2.6.C.04","60-74 years",1866,1297,69.5,185,9.9,80.4,12.9,"CROSSFIELD","CALGARY"
"Z2.6.C.04","75+ years",508,397,78.1,295,58,86,73.7,"CROSSFIELD","CALGARY"
"Z2.6.C.04","All age years",9432,4259,45.2,597,6.3,54,8.9,"CROSSFIELD","CALGARY"
"Z2.6.C.05","12-19 years",1695,537,31.7,7,0.4,46.5,0.5,"DIDSBURY","CALGARY"
"Z2.6.C.05","20-39 years",3607,1206,33.4,88,2.4,51.3,4,"DIDSBURY","CALGARY"
"Z2.6.C.05","40-59 years",4485,2380,53.1,180,4,66.6,5.6,"DIDSBURY","CALGARY"
"Z2.6.C.05","60-74 years",3319,2462,74.2,289,8.7,80.4,12.9,"DIDSBURY","CALGARY"
"Z2.6.C.05","75+ years",1209,1085,89.8,863,71.4,86,73.7,"DIDSBURY","CALGARY"
"Z2.6.C.05","All age years",16700,7701,46.1,1427,8.5,54,8.9,"DIDSBURY","CALGARY"
"Z2.7.A.01","12-19 years",5343,2617,49,24,0.4,46.5,0.5,"COCHRANE-SPRINGBANK","CALGARY"
"Z2.7.A.01","20-39 years",12658,6685,52.8,456,3.6,51.3,4,"COCHRANE-SPRINGBANK","CALGARY"
"Z2.7.A.01","40-59 years",14175,9872,69.6,818,5.8,66.6,5.6,"COCHRANE-SPRINGBANK","CALGARY"
"Z2.7.A.01","60-74 years",9720,7761,79.8,1237,12.7,80.4,12.9,"COCHRANE-SPRINGBANK","CALGARY"
"Z2.7.A.01","75+ years",2978,2559,85.9,2336,78.4,86,73.7,"COCHRANE-SPRINGBANK","CALGARY"
"Z2.7.A.01","All age years",52406,29623,56.5,4871,9.3,54,8.9,"COCHRANE-SPRINGBANK","CALGARY"
"Z2.7.B.02","12-19 years",2549,1480,58.1,109,4.3,46.5,0.5,"CANMORE","CALGARY"
"Z2.7.B.02","20-39 years",8460,4753,56.2,643,7.6,51.3,4,"CANMORE","CALGARY"
"Z2.7.B.02","40-59 years",7679,5654,73.6,775,10.1,66.6,5.6,"CANMORE","CALGARY"
"Z2.7.B.02","60-74 years",4711,3925,83.3,745,15.8,80.4,12.9,"CANMORE","CALGARY"
"Z2.7.B.02","75+ years",1267,1116,88.1,1004,79.3,86,73.7,"CANMORE","CALGARY"
"Z2.7.B.02","All age years",28270,16995,60.1,3276,11.6,54,8.9,"CANMORE","CALGARY"
"Z2.7.B.03","12-19 years",711,411,57.8,0,0,46.5,0.5,"BANFF","CALGARY"
"Z2.7.B.03","20-39 years",7824,3874,49.5,59,0.8,51.3,4,"BANFF","CALGARY"
"Z2.7.B.03","40-59 years",2983,2131,71.4,90,3,66.6,5.6,"BANFF","CALGARY"
"Z2.7.B.03","60-74 years",1082,866,80,134,12.4,80.4,12.9,"BANFF","CALGARY"
"Z2.7.B.03","75+ years",301,265,88.1,237,78.8,86,73.7,"BANFF","CALGARY"
"Z2.7.B.03","All age years",13665,7563,55.3,520,3.8,54,8.9,"BANFF","CALGARY"
"Z3.1.A.01","12-19 years",2131,504,23.6,10,0.5,46.5,0.5,"ROCKY MOUNTAIN HOUSE","CENTRAL"
"Z3.1.A.01","20-39 years",5102,1413,27.7,179,3.5,51.3,4,"ROCKY MOUNTAIN HOUSE","CENTRAL"
"Z3.1.A.01","40-59 years",5199,2546,49,249,4.8,66.6,5.6,"ROCKY MOUNTAIN HOUSE","CENTRAL"
"Z3.1.A.01","60-74 years",3606,2553,70.8,332,9.2,80.4,12.9,"ROCKY MOUNTAIN HOUSE","CENTRAL"
"Z3.1.A.01","75+ years",1381,1127,81.6,898,65,86,73.7,"ROCKY MOUNTAIN HOUSE","CENTRAL"
"Z3.1.A.01","All age years",20358,8166,40.1,1668,8.2,54,8.9,"ROCKY MOUNTAIN HOUSE","CENTRAL"
"Z3.1.B.02","12-19 years",1833,423,23.1,6,0.3,46.5,0.5,"DRAYTON VALLEY","CENTRAL"
"Z3.1.B.02","20-39 years",4686,1234,26.3,101,2.2,51.3,4,"DRAYTON VALLEY","CENTRAL"
"Z3.1.B.02","40-59 years",4799,2195,45.7,148,3.1,66.6,5.6,"DRAYTON VALLEY","CENTRAL"
"Z3.1.B.02","60-74 years",3017,2103,69.7,231,7.7,80.4,12.9,"DRAYTON VALLEY","CENTRAL"
"Z3.1.B.02","75+ years",1098,881,80.3,532,48.5,86,73.7,"DRAYTON VALLEY","CENTRAL"
"Z3.1.B.02","All age years",18113,6854,37.8,1018,5.6,54,8.9,"DRAYTON VALLEY","CENTRAL"
"Z3.2.A.01","12-19 years",640,178,27.8,4,0.6,46.5,0.5,"SUNDRE","CENTRAL"
"Z3.2.A.01","20-39 years",1432,399,27.9,29,2,51.3,4,"SUNDRE","CENTRAL"
"Z3.2.A.01","40-59 years",1750,838,47.9,58,3.3,66.6,5.6,"SUNDRE","CENTRAL"
"Z3.2.A.01","60-74 years",1633,1141,69.9,140,8.6,80.4,12.9,"SUNDRE","CENTRAL"
"Z3.2.A.01","75+ years",647,524,81,349,53.9,86,73.7,"SUNDRE","CENTRAL"
"Z3.2.A.01","All age years",6847,3084,45,580,8.5,54,8.9,"SUNDRE","CENTRAL"
"Z3.2.A.02","12-19 years",1158,486,42,1,0.1,46.5,0.5,"OLDS","CENTRAL"
"Z3.2.A.02","20-39 years",3167,1290,40.7,108,3.4,51.3,4,"OLDS","CENTRAL"
"Z3.2.A.02","40-59 years",3103,1855,59.8,138,4.4,66.6,5.6,"OLDS","CENTRAL"
"Z3.2.A.02","60-74 years",2280,1782,78.2,171,7.5,80.4,12.9,"OLDS","CENTRAL"
"Z3.2.A.02","75+ years",1355,1114,82.2,898,66.3,86,73.7,"OLDS","CENTRAL"
"Z3.2.A.02","All age years",12662,6539,51.6,1316,10.4,54,8.9,"OLDS","CENTRAL"
"Z3.2.B.03","12-19 years",1454,470,32.3,7,0.5,46.5,0.5,"INNISFAIL","CENTRAL"
"Z3.2.B.03","20-39 years",3773,1263,33.5,103,2.7,51.3,4,"INNISFAIL","CENTRAL"
"Z3.2.B.03","40-59 years",4106,2258,55,177,4.3,66.6,5.6,"INNISFAIL","CENTRAL"
"Z3.2.B.03","60-74 years",3248,2468,76,291,9,80.4,12.9,"INNISFAIL","CENTRAL"
"Z3.2.B.03","75+ years",1468,1269,86.5,909,61.9,86,73.7,"INNISFAIL","CENTRAL"
"Z3.2.B.03","All age years",15923,7746,48.6,1487,9.3,54,8.9,"INNISFAIL","CENTRAL"
"Z3.2.C.04","12-19 years",2839,978,34.5,9,0.3,46.5,0.5,"RED DEER COUNTY","CENTRAL"
"Z3.2.C.04","20-39 years",8941,2914,32.6,249,2.8,51.3,4,"RED DEER COUNTY","CENTRAL"
"Z3.2.C.04","40-59 years",7587,3864,50.9,322,4.2,66.6,5.6,"RED DEER COUNTY","CENTRAL"
"Z3.2.C.04","60-74 years",4663,3200,68.6,504,10.8,80.4,12.9,"RED DEER COUNTY","CENTRAL"
"Z3.2.C.04","75+ years",1409,1108,78.6,870,61.7,86,73.7,"RED DEER COUNTY","CENTRAL"
"Z3.2.C.04","All age years",30540,12105,39.6,1954,6.4,54,8.9,"RED DEER COUNTY","CENTRAL"
"Z3.2.C.05","12-19 years",1885,620,32.9,6,0.3,46.5,0.5,"SYLVAN LAKE","CENTRAL"
"Z3.2.C.05","20-39 years",5697,1879,33,156,2.7,51.3,4,"SYLVAN LAKE","CENTRAL"
"Z3.2.C.05","40-59 years",4766,2492,52.3,179,3.8,66.6,5.6,"SYLVAN LAKE","CENTRAL"
"Z3.2.C.05","60-74 years",2413,1745,72.3,234,9.7,80.4,12.9,"SYLVAN LAKE","CENTRAL"
"Z3.2.C.05","75+ years",631,535,84.8,412,65.3,86,73.7,"SYLVAN LAKE","CENTRAL"
"Z3.2.C.05","All age years",18367,7310,39.8,987,5.4,54,8.9,"SYLVAN LAKE","CENTRAL"
"Z3.3.A.01","12-19 years",1126,359,31.9,10,0.9,46.5,0.5,"THREE HILLS/HIGHWAY 21","CENTRAL"
"Z3.3.A.01","20-39 years",2481,853,34.4,79,3.2,51.3,4,"THREE HILLS/HIGHWAY 21","CENTRAL"
"Z3.3.A.01","40-59 years",2658,1360,51.2,135,5.1,66.6,5.6,"THREE HILLS/HIGHWAY 21","CENTRAL"
"Z3.3.A.01","60-74 years",2052,1435,69.9,160,7.8,80.4,12.9,"THREE HILLS/HIGHWAY 21","CENTRAL"
"Z3.3.A.01","75+ years",1005,772,76.8,496,49.3,86,73.7,"THREE HILLS/HIGHWAY 21","CENTRAL"
"Z3.3.A.01","All age years",10858,4797,44.2,880,8.1,54,8.9,"THREE HILLS/HIGHWAY 21","CENTRAL"
"Z3.3.A.02","12-19 years",1131,436,38.5,3,0.3,46.5,0.5,"STARLAND COUNTY/DRUMHELLER","CENTRAL"
"Z3.3.A.02","20-39 years",2837,1154,40.7,106,3.7,51.3,4,"STARLAND COUNTY/DRUMHELLER","CENTRAL"
"Z3.3.A.02","40-59 years",3069,1772,57.7,176,5.7,66.6,5.6,"STARLAND COUNTY/DRUMHELLER","CENTRAL"
"Z3.3.A.02","60-74 years",2396,1842,76.9,245,10.2,80.4,12.9,"STARLAND COUNTY/DRUMHELLER","CENTRAL"
"Z3.3.A.02","75+ years",961,842,87.6,621,64.6,86,73.7,"STARLAND COUNTY/DRUMHELLER","CENTRAL"
"Z3.3.A.02","All age years",11848,6059,51.1,1151,9.7,54,8.9,"STARLAND COUNTY/DRUMHELLER","CENTRAL"
"Z3.3.A.04","12-19 years",344,93,27,3,0.9,46.5,0.5,"PLANNING & SPECIAL AREA 2","CENTRAL"
"Z3.3.A.04","20-39 years",776,247,31.8,23,3,51.3,4,"PLANNING & SPECIAL AREA 2","CENTRAL"
"Z3.3.A.04","40-59 years",960,484,50.4,52,5.4,66.6,5.6,"PLANNING & SPECIAL AREA 2","CENTRAL"
"Z3.3.A.04","60-74 years",803,526,65.5,54,6.7,80.4,12.9,"PLANNING & SPECIAL AREA 2","CENTRAL"
"Z3.3.A.04","75+ years",372,326,87.6,233,62.6,86,73.7,"PLANNING & SPECIAL AREA 2","CENTRAL"
"Z3.3.A.04","All age years",3673,1683,45.8,365,9.9,54,8.9,"PLANNING & SPECIAL AREA 2","CENTRAL"
"Z3.3.B.03","12-19 years",1187,318,26.8,6,0.5,46.5,0.5,"STETTLER & COUNTY","CENTRAL"
"Z3.3.B.03","20-39 years",3014,915,30.4,103,3.4,51.3,4,"STETTLER & COUNTY","CENTRAL"
"Z3.3.B.03","40-59 years",3001,1533,51.1,139,4.6,66.6,5.6,"STETTLER & COUNTY","CENTRAL"
"Z3.3.B.03","60-74 years",2371,1688,71.2,205,8.6,80.4,12.9,"STETTLER & COUNTY","CENTRAL"
"Z3.3.B.03","75+ years",1156,963,83.3,688,59.5,86,73.7,"STETTLER & COUNTY","CENTRAL"
"Z3.3.B.03","All age years",12597,5428,43.1,1141,9.1,54,8.9,"STETTLER & COUNTY","CENTRAL"
"Z3.3.B.05","12-19 years",663,176,26.6,0,0,46.5,0.5,"CASTOR/CORONATION/CONSORT","CENTRAL"
"Z3.3.B.05","20-39 years",1396,432,30.9,64,4.6,51.3,4,"CASTOR/CORONATION/CONSORT","CENTRAL"
"Z3.3.B.05","40-59 years",1515,699,46.1,88,5.8,66.6,5.6,"CASTOR/CORONATION/CONSORT","CENTRAL"
"Z3.3.B.05","60-74 years",1210,861,71.2,291,24.1,80.4,12.9,"CASTOR/CORONATION/CONSORT","CENTRAL"
"Z3.3.B.05","75+ years",518,412,79.5,322,62.1,86,73.7,"CASTOR/CORONATION/CONSORT","CENTRAL"
"Z3.3.B.05","All age years",6194,2588,41.8,765,12.4,54,8.9,"CASTOR/CORONATION/CONSORT","CENTRAL"
"Z3.4.A.01","12-19 years",3834,1102,28.7,62,1.6,46.5,0.5,"WETASKIWIN COUNTY","CENTRAL"
"Z3.4.A.01","20-39 years",8308,3072,37,675,8.1,51.3,4,"WETASKIWIN COUNTY","CENTRAL"
"Z3.4.A.01","40-59 years",7809,4434,56.8,888,11.4,66.6,5.6,"WETASKIWIN COUNTY","CENTRAL"
"Z3.4.A.01","60-74 years",5668,4208,74.2,891,15.7,80.4,12.9,"WETASKIWIN COUNTY","CENTRAL"
"Z3.4.A.01","75+ years",2415,2084,86.3,1698,70.3,86,73.7,"WETASKIWIN COUNTY","CENTRAL"
"Z3.4.A.01","All age years",33659,14948,44.4,4214,12.5,54,8.9,"WETASKIWIN COUNTY","CENTRAL"
"Z3.4.B.02","12-19 years",1189,346,29.1,8,0.7,46.5,0.5,"PONOKA","CENTRAL"
"Z3.4.B.02","20-39 years",3210,1101,34.3,153,4.8,51.3,4,"PONOKA","CENTRAL"
"Z3.4.B.02","40-59 years",2960,1696,57.3,224,7.6,66.6,5.6,"PONOKA","CENTRAL"
"Z3.4.B.02","60-74 years",2200,1591,72.3,225,10.2,80.4,12.9,"PONOKA","CENTRAL"
"Z3.4.B.02","75+ years",1011,841,83.2,662,65.5,86,73.7,"PONOKA","CENTRAL"
"Z3.4.B.02","All age years",12487,5587,44.7,1272,10.2,54,8.9,"PONOKA","CENTRAL"
"Z3.4.B.03","12-19 years",895,233,26,2,0.2,46.5,0.5,"RIMBEY","CENTRAL"
"Z3.4.B.03","20-39 years",2214,572,25.8,47,2.1,51.3,4,"RIMBEY","CENTRAL"
"Z3.4.B.03","40-59 years",2471,1088,44,90,3.6,66.6,5.6,"RIMBEY","CENTRAL"
"Z3.4.B.03","60-74 years",2265,1579,69.7,178,7.9,80.4,12.9,"RIMBEY","CENTRAL"
"Z3.4.B.03","75+ years",928,754,81.2,490,52.8,86,73.7,"RIMBEY","CENTRAL"
"Z3.4.B.03","All age years",10134,4239,41.8,807,8,54,8.9,"RIMBEY","CENTRAL"
"Z3.4.B.04","12-19 years",2419,821,33.9,7,0.3,46.5,0.5,"LACOMBE","CENTRAL"
"Z3.4.B.04","20-39 years",6146,2280,37.1,191,3.1,51.3,4,"LACOMBE","CENTRAL"
"Z3.4.B.04","40-59 years",5817,3270,56.2,262,4.5,66.6,5.6,"LACOMBE","CENTRAL"
"Z3.4.B.04","60-74 years",4089,2930,71.7,423,10.3,80.4,12.9,"LACOMBE","CENTRAL"
"Z3.4.B.04","75+ years",1684,1384,82.2,988,58.7,86,73.7,"LACOMBE","CENTRAL"
"Z3.4.B.04","All age years",23679,10729,45.3,1871,7.9,54,8.9,"LACOMBE","CENTRAL"
"Z3.5.A.01","12-19 years",2725,1290,47.3,10,0.4,46.5,0.5,"CAMROSE & COUNTY","CENTRAL"
"Z3.5.A.01","20-39 years",7537,3514,46.6,387,5.1,51.3,4,"CAMROSE & COUNTY","CENTRAL"
"Z3.5.A.01","40-59 years",7156,4670,65.3,563,7.9,66.6,5.6,"CAMROSE & COUNTY","CENTRAL"
"Z3.5.A.01","60-74 years",5681,4581,80.6,919,16.2,80.4,12.9,"CAMROSE & COUNTY","CENTRAL"
"Z3.5.A.01","75+ years",2987,2674,89.5,2384,79.8,86,73.7,"CAMROSE & COUNTY","CENTRAL"
"Z3.5.A.01","All age years",30202,16805,55.6,4263,14.1,54,8.9,"CAMROSE & COUNTY","CENTRAL"
"Z3.5.B.02","12-19 years",735,261,35.5,2,0.3,46.5,0.5,"TOFIELD","CENTRAL"
"Z3.5.B.02","20-39 years",1803,750,41.6,69,3.8,51.3,4,"TOFIELD","CENTRAL"
"Z3.5.B.02","40-59 years",2038,1156,56.7,104,5.1,66.6,5.6,"TOFIELD","CENTRAL"
"Z3.5.B.02","60-74 years",1580,1190,75.3,239,15.1,80.4,12.9,"TOFIELD","CENTRAL"
"Z3.5.B.02","75+ years",619,504,81.4,417,67.4,86,73.7,"TOFIELD","CENTRAL"
"Z3.5.B.02","All age years",7876,3871,49.2,831,10.6,54,8.9,"TOFIELD","CENTRAL"
"Z3.5.B.03","12-19 years",210,79,37.5,3,1.4,46.5,0.5,"VIKING","CENTRAL"
"Z3.5.B.03","20-39 years",505,208,41.2,31,6.1,51.3,4,"VIKING","CENTRAL"
"Z3.5.B.03","40-59 years",585,345,59,45,7.7,66.6,5.6,"VIKING","CENTRAL"
"Z3.5.B.03","60-74 years",514,374,72.8,150,29.2,80.4,12.9,"VIKING","CENTRAL"
"Z3.5.B.03","75+ years",285,237,83,213,74.6,86,73.7,"VIKING","CENTRAL"
"Z3.5.B.03","All age years",2385,1246,52.3,442,18.5,54,8.9,"VIKING","CENTRAL"
"Z3.5.B.04","12-19 years",806,337,41.8,8,1,46.5,0.5,"FLAGSTAFF COUNTY","CENTRAL"
"Z3.5.B.04","20-39 years",1817,722,39.7,65,3.6,51.3,4,"FLAGSTAFF COUNTY","CENTRAL"
"Z3.5.B.04","40-59 years",2106,1254,59.6,117,5.6,66.6,5.6,"FLAGSTAFF COUNTY","CENTRAL"
"Z3.5.B.04","60-74 years",1795,1422,79.2,170,9.5,80.4,12.9,"FLAGSTAFF COUNTY","CENTRAL"
"Z3.5.B.04","75+ years",840,722,85.9,595,70.8,86,73.7,"FLAGSTAFF COUNTY","CENTRAL"
"Z3.5.B.04","All age years",8424,4469,53.1,955,11.3,54,8.9,"FLAGSTAFF COUNTY","CENTRAL"
"Z3.5.C.05","12-19 years",544,178,32.7,3,0.6,46.5,0.5,"MD OF PROVOST","CENTRAL"
"Z3.5.C.05","20-39 years",1236,373,30.2,37,3,51.3,4,"MD OF PROVOST","CENTRAL"
"Z3.5.C.05","40-59 years",1256,585,46.6,55,4.4,66.6,5.6,"MD OF PROVOST","CENTRAL"
"Z3.5.C.05","60-74 years",806,574,71.2,65,8.1,80.4,12.9,"MD OF PROVOST","CENTRAL"
"Z3.5.C.05","75+ years",377,316,83.7,235,62.3,86,73.7,"MD OF PROVOST","CENTRAL"
"Z3.5.C.05","All age years",4891,2030,41.5,395,8.1,54,8.9,"MD OF PROVOST","CENTRAL"
"Z3.5.C.06","12-19 years",1256,526,41.9,0,0,46.5,0.5,"MD OF WAINWRIGHT","CENTRAL"
"Z3.5.C.06","20-39 years",3204,1393,43.5,96,3,51.3,4,"MD OF WAINWRIGHT","CENTRAL"
"Z3.5.C.06","40-59 years",2953,1733,58.7,122,4.1,66.6,5.6,"MD OF WAINWRIGHT","CENTRAL"
"Z3.5.C.06","60-74 years",1938,1454,75,133,6.9,80.4,12.9,"MD OF WAINWRIGHT","CENTRAL"
"Z3.5.C.06","75+ years",779,665,85.4,542,69.6,86,73.7,"MD OF WAINWRIGHT","CENTRAL"
"Z3.5.C.06","All age years",12030,5797,48.2,893,7.4,54,8.9,"MD OF WAINWRIGHT","CENTRAL"
"Z3.6.A.01","12-19 years",508,216,42.5,2,0.4,46.5,0.5,"LAMONT COUNTY","CENTRAL"
"Z3.6.A.01","20-39 years",1485,519,34.9,52,3.5,51.3,4,"LAMONT COUNTY","CENTRAL"
"Z3.6.A.01","40-59 years",1564,881,56.3,85,5.4,66.6,5.6,"LAMONT COUNTY","CENTRAL"
"Z3.6.A.01","60-74 years",1409,1049,74.5,193,13.7,80.4,12.9,"LAMONT COUNTY","CENTRAL"
"Z3.6.A.01","75+ years",597,520,87.1,447,74.9,86,73.7,"LAMONT COUNTY","CENTRAL"
"Z3.6.A.01","All age years",6427,3192,49.7,779,12.1,54,8.9,"LAMONT COUNTY","CENTRAL"
"Z3.6.A.02","12-19 years",736,62,8.4,1,0.1,46.5,0.5,"TWO HILLS COUNTY","CENTRAL"
"Z3.6.A.02","20-39 years",1380,209,15.1,35,2.5,51.3,4,"TWO HILLS COUNTY","CENTRAL"
"Z3.6.A.02","40-59 years",1106,394,35.6,68,6.1,66.6,5.6,"TWO HILLS COUNTY","CENTRAL"
"Z3.6.A.02","60-74 years",801,582,72.6,282,35.2,80.4,12.9,"TWO HILLS COUNTY","CENTRAL"
"Z3.6.A.02","75+ years",435,362,83.3,317,72.9,86,73.7,"TWO HILLS COUNTY","CENTRAL"
"Z3.6.A.02","All age years",5608,1612,28.7,703,12.5,54,8.9,"TWO HILLS COUNTY","CENTRAL"
"Z3.6.A.03","12-19 years",939,373,39.7,7,0.7,46.5,0.5,"VEGREVILLE/MINBURN COUNTY","CENTRAL"
"Z3.6.A.03","20-39 years",2342,979,41.8,95,4.1,51.3,4,"VEGREVILLE/MINBURN COUNTY","CENTRAL"
"Z3.6.A.03","40-59 years",2594,1623,62.6,190,7.3,66.6,5.6,"VEGREVILLE/MINBURN COUNTY","CENTRAL"
"Z3.6.A.03","60-74 years",2003,1573,78.5,468,23.4,80.4,12.9,"VEGREVILLE/MINBURN COUNTY","CENTRAL"
"Z3.6.A.03","75+ years",1150,1004,87.3,796,69.2,86,73.7,"VEGREVILLE/MINBURN COUNTY","CENTRAL"
"Z3.6.A.03","All age years",10314,5569,54,1556,15.1,54,8.9,"VEGREVILLE/MINBURN COUNTY","CENTRAL"
"Z3.6.B.04","12-19 years",3955,895,22.6,2,0.1,46.5,0.5,"VERMILION RIVER COUNTY","CENTRAL"
"Z3.6.B.04","20-39 years",10018,2223,22.2,121,1.2,51.3,4,"VERMILION RIVER COUNTY","CENTRAL"
"Z3.6.B.04","40-59 years",9494,2248,23.7,157,1.7,66.6,5.6,"VERMILION RIVER COUNTY","CENTRAL"
"Z3.6.B.04","60-74 years",5524,2609,47.2,441,8,80.4,12.9,"VERMILION RIVER COUNTY","CENTRAL"
"Z3.6.B.04","75+ years",2355,1446,61.4,937,39.8,86,73.7,"VERMILION RIVER COUNTY","CENTRAL"
"Z3.6.B.04","All age years",36913,9463,25.6,1658,4.5,54,8.9,"VERMILION RIVER COUNTY","CENTRAL"
"Z3.7.A.01","12-19 years",3526,1403,39.8,15,0.4,46.5,0.5,"RED DEER - NORTH","CENTRAL"
"Z3.7.A.01","20-39 years",10995,4409,40.1,380,3.5,51.3,4,"RED DEER - NORTH","CENTRAL"
"Z3.7.A.01","40-59 years",9039,5438,60.2,586,6.5,66.6,5.6,"RED DEER - NORTH","CENTRAL"
"Z3.7.A.01","60-74 years",4945,3867,78.2,769,15.6,80.4,12.9,"RED DEER - NORTH","CENTRAL"
"Z3.7.A.01","75+ years",1736,1521,87.6,1306,75.2,86,73.7,"RED DEER - NORTH","CENTRAL"
"Z3.7.A.01","All age years",35527,16703,47,3056,8.6,54,8.9,"RED DEER - NORTH","CENTRAL"
"Z3.7.B.02","12-19 years",1042,379,36.4,2,0.2,46.5,0.5,"RED DEER - SW","CENTRAL"
"Z3.7.B.02","20-39 years",4840,1937,40,171,3.5,51.3,4,"RED DEER - SW","CENTRAL"
"Z3.7.B.02","40-59 years",4125,2200,53.3,191,4.6,66.6,5.6,"RED DEER - SW","CENTRAL"
"Z3.7.B.02","60-74 years",2684,1956,72.9,324,12.1,80.4,12.9,"RED DEER - SW","CENTRAL"
"Z3.7.B.02","75+ years",1253,997,79.5,775,61.8,86,73.7,"RED DEER - SW","CENTRAL"
"Z3.7.B.02","All age years",15728,7480,47.6,1463,9.3,54,8.9,"RED DEER - SW","CENTRAL"
"Z3.7.C.03","12-19 years",5734,2866,50,37,0.6,46.5,0.5,"RED DEER - EAST","CENTRAL"
"Z3.7.C.03","20-39 years",15630,7678,49.1,901,5.8,51.3,4,"RED DEER - EAST","CENTRAL"
"Z3.7.C.03","40-59 years",14810,9733,65.7,1133,7.7,66.6,5.6,"RED DEER - EAST","CENTRAL"
"Z3.7.C.03","60-74 years",8147,6676,81.9,1400,17.2,80.4,12.9,"RED DEER - EAST","CENTRAL"
"Z3.7.C.03","75+ years",3166,2743,86.7,2276,71.9,86,73.7,"RED DEER - EAST","CENTRAL"
"Z3.7.C.03","All age years",55457,29830,53.8,5747,10.4,54,8.9,"RED DEER - EAST","CENTRAL"
"Z4.1.A.01","12-19 years",3211,1429,44.5,8,0.2,46.5,0.5,"EDMONTON - WOODCROFT EAST","EDMONTON"
"Z4.1.A.01","20-39 years",22826,11814,51.8,972,4.3,51.3,4,"EDMONTON - WOODCROFT EAST","EDMONTON"
"Z4.1.A.01","40-59 years",15891,10039,63.2,772,4.9,66.6,5.6,"EDMONTON - WOODCROFT EAST","EDMONTON"
"Z4.1.A.01","60-74 years",8756,6906,78.9,1244,14.2,80.4,12.9,"EDMONTON - WOODCROFT EAST","EDMONTON"
"Z4.1.A.01","75+ years",3772,3250,86.2,2770,73.4,86,73.7,"EDMONTON - WOODCROFT EAST","EDMONTON"
"Z4.1.A.01","All age years",60961,33501,55,5766,9.5,54,8.9,"EDMONTON - WOODCROFT EAST","EDMONTON"
"Z4.1.B.02","12-19 years",2575,1474,57.2,21,0.8,46.5,0.5,"EDMONTON - WOODCROFT WEST","EDMONTON"
"Z4.1.B.02","20-39 years",10005,5802,58,562,5.6,51.3,4,"EDMONTON - WOODCROFT WEST","EDMONTON"
"Z4.1.B.02","40-59 years",8882,6311,71.1,529,6,66.6,5.6,"EDMONTON - WOODCROFT WEST","EDMONTON"
"Z4.1.B.02","60-74 years",5169,4177,80.8,595,11.5,80.4,12.9,"EDMONTON - WOODCROFT WEST","EDMONTON"
"Z4.1.B.02","75+ years",1867,1671,89.5,1433,76.8,86,73.7,"EDMONTON - WOODCROFT WEST","EDMONTON"
"Z4.1.B.02","All age years",33412,19503,58.4,3140,9.4,54,8.9,"EDMONTON - WOODCROFT WEST","EDMONTON"
"Z4.1.C.03","12-19 years",3971,1917,48.3,11,0.3,46.5,0.5,"EDMONTON - JASPER PLACE","EDMONTON"
"Z4.1.C.03","20-39 years",13813,6896,49.9,526,3.8,51.3,4,"EDMONTON - JASPER PLACE","EDMONTON"
"Z4.1.C.03","40-59 years",12382,8051,65,688,5.6,66.6,5.6,"EDMONTON - JASPER PLACE","EDMONTON"
"Z4.1.C.03","60-74 years",7061,5490,77.8,865,12.3,80.4,12.9,"EDMONTON - JASPER PLACE","EDMONTON"
"Z4.1.C.03","75+ years",3864,3236,83.7,2820,73,86,73.7,"EDMONTON - JASPER PLACE","EDMONTON"
"Z4.1.C.03","All age years",47017,25671,54.6,4910,10.4,54,8.9,"EDMONTON - JASPER PLACE","EDMONTON"
"Z4.1.D.04","12-19 years",10087,6188,61.3,53,0.5,46.5,0.5,"EDMONTON - WEST JASPER PLACE","EDMONTON"
"Z4.1.D.04","20-39 years",30189,19689,65.2,1972,6.5,51.3,4,"EDMONTON - WEST JASPER PLACE","EDMONTON"
"Z4.1.D.04","40-59 years",28265,21819,77.2,2299,8.1,66.6,5.6,"EDMONTON - WEST JASPER PLACE","EDMONTON"
"Z4.1.D.04","60-74 years",15334,13390,87.3,2542,16.6,80.4,12.9,"EDMONTON - WEST JASPER PLACE","EDMONTON"
"Z4.1.D.04","75+ years",5222,4731,90.6,4170,79.9,86,73.7,"EDMONTON - WEST JASPER PLACE","EDMONTON"
"Z4.1.D.04","All age years",105899,66169,62.5,11036,10.4,54,8.9,"EDMONTON - WEST JASPER PLACE","EDMONTON"
"Z4.2.A.01","12-19 years",7507,3609,48.1,33,0.4,46.5,0.5,"EDMONTON - CASTLE DOWNS","EDMONTON"
"Z4.2.A.01","20-39 years",21000,11343,54,968,4.6,51.3,4,"EDMONTON - CASTLE DOWNS","EDMONTON"
"Z4.2.A.01","40-59 years",18520,12901,69.7,1236,6.7,66.6,5.6,"EDMONTON - CASTLE DOWNS","EDMONTON"
"Z4.2.A.01","60-74 years",9725,8319,85.5,1312,13.5,80.4,12.9,"EDMONTON - CASTLE DOWNS","EDMONTON"
"Z4.2.A.01","75+ years",3652,3298,90.3,2837,77.7,86,73.7,"EDMONTON - CASTLE DOWNS","EDMONTON"
"Z4.2.A.01","All age years",72888,39617,54.4,6386,8.8,54,8.9,"EDMONTON - CASTLE DOWNS","EDMONTON"
"Z4.2.B.02","12-19 years",8007,3476,43.4,33,0.4,46.5,0.5,"EDMONTON - NORTHGATE","EDMONTON"
"Z4.2.B.02","20-39 years",24147,11866,49.1,932,3.9,51.3,4,"EDMONTON - NORTHGATE","EDMONTON"
"Z4.2.B.02","40-59 years",20985,14188,67.6,1133,5.4,66.6,5.6,"EDMONTON - NORTHGATE","EDMONTON"
"Z4.2.B.02","60-74 years",11806,9826,83.2,1502,12.7,80.4,12.9,"EDMONTON - NORTHGATE","EDMONTON"
"Z4.2.B.02","75+ years",6303,5393,85.6,4702,74.6,86,73.7,"EDMONTON - NORTHGATE","EDMONTON"
"Z4.2.B.02","All age years",83649,44878,53.7,8302,9.9,54,8.9,"EDMONTON - NORTHGATE","EDMONTON"
"Z4.2.C.03","12-19 years",4307,1673,38.8,13,0.3,46.5,0.5,"EDMONTON - EASTWOOD","EDMONTON"
"Z4.2.C.03","20-39 years",26510,12385,46.7,886,3.3,51.3,4,"EDMONTON - EASTWOOD","EDMONTON"
"Z4.2.C.03","40-59 years",19970,11905,59.6,843,4.2,66.6,5.6,"EDMONTON - EASTWOOD","EDMONTON"
"Z4.2.C.03","60-74 years",10711,8202,76.6,1319,12.3,80.4,12.9,"EDMONTON - EASTWOOD","EDMONTON"
"Z4.2.C.03","75+ years",3548,2910,82,2326,65.6,86,73.7,"EDMONTON - EASTWOOD","EDMONTON"
"Z4.2.C.03","All age years",72146,37130,51.5,5387,7.5,54,8.9,"EDMONTON - EASTWOOD","EDMONTON"
"Z4.2.D.04","12-19 years",1448,502,34.7,4,0.3,46.5,0.5,"EDMONTON - ABBOTTSFIELD","EDMONTON"
"Z4.2.D.04","20-39 years",4154,1600,38.5,93,2.2,51.3,4,"EDMONTON - ABBOTTSFIELD","EDMONTON"
"Z4.2.D.04","40-59 years",3716,2227,59.9,129,3.5,66.6,5.6,"EDMONTON - ABBOTTSFIELD","EDMONTON"
"Z4.2.D.04","60-74 years",2072,1649,79.6,181,8.7,80.4,12.9,"EDMONTON - ABBOTTSFIELD","EDMONTON"
"Z4.2.D.04","75+ years",904,780,86.3,690,76.4,86,73.7,"EDMONTON - ABBOTTSFIELD","EDMONTON"
"Z4.2.D.04","All age years",14626,6771,46.3,1097,7.5,54,8.9,"EDMONTON - ABBOTTSFIELD","EDMONTON"
"Z4.2.E.05","12-19 years",8598,3528,41,25,0.3,46.5,0.5,"EDMONTON - NE","EDMONTON"
"Z4.2.E.05","20-39 years",29610,14191,47.9,1023,3.5,51.3,4,"EDMONTON - NE","EDMONTON"
"Z4.2.E.05","40-59 years",22717,15333,67.5,1179,5.2,66.6,5.6,"EDMONTON - NE","EDMONTON"
"Z4.2.E.05","60-74 years",11802,9803,83.1,1287,10.9,80.4,12.9,"EDMONTON - NE","EDMONTON"
"Z4.2.E.05","75+ years",3822,3238,84.7,2731,71.4,86,73.7,"EDMONTON - NE","EDMONTON"
"Z4.2.E.05","All age years",92441,46255,50,6245,6.8,54,8.9,"EDMONTON - NE","EDMONTON"
"Z4.3.A.01","12-19 years",6408,3581,55.9,32,0.5,46.5,0.5,"EDMONTON - BONNIE DOON","EDMONTON"
"Z4.3.A.01","20-39 years",36077,22602,62.6,1902,5.3,51.3,4,"EDMONTON - BONNIE DOON","EDMONTON"
"Z4.3.A.01","40-59 years",23324,17139,73.5,1394,6,66.6,5.6,"EDMONTON - BONNIE DOON","EDMONTON"
"Z4.3.A.01","60-74 years",14526,12386,85.3,1838,12.7,80.4,12.9,"EDMONTON - BONNIE DOON","EDMONTON"
"Z4.3.A.01","75+ years",6878,6003,87.3,5189,75.4,86,73.7,"EDMONTON - BONNIE DOON","EDMONTON"
"Z4.3.A.01","All age years",96846,61895,63.9,10356,10.7,54,8.9,"EDMONTON - BONNIE DOON","EDMONTON"
"Z4.3.B.02","12-19 years",5166,2440,47.2,13,0.3,46.5,0.5,"EDMONTON - MILL WOODS WEST","EDMONTON"
"Z4.3.B.02","20-39 years",15647,8078,51.6,479,3.1,51.3,4,"EDMONTON - MILL WOODS WEST","EDMONTON"
"Z4.3.B.02","40-59 years",12266,8744,71.3,610,5,66.6,5.6,"EDMONTON - MILL WOODS WEST","EDMONTON"
"Z4.3.B.02","60-74 years",7650,6534,85.4,869,11.4,80.4,12.9,"EDMONTON - MILL WOODS WEST","EDMONTON"
"Z4.3.B.02","75+ years",3071,2551,83.1,2207,71.9,86,73.7,"EDMONTON - MILL WOODS WEST","EDMONTON"
"Z4.3.B.02","All age years",51075,28443,55.7,4178,8.2,54,8.9,"EDMONTON - MILL WOODS WEST","EDMONTON"
"Z4.3.C.03","12-19 years",8519,4523,53.1,22,0.3,46.5,0.5,"EDMONTON - MILL WOODS SOUTH & EAST","EDMONTON"
"Z4.3.C.03","20-39 years",30309,17335,57.2,1101,3.6,51.3,4,"EDMONTON - MILL WOODS SOUTH & EAST","EDMONTON"
"Z4.3.C.03","40-59 years",21108,15775,74.7,1198,5.7,66.6,5.6,"EDMONTON - MILL WOODS SOUTH & EAST","EDMONTON"
"Z4.3.C.03","60-74 years",10657,9288,87.2,1059,9.9,80.4,12.9,"EDMONTON - MILL WOODS SOUTH & EAST","EDMONTON"
"Z4.3.C.03","75+ years",2699,2294,85,1789,66.3,86,73.7,"EDMONTON - MILL WOODS SOUTH & EAST","EDMONTON"
"Z4.3.C.03","All age years",87320,49413,56.6,5169,5.9,54,8.9,"EDMONTON - MILL WOODS SOUTH & EAST","EDMONTON"
"Z4.4.A.01","12-19 years",3555,1972,55.5,18,0.5,46.5,0.5,"EDMONTON - DUGGAN","EDMONTON"
"Z4.4.A.01","20-39 years",13169,8006,60.8,546,4.1,51.3,4,"EDMONTON - DUGGAN","EDMONTON"
"Z4.4.A.01","40-59 years",9691,7215,74.4,575,5.9,66.6,5.6,"EDMONTON - DUGGAN","EDMONTON"
"Z4.4.A.01","60-74 years",5017,4381,87.3,766,15.3,80.4,12.9,"EDMONTON - DUGGAN","EDMONTON"
"Z4.4.A.01","75+ years",3348,2830,84.5,2611,78,86,73.7,"EDMONTON - DUGGAN","EDMONTON"
"Z4.4.A.01","All age years",39991,24485,61.2,4516,11.3,54,8.9,"EDMONTON - DUGGAN","EDMONTON"
"Z4.4.B.02","12-19 years",7692,5466,71.1,51,0.7,46.5,0.5,"EDMONTON - TWIN BROOKS","EDMONTON"
"Z4.4.B.02","20-39 years",19619,13017,66.4,1208,6.2,51.3,4,"EDMONTON - TWIN BROOKS","EDMONTON"
"Z4.4.B.02","40-59 years",20634,16448,79.7,1822,8.8,66.6,5.6,"EDMONTON - TWIN BROOKS","EDMONTON"
"Z4.4.B.02","60-74 years",12898,11215,87,2463,19.1,80.4,12.9,"EDMONTON - TWIN BROOKS","EDMONTON"
"Z4.4.B.02","75+ years",5687,5207,91.6,4813,84.6,86,73.7,"EDMONTON - TWIN BROOKS","EDMONTON"
"Z4.4.B.02","All age years",76379,51671,67.7,10358,13.6,54,8.9,"EDMONTON - TWIN BROOKS","EDMONTON"
"Z4.4.C.03","12-19 years",10367,5967,57.6,49,0.5,46.5,0.5,"EDMONTON - RUTHERFORD","EDMONTON"
"Z4.4.C.03","20-39 years",43114,27032,62.7,2518,5.8,51.3,4,"EDMONTON - RUTHERFORD","EDMONTON"
"Z4.4.C.03","40-59 years",29525,21832,73.9,2193,7.4,66.6,5.6,"EDMONTON - RUTHERFORD","EDMONTON"
"Z4.4.C.03","60-74 years",10000,8289,82.9,1280,12.8,80.4,12.9,"EDMONTON - RUTHERFORD","EDMONTON"
"Z4.4.C.03","75+ years",2703,2359,87.3,2008,74.3,86,73.7,"EDMONTON - RUTHERFORD","EDMONTON"
"Z4.4.C.03","All age years",121276,65858,54.3,8050,6.6,54,8.9,"EDMONTON - RUTHERFORD","EDMONTON"
"Z4.5.A.01","12-19 years",3274,1497,45.7,16,0.5,46.5,0.5,"STURGEON COUNTY WEST","EDMONTON"
"Z4.5.A.01","20-39 years",7904,3711,47,293,3.7,51.3,4,"STURGEON COUNTY WEST","EDMONTON"
"Z4.5.A.01","40-59 years",7824,5182,66.2,410,5.2,66.6,5.6,"STURGEON COUNTY WEST","EDMONTON"
"Z4.5.A.01","60-74 years",4898,3817,77.9,687,14,80.4,12.9,"STURGEON COUNTY WEST","EDMONTON"
"Z4.5.A.01","75+ years",1364,1211,88.8,1034,75.8,86,73.7,"STURGEON COUNTY WEST","EDMONTON"
"Z4.5.A.01","All age years",30338,15487,51,2440,8,54,8.9,"STURGEON COUNTY WEST","EDMONTON"
"Z4.5.B.02","12-19 years",700,268,38.3,3,0.4,46.5,0.5,"STURGEON COUNTY EAST","EDMONTON"
"Z4.5.B.02","20-39 years",1561,717,45.9,50,3.2,51.3,4,"STURGEON COUNTY EAST","EDMONTON"
"Z4.5.B.02","40-59 years",1775,1114,62.8,76,4.3,66.6,5.6,"STURGEON COUNTY EAST","EDMONTON"
"Z4.5.B.02","60-74 years",971,799,82.3,68,7,80.4,12.9,"STURGEON COUNTY EAST","EDMONTON"
"Z4.5.B.02","75+ years",275,241,87.5,193,70.1,86,73.7,"STURGEON COUNTY EAST","EDMONTON"
"Z4.5.B.02","All age years",6165,3159,51.2,390,6.3,54,8.9,"STURGEON COUNTY EAST","EDMONTON"
"Z4.5.B.03","12-19 years",2518,1164,46.2,2,0.1,46.5,0.5,"FORT SASKATCHEWAN","EDMONTON"
"Z4.5.B.03","20-39 years",8454,4216,49.9,257,3,51.3,4,"FORT SASKATCHEWAN","EDMONTON"
"Z4.5.B.03","40-59 years",6752,4482,66.4,305,4.5,66.6,5.6,"FORT SASKATCHEWAN","EDMONTON"
"Z4.5.B.03","60-74 years",3718,3079,82.8,379,10.2,80.4,12.9,"FORT SASKATCHEWAN","EDMONTON"
"Z4.5.B.03","75+ years",1380,1287,93.3,1118,81,86,73.7,"FORT SASKATCHEWAN","EDMONTON"
"Z4.5.B.03","All age years",27437,14289,52.1,2061,7.5,54,8.9,"FORT SASKATCHEWAN","EDMONTON"
"Z4.6.A.01","12-19 years",8684,5122,59,50,0.6,46.5,0.5,"SHERWOOD PARK","EDMONTON"
"Z4.6.A.01","20-39 years",20531,12898,62.8,1026,5,51.3,4,"SHERWOOD PARK","EDMONTON"
"Z4.6.A.01","40-59 years",22884,17651,77.1,1352,5.9,66.6,5.6,"SHERWOOD PARK","EDMONTON"
"Z4.6.A.01","60-74 years",13855,12174,87.9,1986,14.3,80.4,12.9,"SHERWOOD PARK","EDMONTON"
"Z4.6.A.01","75+ years",6008,5550,92.4,5181,86.2,86,73.7,"SHERWOOD PARK","EDMONTON"
"Z4.6.A.01","All age years",82764,53672,64.8,9595,11.6,54,8.9,"SHERWOOD PARK","EDMONTON"
"Z4.6.B.02","12-19 years",1792,845,47.2,9,0.5,46.5,0.5,"STRATHCONA COUNTY EXCLUDING SHERWOOD PARK","EDMONTON"
"Z4.6.B.02","20-39 years",4048,2100,51.9,178,4.4,51.3,4,"STRATHCONA COUNTY EXCLUDING SHERWOOD PARK","EDMONTON"
"Z4.6.B.02","40-59 years",5056,3469,68.6,234,4.6,66.6,5.6,"STRATHCONA COUNTY EXCLUDING SHERWOOD PARK","EDMONTON"
"Z4.6.B.02","60-74 years",3684,2998,81.4,385,10.4,80.4,12.9,"STRATHCONA COUNTY EXCLUDING SHERWOOD PARK","EDMONTON"
"Z4.6.B.02","75+ years",890,755,84.8,652,73.3,86,73.7,"STRATHCONA COUNTY EXCLUDING SHERWOOD PARK","EDMONTON"
"Z4.6.B.02","All age years",17456,10206,58.5,1458,8.4,54,8.9,"STRATHCONA COUNTY EXCLUDING SHERWOOD PARK","EDMONTON"
"Z4.7.A.01","12-19 years",2927,1432,48.9,6,0.2,46.5,0.5,"BEAUMONT","EDMONTON"
"Z4.7.A.01","20-39 years",7019,3897,55.5,279,4,51.3,4,"BEAUMONT","EDMONTON"
"Z4.7.A.01","40-59 years",7153,4986,69.7,303,4.2,66.6,5.6,"BEAUMONT","EDMONTON"
"Z4.7.A.01","60-74 years",3649,3029,83,421,11.5,80.4,12.9,"BEAUMONT","EDMONTON"
"Z4.7.A.01","75+ years",845,736,87.1,623,73.7,86,73.7,"BEAUMONT","EDMONTON"
"Z4.7.A.01","All age years",26562,14179,53.4,1632,6.1,54,8.9,"BEAUMONT","EDMONTON"
"Z4.7.A.02","12-19 years",4242,1816,42.8,9,0.2,46.5,0.5,"LEDUC & DEVON","EDMONTON"
"Z4.7.A.02","20-39 years",12378,5814,47,421,3.4,51.3,4,"LEDUC & DEVON","EDMONTON"
"Z4.7.A.02","40-59 years",11145,7215,64.7,465,4.2,66.6,5.6,"LEDUC & DEVON","EDMONTON"
"Z4.7.A.02","60-74 years",6224,5175,83.1,767,12.3,80.4,12.9,"LEDUC & DEVON","EDMONTON"
"Z4.7.A.02","75+ years",2473,2210,89.4,1877,75.9,86,73.7,"LEDUC & DEVON","EDMONTON"
"Z4.7.A.02","All age years",43727,22341,51.1,3539,8.1,54,8.9,"LEDUC & DEVON","EDMONTON"
"Z4.7.A.03","12-19 years",816,232,28.4,4,0.5,46.5,0.5,"THORSBY","EDMONTON"
"Z4.7.A.03","20-39 years",2166,740,34.2,38,1.8,51.3,4,"THORSBY","EDMONTON"
"Z4.7.A.03","40-59 years",2460,1246,50.7,71,2.9,66.6,5.6,"THORSBY","EDMONTON"
"Z4.7.A.03","60-74 years",1870,1366,73.1,138,7.4,80.4,12.9,"THORSBY","EDMONTON"
"Z4.7.A.03","75+ years",616,515,83.6,355,57.6,86,73.7,"THORSBY","EDMONTON"
"Z4.7.A.03","All age years",9168,4106,44.8,606,6.6,54,8.9,"THORSBY","EDMONTON"
"Z4.8.A.01","12-19 years",5778,2669,46.2,16,0.3,46.5,0.5,"STONY PLAIN & SPRUCE GROVE","EDMONTON"
"Z4.8.A.01","20-39 years",16423,8051,49,648,3.9,51.3,4,"STONY PLAIN & SPRUCE GROVE","EDMONTON"
"Z4.8.A.01","40-59 years",14423,9730,67.5,738,5.1,66.6,5.6,"STONY PLAIN & SPRUCE GROVE","EDMONTON"
"Z4.8.A.01","60-74 years",8330,7083,85,1155,13.9,80.4,12.9,"STONY PLAIN & SPRUCE GROVE","EDMONTON"
"Z4.8.A.01","75+ years",3448,3171,92,2831,82.1,86,73.7,"STONY PLAIN & SPRUCE GROVE","EDMONTON"
"Z4.8.A.01","All age years",57619,30833,53.5,5388,9.4,54,8.9,"STONY PLAIN & SPRUCE GROVE","EDMONTON"
"Z4.8.B.02","12-19 years",4055,1373,33.9,5,0.1,46.5,0.5,"WESTVIEW EXCLUDING STONY PLAIN & SPRUCE GROVE","EDMONTON"
"Z4.8.B.02","20-39 years",8579,3200,37.3,233,2.7,51.3,4,"WESTVIEW EXCLUDING STONY PLAIN & SPRUCE GROVE","EDMONTON"
"Z4.8.B.02","40-59 years",10710,5941,55.5,420,3.9,66.6,5.6,"WESTVIEW EXCLUDING STONY PLAIN & SPRUCE GROVE","EDMONTON"
"Z4.8.B.02","60-74 years",7655,5483,71.6,836,10.9,80.4,12.9,"WESTVIEW EXCLUDING STONY PLAIN & SPRUCE GROVE","EDMONTON"
"Z4.8.B.02","75+ years",2287,1786,78.1,1431,62.6,86,73.7,"WESTVIEW EXCLUDING STONY PLAIN & SPRUCE GROVE","EDMONTON"
"Z4.8.B.02","All age years",38491,17848,46.4,2925,7.6,54,8.9,"WESTVIEW EXCLUDING STONY PLAIN & SPRUCE GROVE","EDMONTON"
"Z4.9.A.01","12-19 years",7062,4469,63.3,53,0.8,46.5,0.5,"ST. ALBERT","EDMONTON"
"Z4.9.A.01","20-39 years",17052,10908,64,1009,5.9,51.3,4,"ST. ALBERT","EDMONTON"
"Z4.9.A.01","40-59 years",18691,14812,79.2,1525,8.2,66.6,5.6,"ST. ALBERT","EDMONTON"
"Z4.9.A.01","60-74 years",12567,11163,88.8,2441,19.4,80.4,12.9,"ST. ALBERT","EDMONTON"
"Z4.9.A.01","75+ years",5555,5074,91.3,4729,85.1,86,73.7,"ST. ALBERT","EDMONTON"
"Z4.9.A.01","All age years",70159,46726,66.6,9757,13.9,54,8.9,"ST. ALBERT","EDMONTON"
"Z5.1.A.01","12-19 years",337,198,58.8,0,0,46.5,0.5,"JASPER","NORTH"
"Z5.1.A.01","20-39 years",2424,1128,46.5,56,2.3,51.3,4,"JASPER","NORTH"
"Z5.1.A.01","40-59 years",1522,1113,73.1,65,4.3,66.6,5.6,"JASPER","NORTH"
"Z5.1.A.01","60-74 years",716,603,84.2,41,5.7,80.4,12.9,"JASPER","NORTH"
"Z5.1.A.01","75+ years",190,165,86.7,156,81.9,86,73.7,"JASPER","NORTH"
"Z5.1.A.01","All age years",5718,3213,56.2,318,5.6,54,8.9,"JASPER","NORTH"
"Z5.1.A.02","12-19 years",1161,439,37.8,1,0.1,46.5,0.5,"HINTON","NORTH"
"Z5.1.A.02","20-39 years",3631,1593,43.9,103,2.8,51.3,4,"HINTON","NORTH"
"Z5.1.A.02","40-59 years",3288,2001,60.9,124,3.8,66.6,5.6,"HINTON","NORTH"
"Z5.1.A.02","60-74 years",1941,1487,76.6,94,4.8,80.4,12.9,"HINTON","NORTH"
"Z5.1.A.02","75+ years",576,499,86.6,333,57.8,86,73.7,"HINTON","NORTH"
"Z5.1.A.02","All age years",12354,6035,48.9,655,5.3,54,8.9,"HINTON","NORTH"
"Z5.1.A.03","12-19 years",1620,509,31.4,6,0.4,46.5,0.5,"EDSON","NORTH"
"Z5.1.A.03","20-39 years",4437,1633,36.8,116,2.6,51.3,4,"EDSON","NORTH"
"Z5.1.A.03","40-59 years",4339,2364,54.5,152,3.5,66.6,5.6,"EDSON","NORTH"
"Z5.1.A.03","60-74 years",2565,1952,76.1,227,8.8,80.4,12.9,"EDSON","NORTH"
"Z5.1.A.03","75+ years",816,663,81.3,498,61,86,73.7,"EDSON","NORTH"
"Z5.1.A.03","All age years",16076,7132,44.4,999,6.2,54,8.9,"EDSON","NORTH"
"Z5.1.B.04","12-19 years",1606,524,32.6,4,0.2,46.5,0.5,"WHITECOURT","NORTH"
"Z5.1.B.04","20-39 years",4227,1454,34.4,79,1.9,51.3,4,"WHITECOURT","NORTH"
"Z5.1.B.04","40-59 years",4202,2274,54.1,110,2.6,66.6,5.6,"WHITECOURT","NORTH"
"Z5.1.B.04","60-74 years",1938,1396,72,141,7.3,80.4,12.9,"WHITECOURT","NORTH"
"Z5.1.B.04","75+ years",463,390,84.2,331,71.5,86,73.7,"WHITECOURT","NORTH"
"Z5.1.B.04","All age years",14757,6066,41.1,665,4.5,54,8.9,"WHITECOURT","NORTH"
"Z5.1.B.05","12-19 years",1446,395,27.3,12,0.8,46.5,0.5,"MAYERTHORPE","NORTH"
"Z5.1.B.05","20-39 years",3558,1169,32.9,154,4.3,51.3,4,"MAYERTHORPE","NORTH"
"Z5.1.B.05","40-59 years",4434,2174,49,240,5.4,66.6,5.6,"MAYERTHORPE","NORTH"
"Z5.1.B.05","60-74 years",3468,2609,75.2,372,10.7,80.4,12.9,"MAYERTHORPE","NORTH"
"Z5.1.B.05","75+ years",1252,965,77.1,794,63.4,86,73.7,"MAYERTHORPE","NORTH"
"Z5.1.B.05","All age years",16160,7330,45.4,1572,9.7,54,8.9,"MAYERTHORPE","NORTH"
"Z5.1.C.06","12-19 years",1106,292,26.4,11,1,46.5,0.5,"BARRHEAD","NORTH"
"Z5.1.C.06","20-39 years",2588,813,31.4,89,3.4,51.3,4,"BARRHEAD","NORTH"
"Z5.1.C.06","40-59 years",2469,1320,53.5,123,5,66.6,5.6,"BARRHEAD","NORTH"
"Z5.1.C.06","60-74 years",2082,1590,76.4,258,12.4,80.4,12.9,"BARRHEAD","NORTH"
"Z5.1.C.06","75+ years",1090,921,84.5,770,70.6,86,73.7,"BARRHEAD","NORTH"
"Z5.1.C.06","All age years",10988,4948,45,1251,11.4,54,8.9,"BARRHEAD","NORTH"
"Z5.1.C.07","12-19 years",1872,589,31.5,11,0.6,46.5,0.5,"WESTLOCK","NORTH"
"Z5.1.C.07","20-39 years",4392,1679,38.2,159,3.6,51.3,4,"WESTLOCK","NORTH"
"Z5.1.C.07","40-59 years",4731,2663,56.3,211,4.5,66.6,5.6,"WESTLOCK","NORTH"
"Z5.1.C.07","60-74 years",3987,3077,77.2,472,11.8,80.4,12.9,"WESTLOCK","NORTH"
"Z5.1.C.07","75+ years",1868,1620,86.7,1346,72,86,73.7,"WESTLOCK","NORTH"
"Z5.1.C.07","All age years",19131,9661,50.5,2199,11.5,54,8.9,"WESTLOCK","NORTH"
"Z5.2.A.01","12-19 years",620,120,19.4,4,0.6,46.5,0.5,"FROG LAKE","NORTH"
"Z5.2.A.01","20-39 years",1267,330,26.1,47,3.7,51.3,4,"FROG LAKE","NORTH"
"Z5.2.A.01","40-59 years",1214,479,39.4,74,6.1,66.6,5.6,"FROG LAKE","NORTH"
"Z5.2.A.01","60-74 years",632,415,65.7,178,28.2,80.4,12.9,"FROG LAKE","NORTH"
"Z5.2.A.01","75+ years",297,244,82.2,211,71,86,73.7,"FROG LAKE","NORTH"
"Z5.2.A.01","All age years",4839,1595,33,514,10.6,54,8.9,"FROG LAKE","NORTH"
"Z5.2.A.04","12-19 years",1788,455,25.4,27,1.5,46.5,0.5,"ST. PAUL","NORTH"
"Z5.2.A.04","20-39 years",4133,1246,30.1,171,4.1,51.3,4,"ST. PAUL","NORTH"
"Z5.2.A.04","40-59 years",3501,1658,47.4,272,7.8,66.6,5.6,"ST. PAUL","NORTH"
"Z5.2.A.04","60-74 years",2365,1613,68.2,657,27.8,80.4,12.9,"ST. PAUL","NORTH"
"Z5.2.A.04","75+ years",1026,848,82.7,771,75.2,86,73.7,"ST. PAUL","NORTH"
"Z5.2.A.04","All age years",15524,5832,37.6,1898,12.2,54,8.9,"ST. PAUL","NORTH"
"Z5.2.A.05","12-19 years",383,110,28.8,2,0.5,46.5,0.5,"SMOKY LAKE","NORTH"
"Z5.2.A.05","20-39 years",965,326,33.8,40,4.1,51.3,4,"SMOKY LAKE","NORTH"
"Z5.2.A.05","40-59 years",1229,615,50,106,8.6,66.6,5.6,"SMOKY LAKE","NORTH"
"Z5.2.A.05","60-74 years",1112,806,72.5,380,34.2,80.4,12.9,"SMOKY LAKE","NORTH"
"Z5.2.A.05","75+ years",577,475,82.4,426,73.9,86,73.7,"SMOKY LAKE","NORTH"
"Z5.2.A.05","All age years",4764,2335,49,954,20,54,8.9,"SMOKY LAKE","NORTH"
"Z5.2.B.02","12-19 years",2400,884,36.8,6,0.2,46.5,0.5,"COLD LAKE","NORTH"
"Z5.2.B.02","20-39 years",6341,2548,40.2,225,3.5,51.3,4,"COLD LAKE","NORTH"
"Z5.2.B.02","40-59 years",5179,3028,58.5,264,5.1,66.6,5.6,"COLD LAKE","NORTH"
"Z5.2.B.02","60-74 years",2281,1777,77.9,239,10.5,80.4,12.9,"COLD LAKE","NORTH"
"Z5.2.B.02","75+ years",698,608,87.1,522,74.8,86,73.7,"COLD LAKE","NORTH"
"Z5.2.B.02","All age years",20916,8888,42.5,1256,6,54,8.9,"COLD LAKE","NORTH"
"Z5.2.B.03","12-19 years",1863,563,30.2,8,0.4,46.5,0.5,"BONNYVILLE","NORTH"
"Z5.2.B.03","20-39 years",4504,1403,31.2,135,3,51.3,4,"BONNYVILLE","NORTH"
"Z5.2.B.03","40-59 years",4373,2186,50,204,4.7,66.6,5.6,"BONNYVILLE","NORTH"
"Z5.2.B.03","60-74 years",2373,1601,67.5,296,12.5,80.4,12.9,"BONNYVILLE","NORTH"
"Z5.2.B.03","75+ years",869,678,78,594,68.4,86,73.7,"BONNYVILLE","NORTH"
"Z5.2.B.03","All age years",16642,6454,38.8,1237,7.4,54,8.9,"BONNYVILLE","NORTH"
"Z5.2.C.06","12-19 years",291,77,26.4,1,0.3,46.5,0.5,"BOYLE","NORTH"
"Z5.2.C.06","20-39 years",855,246,28.8,24,2.8,51.3,4,"BOYLE","NORTH"
"Z5.2.C.06","40-59 years",931,451,48.5,56,6,66.6,5.6,"BOYLE","NORTH"
"Z5.2.C.06","60-74 years",767,547,71.3,218,28.4,80.4,12.9,"BOYLE","NORTH"
"Z5.2.C.06","75+ years",285,223,78.3,198,69.5,86,73.7,"BOYLE","NORTH"
"Z5.2.C.06","All age years",3587,1548,43.2,497,13.9,54,8.9,"BOYLE","NORTH"
"Z5.2.C.07","12-19 years",1019,407,40,8,0.8,46.5,0.5,"ATHABASCA","NORTH"
"Z5.2.C.07","20-39 years",2402,959,39.9,90,3.7,51.3,4,"ATHABASCA","NORTH"
"Z5.2.C.07","40-59 years",2925,1666,57,211,7.2,66.6,5.6,"ATHABASCA","NORTH"
"Z5.2.C.07","60-74 years",2160,1722,79.7,338,15.7,80.4,12.9,"ATHABASCA","NORTH"
"Z5.2.C.07","75+ years",880,763,86.7,666,75.7,86,73.7,"ATHABASCA","NORTH"
"Z5.2.C.07","All age years",10660,5551,52.1,1313,12.3,54,8.9,"ATHABASCA","NORTH"
"Z5.2.C.08","12-19 years",1143,344,30.1,3,0.3,46.5,0.5,"LAC LA BICHE","NORTH"
"Z5.2.C.08","20-39 years",2845,979,34.4,123,4.3,51.3,4,"LAC LA BICHE","NORTH"
"Z5.2.C.08","40-59 years",2666,1487,55.8,241,9,66.6,5.6,"LAC LA BICHE","NORTH"
"Z5.2.C.08","60-74 years",1541,1132,73.5,466,30.2,80.4,12.9,"LAC LA BICHE","NORTH"
"Z5.2.C.08","75+ years",562,473,84.2,387,68.9,86,73.7,"LAC LA BICHE","NORTH"
"Z5.2.C.08","All age years",10391,4428,42.6,1220,11.7,54,8.9,"LAC LA BICHE","NORTH"
"Z5.3.A.01","12-19 years",449,118,26.3,1,0.2,46.5,0.5,"GRANDE CACHE","NORTH"
"Z5.3.A.01","20-39 years",1222,344,28.2,38,3.1,51.3,4,"GRANDE CACHE","NORTH"
"Z5.3.A.01","40-59 years",1209,510,42.2,76,6.3,66.6,5.6,"GRANDE CACHE","NORTH"
"Z5.3.A.01","60-74 years",560,410,73.2,206,36.8,80.4,12.9,"GRANDE CACHE","NORTH"
"Z5.3.A.01","75+ years",188,150,79.8,124,65.9,86,73.7,"GRANDE CACHE","NORTH"
"Z5.3.A.01","All age years",4205,1535,36.5,445,10.6,54,8.9,"GRANDE CACHE","NORTH"
"Z5.3.A.02","12-19 years",224,78,34.8,1,0.4,46.5,0.5,"FOX CREEK","NORTH"
"Z5.3.A.02","20-39 years",632,218,34.5,7,1.1,51.3,4,"FOX CREEK","NORTH"
"Z5.3.A.02","40-59 years",704,341,48.5,22,3.1,66.6,5.6,"FOX CREEK","NORTH"
"Z5.3.A.02","60-74 years",329,240,73,39,11.9,80.4,12.9,"FOX CREEK","NORTH"
"Z5.3.A.02","75+ years",63,38,59.9,28,44.1,86,73.7,"FOX CREEK","NORTH"
"Z5.3.A.02","All age years",2270,918,40.4,97,4.3,54,8.9,"FOX CREEK","NORTH"
"Z5.3.A.03","12-19 years",779,122,15.7,4,0.5,46.5,0.5,"VALLEYVIEW","NORTH"
"Z5.3.A.03","20-39 years",1891,513,27.1,138,7.3,51.3,4,"VALLEYVIEW","NORTH"
"Z5.3.A.03","40-59 years",1721,779,45.3,172,10,66.6,5.6,"VALLEYVIEW","NORTH"
"Z5.3.A.03","60-74 years",1210,807,66.7,172,14.2,80.4,12.9,"VALLEYVIEW","NORTH"
"Z5.3.A.03","75+ years",427,325,76.2,272,63.8,86,73.7,"VALLEYVIEW","NORTH"
"Z5.3.A.03","All age years",7258,2549,35.1,758,10.4,54,8.9,"VALLEYVIEW","NORTH"
"Z5.3.A.05","12-19 years",1375,332,24.1,6,0.4,46.5,0.5,"BEAVERLODGE","NORTH"
"Z5.3.A.05","20-39 years",3234,882,27.3,74,2.3,51.3,4,"BEAVERLODGE","NORTH"
"Z5.3.A.05","40-59 years",3023,1422,47,121,4,66.6,5.6,"BEAVERLODGE","NORTH"
"Z5.3.A.05","60-74 years",1876,1323,70.5,157,8.4,80.4,12.9,"BEAVERLODGE","NORTH"
"Z5.3.A.05","75+ years",688,566,82.2,447,65,86,73.7,"BEAVERLODGE","NORTH"
"Z5.3.A.05","All age years",12253,4546,37.1,805,6.6,54,8.9,"BEAVERLODGE","NORTH"
"Z5.3.B.04","12-19 years",2549,838,32.9,4,0.2,46.5,0.5,"GRANDE PRAIRIE COUNTY","NORTH"
"Z5.3.B.04","20-39 years",5723,1869,32.7,111,1.9,51.3,4,"GRANDE PRAIRIE COUNTY","NORTH"
"Z5.3.B.04","40-59 years",5812,2950,50.8,144,2.5,66.6,5.6,"GRANDE PRAIRIE COUNTY","NORTH"
"Z5.3.B.04","60-74 years",2835,1953,68.9,157,5.5,80.4,12.9,"GRANDE PRAIRIE COUNTY","NORTH"
"Z5.3.B.04","75+ years",737,551,74.7,450,61,86,73.7,"GRANDE PRAIRIE COUNTY","NORTH"
"Z5.3.B.04","All age years",21400,8200,38.3,866,4,54,8.9,"GRANDE PRAIRIE COUNTY","NORTH"
"Z5.4.A.01","12-19 years",129,33,25.7,0,0,46.5,0.5,"SWAN HILLS","NORTH"
"Z5.4.A.01","20-39 years",328,101,30.8,5,1.5,51.3,4,"SWAN HILLS","NORTH"
"Z5.4.A.01","40-59 years",464,242,52.1,39,8.4,66.6,5.6,"SWAN HILLS","NORTH"
"Z5.4.A.01","60-74 years",211,169,80.3,101,48,80.4,12.9,"SWAN HILLS","NORTH"
"Z5.4.A.01","75+ years",29,27,94.1,22,76.7,86,73.7,"SWAN HILLS","NORTH"
"Z5.4.A.01","All age years",1356,573,42.3,167,12.3,54,8.9,"SWAN HILLS","NORTH"
"Z5.4.A.02","12-19 years",1302,484,37.2,2,0.2,46.5,0.5,"SLAVE LAKE","NORTH"
"Z5.4.A.02","20-39 years",3462,1233,35.6,114,3.3,51.3,4,"SLAVE LAKE","NORTH"
"Z5.4.A.02","40-59 years",3175,1604,50.5,138,4.3,66.6,5.6,"SLAVE LAKE","NORTH"
"Z5.4.A.02","60-74 years",1354,967,71.4,138,10.2,80.4,12.9,"SLAVE LAKE","NORTH"
"Z5.4.A.02","75+ years",376,268,71.2,224,59.5,86,73.7,"SLAVE LAKE","NORTH"
"Z5.4.A.02","All age years",11804,4577,38.8,616,5.2,54,8.9,"SLAVE LAKE","NORTH"
"Z5.4.A.03","12-19 years",623,44,7.1,16,2.6,46.5,0.5,"WABASCA","NORTH"
"Z5.4.A.03","20-39 years",1169,302,25.8,208,17.8,51.3,4,"WABASCA","NORTH"
"Z5.4.A.03","40-59 years",965,461,47.8,312,32.3,66.6,5.6,"WABASCA","NORTH"
"Z5.4.A.03","60-74 years",444,304,68.5,206,46.4,80.4,12.9,"WABASCA","NORTH"
"Z5.4.A.03","75+ years",98,74,75.2,66,67,86,73.7,"WABASCA","NORTH"
"Z5.4.A.03","All age years",4245,1188,28,808,19,54,8.9,"WABASCA","NORTH"
"Z5.4.A.07","12-19 years",1488,278,18.7,2,0.1,46.5,0.5,"HIGH PRAIRIE","NORTH"
"Z5.4.A.07","20-39 years",2932,731,24.9,83,2.8,51.3,4,"HIGH PRAIRIE","NORTH"
"Z5.4.A.07","40-59 years",2941,1151,39.1,215,7.3,66.6,5.6,"HIGH PRAIRIE","NORTH"
"Z5.4.A.07","60-74 years",1682,1065,63.3,226,13.4,80.4,12.9,"HIGH PRAIRIE","NORTH"
"Z5.4.A.07","75+ years",632,436,69,359,56.8,86,73.7,"HIGH PRAIRIE","NORTH"
"Z5.4.A.07","All age years",11701,3664,31.3,885,7.6,54,8.9,"HIGH PRAIRIE","NORTH"
"Z5.4.B.04","12-19 years",3587,259,7.2,8,0.2,46.5,0.5,"HIGH LEVEL","NORTH"
"Z5.4.B.04","20-39 years",7486,991,13.2,135,1.8,51.3,4,"HIGH LEVEL","NORTH"
"Z5.4.B.04","40-59 years",4646,1191,25.6,156,3.4,66.6,5.6,"HIGH LEVEL","NORTH"
"Z5.4.B.04","60-74 years",1876,578,30.8,78,4.2,80.4,12.9,"HIGH LEVEL","NORTH"
"Z5.4.B.04","75+ years",630,173,27.5,127,20.2,86,73.7,"HIGH LEVEL","NORTH"
"Z5.4.B.04","All age years",25363,3201,12.6,504,2,54,8.9,"HIGH LEVEL","NORTH"
"Z5.4.B.05","12-19 years",360,89,24.7,0,0,46.5,0.5,"MANNING","NORTH"
"Z5.4.B.05","20-39 years",821,206,25.1,36,4.4,51.3,4,"MANNING","NORTH"
"Z5.4.B.05","40-59 years",844,372,44.1,71,8.4,66.6,5.6,"MANNING","NORTH"
"Z5.4.B.05","60-74 years",549,323,58.9,163,29.7,80.4,12.9,"MANNING","NORTH"
"Z5.4.B.05","75+ years",256,201,78.4,176,68.6,86,73.7,"MANNING","NORTH"
"Z5.4.B.05","All age years",3333,1195,35.9,446,13.4,54,8.9,"MANNING","NORTH"
"Z5.4.C.06","12-19 years",2072,569,27.5,4,0.2,46.5,0.5,"PEACE RIVER","NORTH"
"Z5.4.C.06","20-39 years",5318,1744,32.8,235,4.4,51.3,4,"PEACE RIVER","NORTH"
"Z5.4.C.06","40-59 years",4577,2472,54,275,6,66.6,5.6,"PEACE RIVER","NORTH"
"Z5.4.C.06","60-74 years",2673,1951,73,408,15.3,80.4,12.9,"PEACE RIVER","NORTH"
"Z5.4.C.06","75+ years",897,719,80.1,594,66.2,86,73.7,"PEACE RIVER","NORTH"
"Z5.4.C.06","All age years",18659,7476,40.1,1516,8.1,54,8.9,"PEACE RIVER","NORTH"
"Z5.4.D.08","12-19 years",455,127,27.9,0,0,46.5,0.5,"FALHER","NORTH"
"Z5.4.D.08","20-39 years",1166,383,32.8,39,3.3,51.3,4,"FALHER","NORTH"
"Z5.4.D.08","40-59 years",1018,509,50,49,4.8,66.6,5.6,"FALHER","NORTH"
"Z5.4.D.08","60-74 years",789,600,76,55,7,80.4,12.9,"FALHER","NORTH"
"Z5.4.D.08","75+ years",403,346,85.8,311,77.1,86,73.7,"FALHER","NORTH"
"Z5.4.D.08","All age years",4481,1973,44,454,10.1,54,8.9,"FALHER","NORTH"
"Z5.4.D.09","12-19 years",620,134,21.6,0,0,46.5,0.5,"SPIRIT RIVER","NORTH"
"Z5.4.D.09","20-39 years",1446,324,22.4,19,1.3,51.3,4,"SPIRIT RIVER","NORTH"
"Z5.4.D.09","40-59 years",1552,748,48.2,64,4.1,66.6,5.6,"SPIRIT RIVER","NORTH"
"Z5.4.D.09","60-74 years",1137,776,68.3,104,9.2,80.4,12.9,"SPIRIT RIVER","NORTH"
"Z5.4.D.09","75+ years",447,361,80.8,281,62.9,86,73.7,"SPIRIT RIVER","NORTH"
"Z5.4.D.09","All age years",6128,2350,38.4,468,7.6,54,8.9,"SPIRIT RIVER","NORTH"
"Z5.4.D.10","12-19 years",1014,237,23.4,4,0.4,46.5,0.5,"FAIRVIEW","NORTH"
"Z5.4.D.10","20-39 years",1966,515,26.2,72,3.7,51.3,4,"FAIRVIEW","NORTH"
"Z5.4.D.10","40-59 years",1870,859,45.9,101,5.4,66.6,5.6,"FAIRVIEW","NORTH"
"Z5.4.D.10","60-74 years",1314,881,67,246,18.7,80.4,12.9,"FAIRVIEW","NORTH"
"Z5.4.D.10","75+ years",648,502,77.4,408,62.9,86,73.7,"FAIRVIEW","NORTH"
"Z5.4.D.10","All age years",8172,2997,36.7,831,10.2,54,8.9,"FAIRVIEW","NORTH"
"Z5.5.A.01","12-19 years",468,110,23.5,4,0.9,46.5,0.5,"WOOD BUFFALO","NORTH"
"Z5.5.A.01","20-39 years",1168,324,27.8,67,5.7,51.3,4,"WOOD BUFFALO","NORTH"
"Z5.5.A.01","40-59 years",1165,544,46.7,140,12,66.6,5.6,"WOOD BUFFALO","NORTH"
"Z5.5.A.01","60-74 years",507,278,54.8,118,23.3,80.4,12.9,"WOOD BUFFALO","NORTH"
"Z5.5.A.01","75+ years",104,61,58.5,50,48,86,73.7,"WOOD BUFFALO","NORTH"
"Z5.5.A.01","All age years",4097,1323,32.3,379,9.2,54,8.9,"WOOD BUFFALO","NORTH"
"Z5.6.A.01","12-19 years",6810,3432,50.4,36,0.5,46.5,0.5,"FORT MCMURRAY","NORTH"
"Z5.6.A.01","20-39 years",28164,13314,47.3,825,2.9,51.3,4,"FORT MCMURRAY","NORTH"
"Z5.6.A.01","40-59 years",23077,14989,65,1057,4.6,66.6,5.6,"FORT MCMURRAY","NORTH"
"Z5.6.A.01","60-74 years",6850,4705,68.7,687,10,80.4,12.9,"FORT MCMURRAY","NORTH"
"Z5.6.A.01","75+ years",729,496,68,339,46.5,86,73.7,"FORT MCMURRAY","NORTH"
"Z5.6.A.01","All age years",79888,37111,46.5,2944,3.7,54,8.9,"FORT MCMURRAY","NORTH"
"Z5.7.A.01","12-19 years",7363,2537,34.5,7,0.1,46.5,0.5,"CITY OF GRANDE PRAIRIE","NORTH"
"Z5.7.A.01","20-39 years",26855,9348,34.8,560,2.1,51.3,4,"CITY OF GRANDE PRAIRIE","NORTH"
"Z5.7.A.01","40-59 years",18549,9810,52.9,547,2.9,66.6,5.6,"CITY OF GRANDE PRAIRIE","NORTH"
"Z5.7.A.01","60-74 years",7325,5333,72.8,514,7,80.4,12.9,"CITY OF GRANDE PRAIRIE","NORTH"
"Z5.7.A.01","75+ years",2240,1838,82.1,1532,68.4,86,73.7,"CITY OF GRANDE PRAIRIE","NORTH"
"Z5.7.A.01","All age years",75043,28994,38.6,3160,4.2,54,8.9,"CITY OF GRANDE PRAIRIE","NORTH"
